%!Adobe-FontList 1.22
%Locale:0x409

%BeginFont
Handler:DirectoryHandler
FontType:Invalid
OutlineFileName:/Users/monicagalletto/Documents/corporate-marketing/design/campaigns/go-to-market/fiscal-year-22/ci-cd/ebooks/ci-cd-software-supply-chain-security/_artwork/Document fonts/AdobeFnt22.lst
FileLength:2511
FileModTime:659898850
%EndFont

%BeginFont
Handler:DirectoryHandler
FontType:Type1
FontName:MinionPro-Regular
FamilyName:Minion Pro
StyleName:Regular
MenuName:Minion Pro
StyleBits:0
WeightClass:400
WidthClass:5
AngleClass:0
FullName:Minion Pro
WritingScript:Roman
OutlineFileName:/Users/monicagalletto/Documents/corporate-marketing/design/campaigns/go-to-market/fiscal-year-22/ci-cd/ebooks/ci-cd-software-supply-chain-security/_artwork/Document fonts/MinionPro-Regular.otf
DataFormat:sfntData
UsesStandardEncoding:yes
isCFF:yes
hasSVG:no
VariableFontType:NonVariableFont
FileLength:218640
FileModTime:636559506
DesignSize:110
NameArray:0,Mac,4,Minion Pro
NameArray:0,Win,1,Minion Pro
%EndFont

%BeginFont
Handler:DirectoryHandler
FontType:Type1
FontName:SourceCodeVariable-Roman
FamilyName:Source Code Variable
StyleName:Roman
MenuName:Source Code Variable
FamilyPrefix:SourceCodeRoman
StyleBits:0
WeightClass:400
WidthClass:5
AngleClass:0
FullName:Source Code Variable
WritingScript:Roman
OutlineFileName:/Users/monicagalletto/Documents/corporate-marketing/design/campaigns/go-to-market/fiscal-year-22/ci-cd/ebooks/ci-cd-software-supply-chain-security/_artwork/Document fonts/SourceCodeVariable-Roman.otf
DataFormat:sfntData
UsesStandardEncoding:yes
isCFF:yes
hasSVG:yes
VariableFontType:CFF2VariableFont
FileLength:198600
FileModTime:636559506
DesignSize:100
NameArray:0,Mac,4,Source Code Variable
NameArray:0,Win,1,Source Code Variable
%EndFont

%BeginFont
Handler:DirectoryHandler
FontType:Type1
FontName:SourceSansVariable-Roman
FamilyName:Source Sans Variable
StyleName:Roman
MenuName:Source Sans Variable
FamilyPrefix:SourceSansRoman
StyleBits:0
WeightClass:200
WidthClass:5
AngleClass:0
FullName:Source Sans Variable
WritingScript:Roman
OutlineFileName:/Users/monicagalletto/Documents/corporate-marketing/design/campaigns/go-to-market/fiscal-year-22/ci-cd/ebooks/ci-cd-software-supply-chain-security/_artwork/Document fonts/SourceSansVariable-Roman.otf
DataFormat:sfntData
UsesStandardEncoding:yes
isCFF:yes
hasSVG:no
VariableFontType:CFF2VariableFont
FileLength:414588
FileModTime:636559506
DesignSize:100
NameArray:0,Mac,4,Source Sans Variable
NameArray:0,Win,1,Source Sans Variable
%EndFont

