<?xml version="1.0" encoding="utf-8"?>
<!-- Generator: Adobe Illustrator 21.0.2, SVG Export Plug-In . SVG Version: 6.00 Build 0)  -->
<svg version="1.1" id="Layer_1" xmlns="http://www.w3.org/2000/svg" xmlns:xlink="http://www.w3.org/1999/xlink" x="0px" y="0px"
	 viewBox="0 0 2500 703" style="enable-background:new 0 0 2500 703;" xml:space="preserve">
<style type="text/css">
	.st0{fill:#932279;}
	.st1{fill:#EFA724;}
	.st2{fill:#262577;}
	.st3{fill:#9CCD2A;}
	.st4{fill:#FFFFFF;}
	.st5{fill:#444444;}
</style>
<path d="M2496,412.7c0,29.4-9.3,54.2-27.9,74.3c-18.6,20.1-42.3,30.2-71,30.2l-226.7-0.5v-60.4h186.9c12.5,0,23.1-3,31.6-9.1
	c9.8-7,14.7-16.6,14.7-28.8c0-28.4-19.2-42.7-57.7-42.7h-94.4c-27.2,0-51-8.8-71.5-26.4c-20.5-17.6-30.7-40-30.7-67.1
	c0-30,9.9-54.3,29.8-72.9c20.2-18.9,46.6-28.3,79.2-28.3h216.7v57.5h-191c-8.5,0-17.3,3.8-26.1,11.5c-8.6,7.3-12.8,16.1-12.8,26.4
	c0,11.5,4.1,21.3,12.4,29.3c8.6,7.7,18.8,11.5,30.7,11.5h104c32.4,0,57.7,8.8,76,26.4C2486.7,361,2496,384,2496,412.7L2496,412.7z
	 M2047.8,346.6c0-32.9-7.5-59.1-22.4-78.6c-16.8-21.7-41.7-32.6-74.7-32.6c-32.4,0-56.8,11.7-73.3,35
	c-13.7,19.5-20.6,44.9-20.6,76.2c0,36.1,5.5,62.8,16.5,80.1c15.3,24,43.5,36,84.7,36c34.8,0,59.2-11.7,73.3-35
	C2042.3,409.4,2047.8,382.4,2047.8,346.6L2047.8,346.6z M2129.3,348.5c0,65.2-17.3,111.9-51.8,140c-28.1,22.7-69,34-122.8,34
	c-59.5,0-103.5-13.1-131.9-39.3c-31.1-28.8-46.7-75-46.7-138.6c0-52.1,13.9-92.7,41.7-121.8c30.2-31.6,75.4-47.5,135.6-47.5
	c66.3,0,113,15.2,140.2,45.5C2117.4,247.8,2129.3,290.3,2129.3,348.5z M1755.6,320.2h-61.8v112.7c0,10.2,3.4,18.7,10.1,25.4
	c7.6,6.7,17.7,10.1,30.2,10.1h18.8v48.4h-59.1c-17.7,0-32.8-6.7-45.3-20.1c-7.3-8-12.1-16.8-14.2-26.4c-2.1-9.6-3.2-20.9-3.2-34
	v-116h-40.3v-51.8h40.3v-87.3h62.7v87.3h61.8L1755.6,320.2L1755.6,320.2z M1572.7,516.8H1509V353.3c0-4.2-0.9-7.8-2.7-11
	c-1.8-3.5-4.4-6.9-7.8-10.1c-6.1-5.4-13.1-8.2-21.1-8.2h-62.3v192.7h-63.7V268.4h121.8c21.7,0,37.4,1.3,47.2,3.8
	c15.3,3.8,27.5,12.3,36.6,25.4c10.4,15.3,15.6,32.1,15.6,50.3L1572.7,516.8L1572.7,516.8z M1311.5,518.2h-111.8
	c-27.2,0-50.8-12.1-71-36.4c-19.9-24.6-29.8-52.9-29.8-84.9c0-34.8,10.8-64.9,32.5-90.1c22-25.6,46.4-38.4,73.3-38.4H1311v51.3
	h-77.9c-9.8,0-18.2,1-25.2,2.9c-6.7,1.6-13,5-18.8,10.1c-10.7,9.6-16,22.5-16,38.8h137.4v51.8h-137c0,7.7,0.8,14.2,2.3,19.7
	c1.8,5.1,5.3,10.4,10.5,15.8c5.1,5.1,11.4,8.7,18.3,10.5c7.3,1.6,16.2,2.4,26.6,2.4h80.2L1311.5,518.2L1311.5,518.2z M1075.8,516.8
	H934.2c-14.4,0-28.8-2.1-42.6-6.2c-27.2-8.6-48.7-28.5-64.6-59.5c-14.3-28.1-21.5-60.9-21.5-98.3c0-36.1,6.4-68.1,19.2-95.9
	c14.1-30.7,34.1-51.6,60-62.8c20.2-8.6,40.8-12.9,61.8-12.9h128.3v64.2H941.6c-21.7,0-37.4,12.3-47.2,36.9
	c-7.6,19.2-11.4,44.3-11.4,75.3c0,26.2,4.9,48.4,14.7,66.6c11.3,21.4,27.2,32.1,47.6,32.1l130.5-0.5L1075.8,516.8L1075.8,516.8z"/>
<path class="st0" d="M296.4,325.8l25.3,25.2l-25.3,25.2H118v84L9.2,351L118,243.7v82.1H296.4z"/>
<path class="st1" d="M377.2,296.2L352,321.5l-25.2-25.3V117.8h-84L352,9l107.3,108.8h-82.1V296.2z"/>
<path class="st2" d="M406.8,377l-25.3-25.2l25.3-25.2h178.4v-84L694,351.8L585.2,459.1V377H406.8z"/>
<path class="st3" d="M326,406.6l25.2-25.3l25.2,25.3V585h84L351.2,693.7L243.9,585H326L326,406.6L326,406.6z M111.6,111.4h216.7
	v216.8H111.6V111.4z"/>
<path class="st4" d="M103.9,103.7h232.2v232.2H103.9L103.9,103.7L103.9,103.7z M119.4,320.4h201.3V119.2H119.4V320.4L119.4,320.4z"
	/>
<path class="st0" d="M374.8,111.4h216.7v216.8H374.8V111.4z"/>
<path class="st4" d="M367.1,103.7h232.2v232.2H367.1V103.7L367.1,103.7z M382.6,320.4h201.3V119.2H382.6V320.4L382.6,320.4z"/>
<path class="st1" d="M374.8,374.6h216.7v216.7H374.8V374.6z"/>
<path class="st4" d="M367.1,366.9h232.2v232.2H367.1V366.9z M382.6,583.6h201.3V382.3H382.6V583.6z"/>
<path class="st2" d="M111.6,374.6h216.7v216.7H111.6V374.6z"/>
<path class="st4" d="M103.9,366.9h232.2v232.2H103.9L103.9,366.9L103.9,366.9z M119.4,583.6h201.3V382.3H119.4V583.6z"/>
<path class="st4" d="M165.5,515.6L1.3,351.4l164.2-164.2l164.2,164.2L165.5,515.6L165.5,515.6z M23.2,351.4l142.3,142.3l142.3-142.3
	L165.5,209.1L23.2,351.4L23.2,351.4z M351.6,329.5L187.4,165.3L351.6,1.1l164.2,164.2L351.6,329.5L351.6,329.5z M209.3,165.3
	l142.3,142.3l142.3-142.3L351.6,23L209.3,165.3L209.3,165.3z M537.7,515.6L373.5,351.4l164.2-164.2l164.2,164.2L537.7,515.6
	L537.7,515.6z M395.4,351.4l142.3,142.3L680,351.4L537.7,209.1L395.4,351.4L395.4,351.4z M351.6,701.7L187.4,537.5l164.2-164.2
	l164.2,164.2L351.6,701.7L351.6,701.7z M209.3,537.5l142.3,142.3l142.3-142.3L351.6,395.2L209.3,537.5z"/>
<g>
	<polygon class="st5" points="351.6,1487.8 432.3,1407.1 367.1,1407.1 367.1,1218.7 351.6,1203.2 336.1,1218.7 336.1,1407.1 
		270.9,1407.1 	"/>
	<polygon class="st5" points="382.6,927.2 382.6,1084.6 493.9,973.3 447.8,927.2 	"/>
	<polygon class="st5" points="270.9,911.7 336.1,911.7 336.1,1100.1 351.6,1115.6 367.1,1100.1 367.1,911.7 432.3,911.7 351.6,831 	
		"/>
	<polygon class="st5" points="307.8,1159.4 292.3,1143.9 103.9,1143.9 103.9,1078.7 23.2,1159.4 103.9,1240.1 103.9,1174.9 
		103.9,1174.9 292.3,1174.9 	"/>
	<polygon class="st5" points="426.4,1128.4 583.8,1128.4 583.8,1063.2 537.7,1017.1 	"/>
	<polygon class="st5" points="680,1159.4 599.3,1078.7 599.3,1143.9 410.9,1143.9 395.4,1159.4 395.4,1159.4 410.9,1174.9 
		599.3,1174.9 599.3,1240.1 	"/>
	<polygon class="st5" points="209.3,973.3 320.6,1084.6 320.6,927.2 255.4,927.2 	"/>
	<polygon class="st5" points="583.8,927.2 469.7,927.2 515.8,973.3 382.6,1106.5 382.6,1128.4 404.5,1128.4 537.7,995.2 
		583.8,1041.3 	"/>
	<polygon class="st5" points="583.8,1277.5 537.7,1323.6 404.5,1190.3 382.6,1190.3 382.6,1212.2 515.8,1345.5 469.7,1391.6 
		583.8,1391.6 	"/>
	<polygon class="st5" points="320.6,1391.6 320.6,1234.1 209.3,1345.5 255.4,1391.6 	"/>
	<polygon class="st5" points="382.6,1234.1 382.6,1391.6 447.8,1391.6 493.9,1345.5 	"/>
	<polygon class="st5" points="583.8,1190.3 426.4,1190.3 537.7,1301.7 583.8,1255.6 	"/>
	<polygon class="st5" points="119.4,1128.4 276.9,1128.4 165.5,1017.1 119.4,1063.2 	"/>
	<polygon class="st5" points="119.4,1041.3 165.5,995.2 298.8,1128.4 320.6,1128.4 320.6,1106.5 187.4,973.3 233.5,927.2 
		119.4,927.2 	"/>
	<polygon class="st5" points="165.5,1301.7 276.8,1190.3 119.4,1190.3 119.4,1255.6 	"/>
	<polygon class="st5" points="187.4,1345.5 320.6,1212.2 320.6,1190.3 298.8,1190.3 165.5,1323.6 119.4,1277.5 119.4,1391.6 
		233.5,1391.6 	"/>
</g>
</svg>
