<svg width="1499" height="690" viewBox="0 0 1499 690" fill="none" xmlns="http://www.w3.org/2000/svg">
<path d="M67.2258 439V427.88H63.4458V425.92H73.3258V427.88H69.5458V439H67.2258Z" fill="#AC7FFF"/>
<path d="M75.3974 443.04C75.1307 443.04 74.8974 443.02 74.6974 442.98C74.4974 442.953 74.304 442.907 74.1174 442.84L74.5374 441.04C74.6307 441.067 74.7374 441.093 74.8574 441.12C74.9907 441.16 75.1174 441.18 75.2374 441.18C75.7574 441.18 76.1707 441.02 76.4774 440.7C76.7974 440.393 77.0374 439.993 77.1974 439.5L77.3774 438.88L73.5174 429.18H75.8574L77.5574 434C77.704 434.427 77.844 434.88 77.9774 435.36C78.124 435.827 78.2707 436.293 78.4174 436.76H78.4974C78.6174 436.307 78.7374 435.847 78.8574 435.38C78.9907 434.9 79.1174 434.44 79.2374 434L80.7174 429.18H82.9374L79.3774 439.44C79.1774 440 78.9574 440.5 78.7174 440.94C78.4774 441.38 78.1974 441.753 77.8774 442.06C77.5707 442.38 77.2107 442.62 76.7974 442.78C76.3974 442.953 75.9307 443.04 75.3974 443.04Z" fill="#AC7FFF"/>
<path d="M84.6397 442.88V429.18H86.5397L86.6997 430.22H86.7797C87.193 429.873 87.653 429.573 88.1597 429.32C88.6664 429.067 89.193 428.94 89.7397 428.94C90.353 428.94 90.893 429.06 91.3597 429.3C91.8397 429.527 92.2464 429.86 92.5797 430.3C92.913 430.74 93.1664 431.267 93.3397 431.88C93.513 432.493 93.5997 433.18 93.5997 433.94C93.5997 434.78 93.4797 435.533 93.2397 436.2C93.013 436.853 92.7064 437.407 92.3197 437.86C91.933 438.3 91.4864 438.64 90.9797 438.88C90.473 439.12 89.9464 439.24 89.3997 439.24C88.973 439.24 88.5464 439.147 88.1197 438.96C87.693 438.773 87.2797 438.507 86.8797 438.16L86.9397 439.8V442.88H84.6397ZM88.9197 437.34C89.573 437.34 90.1197 437.06 90.5597 436.5C90.9997 435.927 91.2197 435.08 91.2197 433.96C91.2197 432.973 91.053 432.207 90.7197 431.66C90.3864 431.113 89.8464 430.84 89.0997 430.84C88.4064 430.84 87.6864 431.207 86.9397 431.94V436.52C87.2997 436.827 87.6464 437.04 87.9797 437.16C88.313 437.28 88.6264 437.34 88.9197 437.34Z" fill="#AC7FFF"/>
<path d="M95.9288 439V429.18H98.2288V439H95.9288ZM97.0888 427.46C96.6754 427.46 96.3354 427.34 96.0688 427.1C95.8021 426.86 95.6688 426.547 95.6688 426.16C95.6688 425.773 95.8021 425.46 96.0688 425.22C96.3354 424.967 96.6754 424.84 97.0888 424.84C97.5021 424.84 97.8421 424.967 98.1088 425.22C98.3754 425.46 98.5088 425.773 98.5088 426.16C98.5088 426.547 98.3754 426.86 98.1088 427.1C97.8421 427.34 97.5021 427.46 97.0888 427.46Z" fill="#AC7FFF"/>
<path d="M105.263 439.24C104.596 439.24 103.97 439.127 103.383 438.9C102.81 438.673 102.31 438.34 101.883 437.9C101.456 437.46 101.123 436.92 100.883 436.28C100.643 435.64 100.523 434.913 100.523 434.1C100.523 433.287 100.656 432.56 100.923 431.92C101.19 431.28 101.55 430.74 102.003 430.3C102.456 429.86 102.976 429.527 103.563 429.3C104.163 429.06 104.79 428.94 105.443 428.94C106.083 428.94 106.63 429.047 107.083 429.26C107.55 429.473 107.963 429.733 108.323 430.04L107.203 431.54C106.936 431.313 106.67 431.14 106.403 431.02C106.15 430.887 105.87 430.82 105.563 430.82C104.763 430.82 104.116 431.12 103.623 431.72C103.13 432.307 102.883 433.1 102.883 434.1C102.883 435.087 103.123 435.88 103.603 436.48C104.096 437.067 104.73 437.36 105.503 437.36C105.89 437.36 106.25 437.28 106.583 437.12C106.93 436.947 107.243 436.747 107.523 436.52L108.463 438.04C107.996 438.44 107.483 438.74 106.923 438.94C106.376 439.14 105.823 439.24 105.263 439.24Z" fill="#AC7FFF"/>
<path d="M112.586 439.24C111.719 439.24 111.019 438.98 110.486 438.46C109.953 437.927 109.686 437.227 109.686 436.36C109.686 435.84 109.793 435.38 110.006 434.98C110.233 434.567 110.579 434.213 111.046 433.92C111.526 433.627 112.126 433.38 112.846 433.18C113.579 432.98 114.453 432.827 115.466 432.72C115.453 432.467 115.413 432.227 115.346 432C115.293 431.76 115.193 431.553 115.046 431.38C114.913 431.193 114.733 431.053 114.506 430.96C114.279 430.853 113.999 430.8 113.666 430.8C113.186 430.8 112.713 430.893 112.246 431.08C111.793 431.267 111.346 431.493 110.906 431.76L110.066 430.22C110.613 429.873 111.226 429.573 111.906 429.32C112.586 429.067 113.319 428.94 114.106 428.94C115.333 428.94 116.246 429.307 116.846 430.04C117.459 430.76 117.766 431.807 117.766 433.18V439H115.866L115.706 437.92H115.626C115.186 438.293 114.713 438.607 114.206 438.86C113.713 439.113 113.173 439.24 112.586 439.24ZM113.326 437.44C113.726 437.44 114.086 437.347 114.406 437.16C114.739 436.973 115.093 436.707 115.466 436.36V434.16C114.799 434.24 114.239 434.347 113.786 434.48C113.333 434.613 112.966 434.767 112.686 434.94C112.406 435.1 112.206 435.287 112.086 435.5C111.966 435.713 111.906 435.94 111.906 436.18C111.906 436.62 112.039 436.94 112.306 437.14C112.573 437.34 112.913 437.44 113.326 437.44Z" fill="#AC7FFF"/>
<path d="M122.759 439.24C121.932 439.24 121.352 438.993 121.019 438.5C120.685 438.007 120.519 437.333 120.519 436.48V424.88H122.819V436.6C122.819 436.88 122.872 437.08 122.979 437.2C123.085 437.307 123.199 437.36 123.319 437.36C123.372 437.36 123.419 437.36 123.459 437.36C123.512 437.36 123.585 437.347 123.679 437.32L123.979 439.04C123.672 439.173 123.265 439.24 122.759 439.24Z" fill="#AC7FFF"/>
<path d="M134.712 439.24C134.259 439.24 133.799 439.133 133.332 438.92C132.879 438.693 132.446 438.373 132.032 437.96H131.972L131.772 439H129.952V424.88H132.252V428.52L132.192 430.16C132.606 429.8 133.052 429.507 133.532 429.28C134.026 429.053 134.526 428.94 135.032 428.94C135.646 428.94 136.192 429.06 136.672 429.3C137.152 429.527 137.559 429.86 137.892 430.3C138.226 430.727 138.479 431.247 138.652 431.86C138.826 432.473 138.912 433.16 138.912 433.92C138.912 434.76 138.792 435.513 138.552 436.18C138.326 436.833 138.019 437.387 137.632 437.84C137.246 438.293 136.799 438.64 136.292 438.88C135.786 439.12 135.259 439.24 134.712 439.24ZM134.232 437.34C134.886 437.34 135.432 437.06 135.872 436.5C136.312 435.927 136.532 435.08 136.532 433.96C136.532 432.973 136.366 432.207 136.032 431.66C135.699 431.113 135.159 430.84 134.412 430.84C133.719 430.84 132.999 431.207 132.252 431.94V436.52C132.599 436.827 132.939 437.04 133.272 437.16C133.619 437.28 133.939 437.34 134.232 437.34Z" fill="#AC7FFF"/>
<path d="M141.222 439V429.18H143.122L143.282 430.92H143.362C143.708 430.28 144.128 429.793 144.622 429.46C145.115 429.113 145.622 428.94 146.142 428.94C146.608 428.94 146.982 429.007 147.262 429.14L146.862 431.14C146.688 431.087 146.528 431.047 146.382 431.02C146.235 430.993 146.055 430.98 145.842 430.98C145.455 430.98 145.048 431.133 144.622 431.44C144.195 431.733 143.828 432.253 143.522 433V439H141.222Z" fill="#AC7FFF"/>
<path d="M152.687 439.24C152.007 439.24 151.374 439.127 150.787 438.9C150.201 438.66 149.687 438.32 149.247 437.88C148.807 437.44 148.461 436.907 148.207 436.28C147.967 435.64 147.847 434.913 147.847 434.1C147.847 433.3 147.974 432.58 148.227 431.94C148.481 431.3 148.814 430.76 149.227 430.32C149.654 429.88 150.141 429.54 150.687 429.3C151.234 429.06 151.794 428.94 152.367 428.94C153.034 428.94 153.621 429.053 154.127 429.28C154.634 429.507 155.054 429.827 155.387 430.24C155.734 430.653 155.994 431.147 156.167 431.72C156.341 432.293 156.427 432.92 156.427 433.6C156.427 433.827 156.414 434.04 156.387 434.24C156.374 434.44 156.354 434.6 156.327 434.72H150.087C150.194 435.6 150.501 436.28 151.007 436.76C151.527 437.227 152.187 437.46 152.987 437.46C153.414 437.46 153.807 437.4 154.167 437.28C154.541 437.147 154.907 436.967 155.267 436.74L156.047 438.18C155.581 438.487 155.061 438.74 154.487 438.94C153.914 439.14 153.314 439.24 152.687 439.24ZM150.067 433.16H154.427C154.427 432.4 154.261 431.807 153.927 431.38C153.607 430.94 153.107 430.72 152.427 430.72C151.841 430.72 151.327 430.927 150.887 431.34C150.447 431.753 150.174 432.36 150.067 433.16Z" fill="#AC7FFF"/>
<path d="M160.77 439.24C159.903 439.24 159.203 438.98 158.67 438.46C158.136 437.927 157.87 437.227 157.87 436.36C157.87 435.84 157.976 435.38 158.19 434.98C158.416 434.567 158.763 434.213 159.23 433.92C159.71 433.627 160.31 433.38 161.03 433.18C161.763 432.98 162.636 432.827 163.65 432.72C163.636 432.467 163.596 432.227 163.53 432C163.476 431.76 163.376 431.553 163.23 431.38C163.096 431.193 162.916 431.053 162.69 430.96C162.463 430.853 162.183 430.8 161.85 430.8C161.37 430.8 160.896 430.893 160.43 431.08C159.976 431.267 159.53 431.493 159.09 431.76L158.25 430.22C158.796 429.873 159.41 429.573 160.09 429.32C160.77 429.067 161.503 428.94 162.29 428.94C163.516 428.94 164.43 429.307 165.03 430.04C165.643 430.76 165.95 431.807 165.95 433.18V439H164.05L163.89 437.92H163.81C163.37 438.293 162.896 438.607 162.39 438.86C161.896 439.113 161.356 439.24 160.77 439.24ZM161.51 437.44C161.91 437.44 162.27 437.347 162.59 437.16C162.923 436.973 163.276 436.707 163.65 436.36V434.16C162.983 434.24 162.423 434.347 161.97 434.48C161.516 434.613 161.15 434.767 160.87 434.94C160.59 435.1 160.39 435.287 160.27 435.5C160.15 435.713 160.09 435.94 160.09 436.18C160.09 436.62 160.223 436.94 160.49 437.14C160.756 437.34 161.096 437.44 161.51 437.44Z" fill="#AC7FFF"/>
<path d="M168.702 439V424.88H170.962V433.7H171.022L174.662 429.18H177.182L173.822 433.18L177.522 439H175.022L172.502 434.74L170.962 436.5V439H168.702Z" fill="#AC7FFF"/>
<path d="M177.223 434.8V433.12H181.983V434.8H177.223Z" fill="#AC7FFF"/>
<path d="M188.488 439.24C187.808 439.24 187.175 439.127 186.588 438.9C186.001 438.66 185.488 438.32 185.048 437.88C184.608 437.44 184.261 436.907 184.008 436.28C183.768 435.64 183.648 434.913 183.648 434.1C183.648 433.3 183.775 432.58 184.028 431.94C184.281 431.3 184.615 430.76 185.028 430.32C185.455 429.88 185.941 429.54 186.488 429.3C187.035 429.06 187.595 428.94 188.168 428.94C188.835 428.94 189.421 429.053 189.928 429.28C190.435 429.507 190.855 429.827 191.188 430.24C191.535 430.653 191.795 431.147 191.968 431.72C192.141 432.293 192.228 432.92 192.228 433.6C192.228 433.827 192.215 434.04 192.188 434.24C192.175 434.44 192.155 434.6 192.128 434.72H185.888C185.995 435.6 186.301 436.28 186.808 436.76C187.328 437.227 187.988 437.46 188.788 437.46C189.215 437.46 189.608 437.4 189.968 437.28C190.341 437.147 190.708 436.967 191.068 436.74L191.848 438.18C191.381 438.487 190.861 438.74 190.288 438.94C189.715 439.14 189.115 439.24 188.488 439.24ZM185.868 433.16H190.228C190.228 432.4 190.061 431.807 189.728 431.38C189.408 430.94 188.908 430.72 188.228 430.72C187.641 430.72 187.128 430.927 186.688 431.34C186.248 431.753 185.975 432.36 185.868 433.16Z" fill="#AC7FFF"/>
<path d="M196.625 439L193.205 429.18H195.545L197.105 434.28C197.238 434.76 197.372 435.247 197.505 435.74C197.652 436.233 197.792 436.733 197.925 437.24H198.005C198.152 436.733 198.292 436.233 198.425 435.74C198.558 435.247 198.698 434.76 198.845 434.28L200.405 429.18H202.625L199.285 439H196.625Z" fill="#AC7FFF"/>
<path d="M208.41 439.24C207.73 439.24 207.097 439.127 206.51 438.9C205.923 438.66 205.41 438.32 204.97 437.88C204.53 437.44 204.183 436.907 203.93 436.28C203.69 435.64 203.57 434.913 203.57 434.1C203.57 433.3 203.697 432.58 203.95 431.94C204.203 431.3 204.537 430.76 204.95 430.32C205.377 429.88 205.863 429.54 206.41 429.3C206.957 429.06 207.517 428.94 208.09 428.94C208.757 428.94 209.343 429.053 209.85 429.28C210.357 429.507 210.777 429.827 211.11 430.24C211.457 430.653 211.717 431.147 211.89 431.72C212.063 432.293 212.15 432.92 212.15 433.6C212.15 433.827 212.137 434.04 212.11 434.24C212.097 434.44 212.077 434.6 212.05 434.72H205.81C205.917 435.6 206.223 436.28 206.73 436.76C207.25 437.227 207.91 437.46 208.71 437.46C209.137 437.46 209.53 437.4 209.89 437.28C210.263 437.147 210.63 436.967 210.99 436.74L211.77 438.18C211.303 438.487 210.783 438.74 210.21 438.94C209.637 439.14 209.037 439.24 208.41 439.24ZM205.79 433.16H210.15C210.15 432.4 209.983 431.807 209.65 431.38C209.33 430.94 208.83 430.72 208.15 430.72C207.563 430.72 207.05 430.927 206.61 431.34C206.17 431.753 205.897 432.36 205.79 433.16Z" fill="#AC7FFF"/>
<path d="M214.347 439V429.18H216.247L216.407 430.5H216.487C216.927 430.073 217.4 429.707 217.907 429.4C218.427 429.093 219.027 428.94 219.707 428.94C220.76 428.94 221.527 429.28 222.007 429.96C222.487 430.627 222.727 431.587 222.727 432.84V439H220.427V433.14C220.427 432.327 220.307 431.753 220.067 431.42C219.827 431.087 219.433 430.92 218.887 430.92C218.46 430.92 218.08 431.027 217.747 431.24C217.427 431.44 217.06 431.74 216.647 432.14V439H214.347Z" fill="#AC7FFF"/>
<path d="M229.542 442.88V429.18H231.442L231.602 430.22H231.682C232.095 429.873 232.555 429.573 233.062 429.32C233.569 429.067 234.095 428.94 234.642 428.94C235.255 428.94 235.795 429.06 236.262 429.3C236.742 429.527 237.149 429.86 237.482 430.3C237.815 430.74 238.069 431.267 238.242 431.88C238.415 432.493 238.502 433.18 238.502 433.94C238.502 434.78 238.382 435.533 238.142 436.2C237.915 436.853 237.609 437.407 237.222 437.86C236.835 438.3 236.389 438.64 235.882 438.88C235.375 439.12 234.849 439.24 234.302 439.24C233.875 439.24 233.449 439.147 233.022 438.96C232.595 438.773 232.182 438.507 231.782 438.16L231.842 439.8V442.88H229.542ZM233.822 437.34C234.475 437.34 235.022 437.06 235.462 436.5C235.902 435.927 236.122 435.08 236.122 433.96C236.122 432.973 235.955 432.207 235.622 431.66C235.289 431.113 234.749 430.84 234.002 430.84C233.309 430.84 232.589 431.207 231.842 431.94V436.52C232.202 436.827 232.549 437.04 232.882 437.16C233.215 437.28 233.529 437.34 233.822 437.34Z" fill="#AC7FFF"/>
<path d="M244.851 439.24C244.238 439.24 243.651 439.127 243.091 438.9C242.531 438.673 242.031 438.34 241.591 437.9C241.164 437.46 240.824 436.92 240.571 436.28C240.318 435.64 240.191 434.913 240.191 434.1C240.191 433.287 240.318 432.56 240.571 431.92C240.824 431.28 241.164 430.74 241.591 430.3C242.031 429.86 242.531 429.527 243.091 429.3C243.651 429.06 244.238 428.94 244.851 428.94C245.464 428.94 246.051 429.06 246.611 429.3C247.184 429.527 247.684 429.86 248.111 430.3C248.538 430.74 248.878 431.28 249.131 431.92C249.398 432.56 249.531 433.287 249.531 434.1C249.531 434.913 249.398 435.64 249.131 436.28C248.878 436.92 248.538 437.46 248.111 437.9C247.684 438.34 247.184 438.673 246.611 438.9C246.051 439.127 245.464 439.24 244.851 439.24ZM244.851 437.36C245.571 437.36 246.138 437.067 246.551 436.48C246.964 435.88 247.171 435.087 247.171 434.1C247.171 433.1 246.964 432.307 246.551 431.72C246.138 431.12 245.571 430.82 244.851 430.82C244.131 430.82 243.564 431.12 243.151 431.72C242.751 432.307 242.551 433.1 242.551 434.1C242.551 435.087 242.751 435.88 243.151 436.48C243.564 437.067 244.131 437.36 244.851 437.36Z" fill="#AC7FFF"/>
<path d="M251.808 439V429.18H254.108V439H251.808ZM252.968 427.46C252.554 427.46 252.214 427.34 251.948 427.1C251.681 426.86 251.548 426.547 251.548 426.16C251.548 425.773 251.681 425.46 251.948 425.22C252.214 424.967 252.554 424.84 252.968 424.84C253.381 424.84 253.721 424.967 253.988 425.22C254.254 425.46 254.388 425.773 254.388 426.16C254.388 426.547 254.254 426.86 253.988 427.1C253.721 427.34 253.381 427.46 252.968 427.46Z" fill="#AC7FFF"/>
<path d="M257.042 439V429.18H258.942L259.102 430.5H259.182C259.622 430.073 260.095 429.707 260.602 429.4C261.122 429.093 261.722 428.94 262.402 428.94C263.455 428.94 264.222 429.28 264.702 429.96C265.182 430.627 265.422 431.587 265.422 432.84V439H263.122V433.14C263.122 432.327 263.002 431.753 262.762 431.42C262.522 431.087 262.129 430.92 261.582 430.92C261.155 430.92 260.775 431.027 260.442 431.24C260.122 431.44 259.755 431.74 259.342 432.14V439H257.042Z" fill="#AC7FFF"/>
<path d="M271.693 439.24C271.12 439.24 270.633 439.153 270.233 438.98C269.847 438.807 269.527 438.567 269.273 438.26C269.033 437.94 268.853 437.567 268.733 437.14C268.627 436.7 268.573 436.213 268.573 435.68V431H267.173V429.28L268.693 429.18L268.973 426.5H270.893V429.18H273.393V431H270.893V435.68C270.893 436.827 271.353 437.4 272.273 437.4C272.447 437.4 272.62 437.38 272.793 437.34C272.98 437.3 273.147 437.247 273.293 437.18L273.693 438.88C273.427 438.973 273.12 439.053 272.773 439.12C272.44 439.2 272.08 439.24 271.693 439.24Z" fill="#AC7FFF"/>
<path d="M526.505 685V673.88H522.725V671.92H532.605V673.88H528.825V685H526.505Z" fill="#6E49CB"/>
<path d="M534.583 685V675.18H536.883V685H534.583ZM535.743 673.46C535.33 673.46 534.99 673.34 534.723 673.1C534.456 672.86 534.323 672.547 534.323 672.16C534.323 671.773 534.456 671.46 534.723 671.22C534.99 670.967 535.33 670.84 535.743 670.84C536.156 670.84 536.496 670.967 536.763 671.22C537.03 671.46 537.163 671.773 537.163 672.16C537.163 672.547 537.03 672.86 536.763 673.1C536.496 673.34 536.156 673.46 535.743 673.46Z" fill="#6E49CB"/>
<path d="M539.817 685V675.18H541.717L541.877 676.52H541.957C542.371 676.08 542.817 675.707 543.297 675.4C543.791 675.093 544.344 674.94 544.957 674.94C545.677 674.94 546.251 675.093 546.677 675.4C547.117 675.707 547.451 676.14 547.677 676.7C548.144 676.193 548.631 675.773 549.137 675.44C549.644 675.107 550.211 674.94 550.837 674.94C551.877 674.94 552.644 675.28 553.137 675.96C553.631 676.627 553.877 677.587 553.877 678.84V685H551.557V679.14C551.557 678.327 551.431 677.753 551.177 677.42C550.937 677.087 550.564 676.92 550.057 676.92C549.444 676.92 548.757 677.327 547.997 678.14V685H545.697V679.14C545.697 678.327 545.571 677.753 545.317 677.42C545.077 677.087 544.697 676.92 544.177 676.92C543.564 676.92 542.877 677.327 542.117 678.14V685H539.817Z" fill="#6E49CB"/>
<path d="M560.873 685.24C560.193 685.24 559.56 685.127 558.973 684.9C558.386 684.66 557.873 684.32 557.433 683.88C556.993 683.44 556.646 682.907 556.393 682.28C556.153 681.64 556.033 680.913 556.033 680.1C556.033 679.3 556.16 678.58 556.413 677.94C556.666 677.3 557 676.76 557.413 676.32C557.84 675.88 558.326 675.54 558.873 675.3C559.42 675.06 559.98 674.94 560.553 674.94C561.22 674.94 561.806 675.053 562.313 675.28C562.82 675.507 563.24 675.827 563.573 676.24C563.92 676.653 564.18 677.147 564.353 677.72C564.526 678.293 564.613 678.92 564.613 679.6C564.613 679.827 564.6 680.04 564.573 680.24C564.56 680.44 564.54 680.6 564.513 680.72H558.273C558.38 681.6 558.686 682.28 559.193 682.76C559.713 683.227 560.373 683.46 561.173 683.46C561.6 683.46 561.993 683.4 562.353 683.28C562.726 683.147 563.093 682.967 563.453 682.74L564.233 684.18C563.766 684.487 563.246 684.74 562.673 684.94C562.1 685.14 561.5 685.24 560.873 685.24ZM558.253 679.16H562.613C562.613 678.4 562.446 677.807 562.113 677.38C561.793 676.94 561.293 676.72 560.613 676.72C560.026 676.72 559.513 676.927 559.073 677.34C558.633 677.753 558.36 678.36 558.253 679.16Z" fill="#6E49CB"/>
<path d="M574.234 689.34C573.647 689.34 573.1 689.287 572.594 689.18C572.1 689.073 571.674 688.913 571.314 688.7C570.954 688.487 570.667 688.22 570.454 687.9C570.254 687.58 570.154 687.207 570.154 686.78C570.154 686.367 570.274 685.98 570.514 685.62C570.754 685.273 571.1 684.96 571.554 684.68V684.6C571.3 684.44 571.087 684.227 570.914 683.96C570.754 683.693 570.674 683.36 570.674 682.96C570.674 682.573 570.78 682.227 570.994 681.92C571.22 681.6 571.474 681.34 571.754 681.14V681.06C571.42 680.807 571.12 680.46 570.854 680.02C570.6 679.567 570.474 679.047 570.474 678.46C570.474 677.9 570.58 677.4 570.794 676.96C571.007 676.52 571.287 676.153 571.634 675.86C571.994 675.553 572.407 675.327 572.874 675.18C573.34 675.02 573.834 674.94 574.354 674.94C574.62 674.94 574.874 674.967 575.114 675.02C575.367 675.06 575.594 675.113 575.794 675.18H579.314V676.88H577.514C577.674 677.067 577.807 677.307 577.914 677.6C578.02 677.88 578.074 678.193 578.074 678.54C578.074 679.087 577.974 679.567 577.774 679.98C577.587 680.393 577.327 680.74 576.994 681.02C576.66 681.3 576.267 681.513 575.814 681.66C575.36 681.807 574.874 681.88 574.354 681.88C574.14 681.88 573.92 681.86 573.694 681.82C573.467 681.78 573.24 681.713 573.014 681.62C572.867 681.753 572.747 681.887 572.654 682.02C572.574 682.153 572.534 682.333 572.534 682.56C572.534 682.84 572.647 683.06 572.874 683.22C573.114 683.38 573.534 683.46 574.134 683.46H575.874C577.06 683.46 577.954 683.653 578.554 684.04C579.167 684.413 579.474 685.027 579.474 685.88C579.474 686.36 579.347 686.813 579.094 687.24C578.854 687.667 578.507 688.033 578.054 688.34C577.6 688.647 577.047 688.887 576.394 689.06C575.754 689.247 575.034 689.34 574.234 689.34ZM574.354 680.44C574.82 680.44 575.22 680.273 575.554 679.94C575.887 679.593 576.054 679.1 576.054 678.46C576.054 677.847 575.887 677.373 575.554 677.04C575.234 676.693 574.834 676.52 574.354 676.52C573.874 676.52 573.467 676.687 573.134 677.02C572.8 677.353 572.634 677.833 572.634 678.46C572.634 679.1 572.8 679.593 573.134 679.94C573.467 680.273 573.874 680.44 574.354 680.44ZM574.594 687.84C575.394 687.84 576.034 687.68 576.514 687.36C577.007 687.053 577.254 686.687 577.254 686.26C577.254 685.873 577.1 685.613 576.794 685.48C576.5 685.347 576.074 685.28 575.514 685.28H574.174C573.64 685.28 573.194 685.233 572.834 685.14C572.327 685.527 572.074 685.96 572.074 686.44C572.074 686.88 572.294 687.22 572.734 687.46C573.187 687.713 573.807 687.84 574.594 687.84Z" fill="#6E49CB"/>
<path d="M581.204 685V675.18H583.104L583.264 676.92H583.344C583.691 676.28 584.111 675.793 584.604 675.46C585.097 675.113 585.604 674.94 586.124 674.94C586.591 674.94 586.964 675.007 587.244 675.14L586.844 677.14C586.671 677.087 586.511 677.047 586.364 677.02C586.217 676.993 586.037 676.98 585.824 676.98C585.437 676.98 585.031 677.133 584.604 677.44C584.177 677.733 583.811 678.253 583.504 679V685H581.204Z" fill="#6E49CB"/>
<path d="M592.49 685.24C591.876 685.24 591.29 685.127 590.73 684.9C590.17 684.673 589.67 684.34 589.23 683.9C588.803 683.46 588.463 682.92 588.21 682.28C587.956 681.64 587.83 680.913 587.83 680.1C587.83 679.287 587.956 678.56 588.21 677.92C588.463 677.28 588.803 676.74 589.23 676.3C589.67 675.86 590.17 675.527 590.73 675.3C591.29 675.06 591.876 674.94 592.49 674.94C593.103 674.94 593.69 675.06 594.25 675.3C594.823 675.527 595.323 675.86 595.75 676.3C596.176 676.74 596.516 677.28 596.77 677.92C597.036 678.56 597.17 679.287 597.17 680.1C597.17 680.913 597.036 681.64 596.77 682.28C596.516 682.92 596.176 683.46 595.75 683.9C595.323 684.34 594.823 684.673 594.25 684.9C593.69 685.127 593.103 685.24 592.49 685.24ZM592.49 683.36C593.21 683.36 593.776 683.067 594.19 682.48C594.603 681.88 594.81 681.087 594.81 680.1C594.81 679.1 594.603 678.307 594.19 677.72C593.776 677.12 593.21 676.82 592.49 676.82C591.77 676.82 591.203 677.12 590.79 677.72C590.39 678.307 590.19 679.1 590.19 680.1C590.19 681.087 590.39 681.88 590.79 682.48C591.203 683.067 591.77 683.36 592.49 683.36Z" fill="#6E49CB"/>
<path d="M600.949 685L598.349 675.18H600.669L601.849 680.28C601.956 680.747 602.042 681.213 602.109 681.68C602.189 682.147 602.276 682.62 602.369 683.1H602.449C602.542 682.62 602.636 682.147 602.729 681.68C602.836 681.213 602.949 680.747 603.069 680.28L604.349 675.18H606.449L607.749 680.28C607.869 680.747 607.982 681.213 608.089 681.68C608.196 682.147 608.302 682.62 608.409 683.1H608.489C608.582 682.62 608.669 682.147 608.749 681.68C608.829 681.213 608.916 680.747 609.009 680.28L610.189 675.18H612.349L609.849 685H607.109L605.969 680.42C605.862 679.953 605.762 679.493 605.669 679.04C605.576 678.573 605.476 678.08 605.369 677.56H605.289C605.196 678.08 605.102 678.573 605.009 679.04C604.916 679.507 604.816 679.973 604.709 680.44L603.589 685H600.949Z" fill="#6E49CB"/>
<path d="M614.29 685V675.18H616.59V685H614.29ZM615.45 673.46C615.037 673.46 614.697 673.34 614.43 673.1C614.163 672.86 614.03 672.547 614.03 672.16C614.03 671.773 614.163 671.46 614.43 671.22C614.697 670.967 615.037 670.84 615.45 670.84C615.863 670.84 616.203 670.967 616.47 671.22C616.737 671.46 616.87 671.773 616.87 672.16C616.87 672.547 616.737 672.86 616.47 673.1C616.203 673.34 615.863 673.46 615.45 673.46Z" fill="#6E49CB"/>
<path d="M619.524 685V675.18H621.424L621.584 676.5H621.664C622.104 676.073 622.578 675.707 623.084 675.4C623.604 675.093 624.204 674.94 624.884 674.94C625.938 674.94 626.704 675.28 627.184 675.96C627.664 676.627 627.904 677.587 627.904 678.84V685H625.604V679.14C625.604 678.327 625.484 677.753 625.244 677.42C625.004 677.087 624.611 676.92 624.064 676.92C623.638 676.92 623.258 677.027 622.924 677.24C622.604 677.44 622.238 677.74 621.824 678.14V685H619.524Z" fill="#6E49CB"/>
<path d="M634.136 689.34C633.549 689.34 633.003 689.287 632.496 689.18C632.003 689.073 631.576 688.913 631.216 688.7C630.856 688.487 630.569 688.22 630.356 687.9C630.156 687.58 630.056 687.207 630.056 686.78C630.056 686.367 630.176 685.98 630.416 685.62C630.656 685.273 631.003 684.96 631.456 684.68V684.6C631.203 684.44 630.989 684.227 630.816 683.96C630.656 683.693 630.576 683.36 630.576 682.96C630.576 682.573 630.683 682.227 630.896 681.92C631.123 681.6 631.376 681.34 631.656 681.14V681.06C631.323 680.807 631.023 680.46 630.756 680.02C630.503 679.567 630.376 679.047 630.376 678.46C630.376 677.9 630.483 677.4 630.696 676.96C630.909 676.52 631.189 676.153 631.536 675.86C631.896 675.553 632.309 675.327 632.776 675.18C633.243 675.02 633.736 674.94 634.256 674.94C634.523 674.94 634.776 674.967 635.016 675.02C635.269 675.06 635.496 675.113 635.696 675.18H639.216V676.88H637.416C637.576 677.067 637.709 677.307 637.816 677.6C637.923 677.88 637.976 678.193 637.976 678.54C637.976 679.087 637.876 679.567 637.676 679.98C637.489 680.393 637.229 680.74 636.896 681.02C636.563 681.3 636.169 681.513 635.716 681.66C635.263 681.807 634.776 681.88 634.256 681.88C634.043 681.88 633.823 681.86 633.596 681.82C633.369 681.78 633.143 681.713 632.916 681.62C632.769 681.753 632.649 681.887 632.556 682.02C632.476 682.153 632.436 682.333 632.436 682.56C632.436 682.84 632.549 683.06 632.776 683.22C633.016 683.38 633.436 683.46 634.036 683.46H635.776C636.963 683.46 637.856 683.653 638.456 684.04C639.069 684.413 639.376 685.027 639.376 685.88C639.376 686.36 639.249 686.813 638.996 687.24C638.756 687.667 638.409 688.033 637.956 688.34C637.503 688.647 636.949 688.887 636.296 689.06C635.656 689.247 634.936 689.34 634.136 689.34ZM634.256 680.44C634.723 680.44 635.123 680.273 635.456 679.94C635.789 679.593 635.956 679.1 635.956 678.46C635.956 677.847 635.789 677.373 635.456 677.04C635.136 676.693 634.736 676.52 634.256 676.52C633.776 676.52 633.369 676.687 633.036 677.02C632.703 677.353 632.536 677.833 632.536 678.46C632.536 679.1 632.703 679.593 633.036 679.94C633.369 680.273 633.776 680.44 634.256 680.44ZM634.496 687.84C635.296 687.84 635.936 687.68 636.416 687.36C636.909 687.053 637.156 686.687 637.156 686.26C637.156 685.873 637.003 685.613 636.696 685.48C636.403 685.347 635.976 685.28 635.416 685.28H634.076C633.543 685.28 633.096 685.233 632.736 685.14C632.229 685.527 631.976 685.96 631.976 686.44C631.976 686.88 632.196 687.22 632.636 687.46C633.089 687.713 633.709 687.84 634.496 687.84Z" fill="#6E49CB"/>
<path d="M650.79 685.24C649.91 685.24 649.09 685.093 648.33 684.8C647.584 684.507 646.93 684.073 646.37 683.5C645.824 682.927 645.397 682.22 645.09 681.38C644.784 680.54 644.63 679.58 644.63 678.5C644.63 677.433 644.79 676.48 645.11 675.64C645.43 674.787 645.864 674.067 646.41 673.48C646.97 672.893 647.624 672.447 648.37 672.14C649.13 671.833 649.944 671.68 650.81 671.68C651.744 671.68 652.53 671.853 653.17 672.2C653.824 672.533 654.357 672.913 654.77 673.34L653.53 674.84C653.197 674.52 652.824 674.253 652.41 674.04C652.01 673.813 651.504 673.7 650.89 673.7C650.304 673.7 649.77 673.813 649.29 674.04C648.824 674.253 648.417 674.567 648.07 674.98C647.737 675.38 647.477 675.873 647.29 676.46C647.104 677.047 647.01 677.707 647.01 678.44C647.01 679.933 647.344 681.107 648.01 681.96C648.69 682.8 649.69 683.22 651.01 683.22C651.384 683.22 651.737 683.173 652.07 683.08C652.404 682.973 652.677 682.827 652.89 682.64V679.82H650.41V677.92H654.97V683.68C654.53 684.12 653.944 684.493 653.21 684.8C652.49 685.093 651.684 685.24 650.79 685.24Z" fill="#6E49CB"/>
<path d="M657.669 685V675.18H659.969V685H657.669ZM658.829 673.46C658.416 673.46 658.076 673.34 657.809 673.1C657.542 672.86 657.409 672.547 657.409 672.16C657.409 671.773 657.542 671.46 657.809 671.22C658.076 670.967 658.416 670.84 658.829 670.84C659.242 670.84 659.582 670.967 659.849 671.22C660.116 671.46 660.249 671.773 660.249 672.16C660.249 672.547 660.116 672.86 659.849 673.1C659.582 673.34 659.242 673.46 658.829 673.46Z" fill="#6E49CB"/>
<path d="M666.363 685.24C665.79 685.24 665.303 685.153 664.903 684.98C664.517 684.807 664.197 684.567 663.943 684.26C663.703 683.94 663.523 683.567 663.403 683.14C663.297 682.7 663.243 682.213 663.243 681.68V677H661.843V675.28L663.363 675.18L663.643 672.5H665.563V675.18H668.063V677H665.563V681.68C665.563 682.827 666.023 683.4 666.943 683.4C667.117 683.4 667.29 683.38 667.463 683.34C667.65 683.3 667.817 683.247 667.963 683.18L668.363 684.88C668.097 684.973 667.79 685.053 667.443 685.12C667.11 685.2 666.75 685.24 666.363 685.24Z" fill="#6E49CB"/>
<path d="M670.33 685V671.92H672.65V683.04H678.09V685H670.33Z" fill="#6E49CB"/>
<path d="M682.549 685.24C681.682 685.24 680.982 684.98 680.449 684.46C679.916 683.927 679.649 683.227 679.649 682.36C679.649 681.84 679.756 681.38 679.969 680.98C680.196 680.567 680.542 680.213 681.009 679.92C681.489 679.627 682.089 679.38 682.809 679.18C683.542 678.98 684.416 678.827 685.429 678.72C685.416 678.467 685.376 678.227 685.309 678C685.256 677.76 685.156 677.553 685.009 677.38C684.876 677.193 684.696 677.053 684.469 676.96C684.242 676.853 683.962 676.8 683.629 676.8C683.149 676.8 682.676 676.893 682.209 677.08C681.756 677.267 681.309 677.493 680.869 677.76L680.029 676.22C680.576 675.873 681.189 675.573 681.869 675.32C682.549 675.067 683.282 674.94 684.069 674.94C685.296 674.94 686.209 675.307 686.809 676.04C687.422 676.76 687.729 677.807 687.729 679.18V685H685.829L685.669 683.92H685.589C685.149 684.293 684.676 684.607 684.169 684.86C683.676 685.113 683.136 685.24 682.549 685.24ZM683.289 683.44C683.689 683.44 684.049 683.347 684.369 683.16C684.702 682.973 685.056 682.707 685.429 682.36V680.16C684.762 680.24 684.202 680.347 683.749 680.48C683.296 680.613 682.929 680.767 682.649 680.94C682.369 681.1 682.169 681.287 682.049 681.5C681.929 681.713 681.869 681.94 681.869 682.18C681.869 682.62 682.002 682.94 682.269 683.14C682.536 683.34 682.876 683.44 683.289 683.44Z" fill="#6E49CB"/>
<path d="M695.242 685.24C694.788 685.24 694.328 685.133 693.861 684.92C693.408 684.693 692.975 684.373 692.561 683.96H692.501L692.301 685H690.482V670.88H692.781V674.52L692.721 676.16C693.135 675.8 693.581 675.507 694.061 675.28C694.555 675.053 695.055 674.94 695.561 674.94C696.175 674.94 696.721 675.06 697.201 675.3C697.681 675.527 698.088 675.86 698.421 676.3C698.755 676.727 699.008 677.247 699.182 677.86C699.355 678.473 699.441 679.16 699.441 679.92C699.441 680.76 699.321 681.513 699.081 682.18C698.855 682.833 698.548 683.387 698.161 683.84C697.775 684.293 697.328 684.64 696.822 684.88C696.315 685.12 695.788 685.24 695.242 685.24ZM694.762 683.34C695.415 683.34 695.962 683.06 696.402 682.5C696.842 681.927 697.061 681.08 697.061 679.96C697.061 678.973 696.895 678.207 696.561 677.66C696.228 677.113 695.688 676.84 694.941 676.84C694.248 676.84 693.528 677.207 692.781 677.94V682.52C693.128 682.827 693.468 683.04 693.801 683.16C694.148 683.28 694.468 683.34 694.762 683.34Z" fill="#6E49CB"/>
<path d="M708.135 685.24C707.268 685.24 706.568 684.98 706.035 684.46C705.502 683.927 705.235 683.227 705.235 682.36C705.235 681.84 705.342 681.38 705.555 680.98C705.782 680.567 706.128 680.213 706.595 679.92C707.075 679.627 707.675 679.38 708.395 679.18C709.128 678.98 710.002 678.827 711.015 678.72C711.002 678.467 710.962 678.227 710.895 678C710.842 677.76 710.742 677.553 710.595 677.38C710.462 677.193 710.282 677.053 710.055 676.96C709.828 676.853 709.548 676.8 709.215 676.8C708.735 676.8 708.262 676.893 707.795 677.08C707.342 677.267 706.895 677.493 706.455 677.76L705.615 676.22C706.162 675.873 706.775 675.573 707.455 675.32C708.135 675.067 708.868 674.94 709.655 674.94C710.882 674.94 711.795 675.307 712.395 676.04C713.008 676.76 713.315 677.807 713.315 679.18V685H711.415L711.255 683.92H711.175C710.735 684.293 710.262 684.607 709.755 684.86C709.262 685.113 708.722 685.24 708.135 685.24ZM708.875 683.44C709.275 683.44 709.635 683.347 709.955 683.16C710.288 682.973 710.642 682.707 711.015 682.36V680.16C710.348 680.24 709.788 680.347 709.335 680.48C708.882 680.613 708.515 680.767 708.235 680.94C707.955 681.1 707.755 681.287 707.635 681.5C707.515 681.713 707.455 681.94 707.455 682.18C707.455 682.62 707.588 682.94 707.855 683.14C708.122 683.34 708.462 683.44 708.875 683.44Z" fill="#6E49CB"/>
<path d="M719.507 685.24C718.267 685.24 717.281 684.793 716.547 683.9C715.827 682.993 715.467 681.727 715.467 680.1C715.467 679.3 715.581 678.58 715.807 677.94C716.047 677.3 716.361 676.76 716.747 676.32C717.134 675.88 717.574 675.54 718.067 675.3C718.574 675.06 719.094 674.94 719.627 674.94C720.187 674.94 720.661 675.04 721.047 675.24C721.434 675.427 721.821 675.687 722.207 676.02L722.127 674.44V670.88H724.427V685H722.527L722.367 683.94H722.287C721.927 684.3 721.507 684.607 721.027 684.86C720.547 685.113 720.041 685.24 719.507 685.24ZM720.067 683.34C720.801 683.34 721.487 682.973 722.127 682.24V677.66C721.781 677.353 721.441 677.14 721.107 677.02C720.787 676.9 720.461 676.84 720.127 676.84C719.487 676.84 718.947 677.12 718.507 677.68C718.067 678.24 717.847 679.04 717.847 680.08C717.847 681.147 718.034 681.96 718.407 682.52C718.794 683.067 719.347 683.34 720.067 683.34Z" fill="#6E49CB"/>
<path d="M731.376 685.24C730.763 685.24 730.177 685.127 729.617 684.9C729.057 684.673 728.557 684.34 728.117 683.9C727.69 683.46 727.35 682.92 727.096 682.28C726.843 681.64 726.717 680.913 726.717 680.1C726.717 679.287 726.843 678.56 727.096 677.92C727.35 677.28 727.69 676.74 728.117 676.3C728.557 675.86 729.057 675.527 729.617 675.3C730.177 675.06 730.763 674.94 731.376 674.94C731.99 674.94 732.577 675.06 733.137 675.3C733.71 675.527 734.21 675.86 734.637 676.3C735.063 676.74 735.403 677.28 735.656 677.92C735.923 678.56 736.057 679.287 736.057 680.1C736.057 680.913 735.923 681.64 735.656 682.28C735.403 682.92 735.063 683.46 734.637 683.9C734.21 684.34 733.71 684.673 733.137 684.9C732.577 685.127 731.99 685.24 731.376 685.24ZM731.376 683.36C732.096 683.36 732.663 683.067 733.077 682.48C733.49 681.88 733.697 681.087 733.697 680.1C733.697 679.1 733.49 678.307 733.077 677.72C732.663 677.12 732.096 676.82 731.376 676.82C730.656 676.82 730.09 677.12 729.676 677.72C729.276 678.307 729.076 679.1 729.076 680.1C729.076 681.087 729.276 681.88 729.676 682.48C730.09 683.067 730.656 683.36 731.376 683.36Z" fill="#6E49CB"/>
<path d="M738.333 688.88V675.18H740.233L740.393 676.22H740.473C740.886 675.873 741.346 675.573 741.853 675.32C742.36 675.067 742.886 674.94 743.433 674.94C744.046 674.94 744.586 675.06 745.053 675.3C745.533 675.527 745.94 675.86 746.273 676.3C746.606 676.74 746.86 677.267 747.033 677.88C747.206 678.493 747.293 679.18 747.293 679.94C747.293 680.78 747.173 681.533 746.933 682.2C746.706 682.853 746.4 683.407 746.013 683.86C745.626 684.3 745.18 684.64 744.673 684.88C744.166 685.12 743.64 685.24 743.093 685.24C742.666 685.24 742.24 685.147 741.813 684.96C741.386 684.773 740.973 684.507 740.573 684.16L740.633 685.8V688.88H738.333ZM742.613 683.34C743.266 683.34 743.813 683.06 744.253 682.5C744.693 681.927 744.913 681.08 744.913 679.96C744.913 678.973 744.746 678.207 744.413 677.66C744.08 677.113 743.54 676.84 742.793 676.84C742.1 676.84 741.38 677.207 740.633 677.94V682.52C740.993 682.827 741.34 683.04 741.673 683.16C742.006 683.28 742.32 683.34 742.613 683.34Z" fill="#6E49CB"/>
<path d="M752.633 685.24C752.06 685.24 751.573 685.153 751.173 684.98C750.786 684.807 750.466 684.567 750.213 684.26C749.973 683.94 749.793 683.567 749.673 683.14C749.566 682.7 749.513 682.213 749.513 681.68V677H748.113V675.28L749.633 675.18L749.913 672.5H751.833V675.18H754.333V677H751.833V681.68C751.833 682.827 752.293 683.4 753.213 683.4C753.386 683.4 753.56 683.38 753.733 683.34C753.92 683.3 754.086 683.247 754.233 683.18L754.633 684.88C754.366 684.973 754.06 685.053 753.713 685.12C753.38 685.2 753.02 685.24 752.633 685.24Z" fill="#6E49CB"/>
<path d="M756.399 685V675.18H758.699V685H756.399ZM757.559 673.46C757.146 673.46 756.806 673.34 756.539 673.1C756.273 672.86 756.139 672.547 756.139 672.16C756.139 671.773 756.273 671.46 756.539 671.22C756.806 670.967 757.146 670.84 757.559 670.84C757.973 670.84 758.313 670.967 758.579 671.22C758.846 671.46 758.979 671.773 758.979 672.16C758.979 672.547 758.846 672.86 758.579 673.1C758.313 673.34 757.973 673.46 757.559 673.46Z" fill="#6E49CB"/>
<path d="M765.654 685.24C765.041 685.24 764.454 685.127 763.894 684.9C763.334 684.673 762.834 684.34 762.394 683.9C761.967 683.46 761.627 682.92 761.374 682.28C761.121 681.64 760.994 680.913 760.994 680.1C760.994 679.287 761.121 678.56 761.374 677.92C761.627 677.28 761.967 676.74 762.394 676.3C762.834 675.86 763.334 675.527 763.894 675.3C764.454 675.06 765.041 674.94 765.654 674.94C766.267 674.94 766.854 675.06 767.414 675.3C767.987 675.527 768.487 675.86 768.914 676.3C769.341 676.74 769.681 677.28 769.934 677.92C770.201 678.56 770.334 679.287 770.334 680.1C770.334 680.913 770.201 681.64 769.934 682.28C769.681 682.92 769.341 683.46 768.914 683.9C768.487 684.34 767.987 684.673 767.414 684.9C766.854 685.127 766.267 685.24 765.654 685.24ZM765.654 683.36C766.374 683.36 766.941 683.067 767.354 682.48C767.767 681.88 767.974 681.087 767.974 680.1C767.974 679.1 767.767 678.307 767.354 677.72C766.941 677.12 766.374 676.82 765.654 676.82C764.934 676.82 764.367 677.12 763.954 677.72C763.554 678.307 763.354 679.1 763.354 680.1C763.354 681.087 763.554 681.88 763.954 682.48C764.367 683.067 764.934 683.36 765.654 683.36Z" fill="#6E49CB"/>
<path d="M772.61 685V675.18H774.51L774.67 676.5H774.75C775.19 676.073 775.664 675.707 776.17 675.4C776.69 675.093 777.29 674.94 777.97 674.94C779.024 674.94 779.79 675.28 780.27 675.96C780.75 676.627 780.99 677.587 780.99 678.84V685H778.69V679.14C778.69 678.327 778.57 677.753 778.33 677.42C778.09 677.087 777.697 676.92 777.15 676.92C776.724 676.92 776.344 677.027 776.01 677.24C775.69 677.44 775.324 677.74 774.91 678.14V685H772.61Z" fill="#6E49CB"/>
<path d="M790.186 685.24C789.319 685.24 788.619 684.98 788.086 684.46C787.552 683.927 787.286 683.227 787.286 682.36C787.286 681.84 787.392 681.38 787.606 680.98C787.832 680.567 788.179 680.213 788.646 679.92C789.126 679.627 789.726 679.38 790.446 679.18C791.179 678.98 792.052 678.827 793.066 678.72C793.052 678.467 793.012 678.227 792.946 678C792.892 677.76 792.792 677.553 792.646 677.38C792.512 677.193 792.332 677.053 792.106 676.96C791.879 676.853 791.599 676.8 791.266 676.8C790.786 676.8 790.312 676.893 789.846 677.08C789.392 677.267 788.946 677.493 788.506 677.76L787.666 676.22C788.212 675.873 788.826 675.573 789.506 675.32C790.186 675.067 790.919 674.94 791.706 674.94C792.932 674.94 793.846 675.307 794.446 676.04C795.059 676.76 795.366 677.807 795.366 679.18V685H793.466L793.306 683.92H793.226C792.786 684.293 792.312 684.607 791.806 684.86C791.312 685.113 790.772 685.24 790.186 685.24ZM790.926 683.44C791.326 683.44 791.686 683.347 792.006 683.16C792.339 682.973 792.692 682.707 793.066 682.36V680.16C792.399 680.24 791.839 680.347 791.386 680.48C790.932 680.613 790.566 680.767 790.286 680.94C790.006 681.1 789.806 681.287 789.686 681.5C789.566 681.713 789.506 681.94 789.506 682.18C789.506 682.62 789.639 682.94 789.906 683.14C790.172 683.34 790.512 683.44 790.926 683.44Z" fill="#6E49CB"/>
<path d="M802.218 685.24C801.552 685.24 800.925 685.127 800.338 684.9C799.765 684.673 799.265 684.34 798.838 683.9C798.412 683.46 798.078 682.92 797.838 682.28C797.598 681.64 797.478 680.913 797.478 680.1C797.478 679.287 797.612 678.56 797.878 677.92C798.145 677.28 798.505 676.74 798.958 676.3C799.412 675.86 799.932 675.527 800.518 675.3C801.118 675.06 801.745 674.94 802.398 674.94C803.038 674.94 803.585 675.047 804.038 675.26C804.505 675.473 804.918 675.733 805.278 676.04L804.158 677.54C803.892 677.313 803.625 677.14 803.358 677.02C803.105 676.887 802.825 676.82 802.518 676.82C801.718 676.82 801.072 677.12 800.578 677.72C800.085 678.307 799.838 679.1 799.838 680.1C799.838 681.087 800.078 681.88 800.558 682.48C801.052 683.067 801.685 683.36 802.458 683.36C802.845 683.36 803.205 683.28 803.538 683.12C803.885 682.947 804.198 682.747 804.478 682.52L805.418 684.04C804.952 684.44 804.438 684.74 803.878 684.94C803.332 685.14 802.778 685.24 802.218 685.24Z" fill="#6E49CB"/>
<path d="M807.357 685V675.18H809.257L809.417 676.92H809.497C809.843 676.28 810.263 675.793 810.757 675.46C811.25 675.113 811.757 674.94 812.277 674.94C812.743 674.94 813.117 675.007 813.397 675.14L812.997 677.14C812.823 677.087 812.663 677.047 812.517 677.02C812.37 676.993 812.19 676.98 811.977 676.98C811.59 676.98 811.183 677.133 810.757 677.44C810.33 677.733 809.963 678.253 809.657 679V685H807.357Z" fill="#6E49CB"/>
<path d="M818.642 685.24C818.029 685.24 817.442 685.127 816.882 684.9C816.322 684.673 815.822 684.34 815.382 683.9C814.955 683.46 814.615 682.92 814.362 682.28C814.109 681.64 813.982 680.913 813.982 680.1C813.982 679.287 814.109 678.56 814.362 677.92C814.615 677.28 814.955 676.74 815.382 676.3C815.822 675.86 816.322 675.527 816.882 675.3C817.442 675.06 818.029 674.94 818.642 674.94C819.255 674.94 819.842 675.06 820.402 675.3C820.975 675.527 821.475 675.86 821.902 676.3C822.329 676.74 822.669 677.28 822.922 677.92C823.189 678.56 823.322 679.287 823.322 680.1C823.322 680.913 823.189 681.64 822.922 682.28C822.669 682.92 822.329 683.46 821.902 683.9C821.475 684.34 820.975 684.673 820.402 684.9C819.842 685.127 819.255 685.24 818.642 685.24ZM818.642 683.36C819.362 683.36 819.929 683.067 820.342 682.48C820.755 681.88 820.962 681.087 820.962 680.1C820.962 679.1 820.755 678.307 820.342 677.72C819.929 677.12 819.362 676.82 818.642 676.82C817.922 676.82 817.355 677.12 816.942 677.72C816.542 678.307 816.342 679.1 816.342 680.1C816.342 681.087 816.542 681.88 816.942 682.48C817.355 683.067 817.922 683.36 818.642 683.36Z" fill="#6E49CB"/>
<path d="M828.261 685.24C827.581 685.24 826.907 685.113 826.241 684.86C825.587 684.593 825.021 684.267 824.541 683.88L825.621 682.4C826.061 682.747 826.494 683.02 826.921 683.22C827.361 683.407 827.834 683.5 828.341 683.5C828.874 683.5 829.267 683.393 829.521 683.18C829.774 682.953 829.901 682.667 829.901 682.32C829.901 682.12 829.841 681.947 829.721 681.8C829.601 681.64 829.441 681.5 829.241 681.38C829.041 681.26 828.814 681.153 828.561 681.06C828.307 680.953 828.054 680.847 827.801 680.74C827.481 680.62 827.154 680.48 826.821 680.32C826.487 680.16 826.187 679.967 825.921 679.74C825.667 679.513 825.454 679.253 825.281 678.96C825.121 678.653 825.041 678.293 825.041 677.88C825.041 677.013 825.361 676.307 826.001 675.76C826.641 675.213 827.514 674.94 828.621 674.94C829.301 674.94 829.914 675.06 830.461 675.3C831.007 675.54 831.481 675.813 831.881 676.12L830.821 677.52C830.474 677.267 830.121 677.067 829.761 676.92C829.414 676.76 829.047 676.68 828.661 676.68C828.167 676.68 827.801 676.787 827.561 677C827.334 677.2 827.221 677.453 827.221 677.76C827.221 677.96 827.274 678.133 827.381 678.28C827.501 678.413 827.654 678.533 827.841 678.64C828.027 678.747 828.241 678.847 828.481 678.94C828.734 679.033 828.994 679.127 829.261 679.22C829.594 679.34 829.927 679.48 830.261 679.64C830.594 679.787 830.894 679.973 831.161 680.2C831.441 680.427 831.661 680.707 831.821 681.04C831.994 681.36 832.081 681.747 832.081 682.2C832.081 682.627 831.994 683.027 831.821 683.4C831.661 683.76 831.421 684.08 831.101 684.36C830.781 684.627 830.381 684.84 829.901 685C829.421 685.16 828.874 685.24 828.261 685.24Z" fill="#6E49CB"/>
<path d="M836.874 685.24C836.194 685.24 835.521 685.113 834.854 684.86C834.201 684.593 833.634 684.267 833.154 683.88L834.234 682.4C834.674 682.747 835.107 683.02 835.534 683.22C835.974 683.407 836.447 683.5 836.954 683.5C837.487 683.5 837.881 683.393 838.134 683.18C838.387 682.953 838.514 682.667 838.514 682.32C838.514 682.12 838.454 681.947 838.334 681.8C838.214 681.64 838.054 681.5 837.854 681.38C837.654 681.26 837.427 681.153 837.174 681.06C836.921 680.953 836.667 680.847 836.414 680.74C836.094 680.62 835.767 680.48 835.434 680.32C835.101 680.16 834.801 679.967 834.534 679.74C834.281 679.513 834.067 679.253 833.894 678.96C833.734 678.653 833.654 678.293 833.654 677.88C833.654 677.013 833.974 676.307 834.614 675.76C835.254 675.213 836.127 674.94 837.234 674.94C837.914 674.94 838.527 675.06 839.074 675.3C839.621 675.54 840.094 675.813 840.494 676.12L839.434 677.52C839.087 677.267 838.734 677.067 838.374 676.92C838.027 676.76 837.661 676.68 837.274 676.68C836.781 676.68 836.414 676.787 836.174 677C835.947 677.2 835.834 677.453 835.834 677.76C835.834 677.96 835.887 678.133 835.994 678.28C836.114 678.413 836.267 678.533 836.454 678.64C836.641 678.747 836.854 678.847 837.094 678.94C837.347 679.033 837.607 679.127 837.874 679.22C838.207 679.34 838.541 679.48 838.874 679.64C839.207 679.787 839.507 679.973 839.774 680.2C840.054 680.427 840.274 680.707 840.434 681.04C840.607 681.36 840.694 681.747 840.694 682.2C840.694 682.627 840.607 683.027 840.434 683.4C840.274 683.76 840.034 684.08 839.714 684.36C839.394 684.627 838.994 684.84 838.514 685C838.034 685.16 837.487 685.24 836.874 685.24Z" fill="#6E49CB"/>
<path d="M847.411 689.04C847.144 689.04 846.911 689.02 846.711 688.98C846.511 688.953 846.318 688.907 846.131 688.84L846.551 687.04C846.644 687.067 846.751 687.093 846.871 687.12C847.004 687.16 847.131 687.18 847.251 687.18C847.771 687.18 848.184 687.02 848.491 686.7C848.811 686.393 849.051 685.993 849.211 685.5L849.391 684.88L845.531 675.18H847.871L849.571 680C849.718 680.427 849.858 680.88 849.991 681.36C850.138 681.827 850.284 682.293 850.431 682.76H850.511C850.631 682.307 850.751 681.847 850.871 681.38C851.004 680.9 851.131 680.44 851.251 680L852.731 675.18H854.951L851.391 685.44C851.191 686 850.971 686.5 850.731 686.94C850.491 687.38 850.211 687.753 849.891 688.06C849.584 688.38 849.224 688.62 848.811 688.78C848.411 688.953 847.944 689.04 847.411 689.04Z" fill="#6E49CB"/>
<path d="M860.556 685.24C859.943 685.24 859.356 685.127 858.796 684.9C858.236 684.673 857.736 684.34 857.296 683.9C856.87 683.46 856.53 682.92 856.276 682.28C856.023 681.64 855.896 680.913 855.896 680.1C855.896 679.287 856.023 678.56 856.276 677.92C856.53 677.28 856.87 676.74 857.296 676.3C857.736 675.86 858.236 675.527 858.796 675.3C859.356 675.06 859.943 674.94 860.556 674.94C861.17 674.94 861.756 675.06 862.316 675.3C862.89 675.527 863.39 675.86 863.816 676.3C864.243 676.74 864.583 677.28 864.836 677.92C865.103 678.56 865.236 679.287 865.236 680.1C865.236 680.913 865.103 681.64 864.836 682.28C864.583 682.92 864.243 683.46 863.816 683.9C863.39 684.34 862.89 684.673 862.316 684.9C861.756 685.127 861.17 685.24 860.556 685.24ZM860.556 683.36C861.276 683.36 861.843 683.067 862.256 682.48C862.67 681.88 862.876 681.087 862.876 680.1C862.876 679.1 862.67 678.307 862.256 677.72C861.843 677.12 861.276 676.82 860.556 676.82C859.836 676.82 859.27 677.12 858.856 677.72C858.456 678.307 858.256 679.1 858.256 680.1C858.256 681.087 858.456 681.88 858.856 682.48C859.27 683.067 859.836 683.36 860.556 683.36Z" fill="#6E49CB"/>
<path d="M870.433 685.24C869.379 685.24 868.613 684.907 868.133 684.24C867.653 683.56 867.413 682.593 867.413 681.34V675.18H869.713V681.04C869.713 681.853 869.833 682.427 870.073 682.76C870.313 683.093 870.699 683.26 871.233 683.26C871.659 683.26 872.033 683.153 872.353 682.94C872.686 682.727 873.039 682.38 873.413 681.9V675.18H875.713V685H873.833L873.653 683.56H873.593C873.166 684.067 872.699 684.473 872.193 684.78C871.699 685.087 871.113 685.24 870.433 685.24Z" fill="#6E49CB"/>
<path d="M878.626 685V675.18H880.526L880.686 676.92H880.766C881.113 676.28 881.533 675.793 882.026 675.46C882.519 675.113 883.026 674.94 883.546 674.94C884.013 674.94 884.386 675.007 884.666 675.14L884.266 677.14C884.093 677.087 883.933 677.047 883.786 677.02C883.639 676.993 883.459 676.98 883.246 676.98C882.859 676.98 882.453 677.133 882.026 677.44C881.599 677.733 881.233 678.253 880.926 679V685H878.626Z" fill="#6E49CB"/>
<path d="M894.111 685.24C893.498 685.24 892.911 685.127 892.351 684.9C891.791 684.673 891.291 684.34 890.851 683.9C890.424 683.46 890.084 682.92 889.831 682.28C889.578 681.64 889.451 680.913 889.451 680.1C889.451 679.287 889.578 678.56 889.831 677.92C890.084 677.28 890.424 676.74 890.851 676.3C891.291 675.86 891.791 675.527 892.351 675.3C892.911 675.06 893.498 674.94 894.111 674.94C894.724 674.94 895.311 675.06 895.871 675.3C896.444 675.527 896.944 675.86 897.371 676.3C897.798 676.74 898.138 677.28 898.391 677.92C898.658 678.56 898.791 679.287 898.791 680.1C898.791 680.913 898.658 681.64 898.391 682.28C898.138 682.92 897.798 683.46 897.371 683.9C896.944 684.34 896.444 684.673 895.871 684.9C895.311 685.127 894.724 685.24 894.111 685.24ZM894.111 683.36C894.831 683.36 895.398 683.067 895.811 682.48C896.224 681.88 896.431 681.087 896.431 680.1C896.431 679.1 896.224 678.307 895.811 677.72C895.398 677.12 894.831 676.82 894.111 676.82C893.391 676.82 892.824 677.12 892.411 677.72C892.011 678.307 891.811 679.1 891.811 680.1C891.811 681.087 892.011 681.88 892.411 682.48C892.824 683.067 893.391 683.36 894.111 683.36Z" fill="#6E49CB"/>
<path d="M901.067 685V675.18H902.967L903.127 676.92H903.207C903.554 676.28 903.974 675.793 904.467 675.46C904.961 675.113 905.467 674.94 905.987 674.94C906.454 674.94 906.827 675.007 907.107 675.14L906.707 677.14C906.534 677.087 906.374 677.047 906.227 677.02C906.081 676.993 905.901 676.98 905.687 676.98C905.301 676.98 904.894 677.133 904.467 677.44C904.041 677.733 903.674 678.253 903.367 679V685H901.067Z" fill="#6E49CB"/>
<path d="M911.753 689.34C911.166 689.34 910.62 689.287 910.113 689.18C909.62 689.073 909.193 688.913 908.833 688.7C908.473 688.487 908.186 688.22 907.973 687.9C907.773 687.58 907.673 687.207 907.673 686.78C907.673 686.367 907.793 685.98 908.033 685.62C908.273 685.273 908.62 684.96 909.073 684.68V684.6C908.82 684.44 908.606 684.227 908.433 683.96C908.273 683.693 908.193 683.36 908.193 682.96C908.193 682.573 908.3 682.227 908.513 681.92C908.74 681.6 908.993 681.34 909.273 681.14V681.06C908.94 680.807 908.64 680.46 908.373 680.02C908.12 679.567 907.993 679.047 907.993 678.46C907.993 677.9 908.1 677.4 908.313 676.96C908.526 676.52 908.806 676.153 909.153 675.86C909.513 675.553 909.926 675.327 910.393 675.18C910.86 675.02 911.353 674.94 911.873 674.94C912.14 674.94 912.393 674.967 912.633 675.02C912.886 675.06 913.113 675.113 913.313 675.18H916.833V676.88H915.033C915.193 677.067 915.326 677.307 915.433 677.6C915.54 677.88 915.593 678.193 915.593 678.54C915.593 679.087 915.493 679.567 915.293 679.98C915.106 680.393 914.846 680.74 914.513 681.02C914.18 681.3 913.786 681.513 913.333 681.66C912.88 681.807 912.393 681.88 911.873 681.88C911.66 681.88 911.44 681.86 911.213 681.82C910.986 681.78 910.76 681.713 910.533 681.62C910.386 681.753 910.266 681.887 910.173 682.02C910.093 682.153 910.053 682.333 910.053 682.56C910.053 682.84 910.166 683.06 910.393 683.22C910.633 683.38 911.053 683.46 911.653 683.46H913.393C914.58 683.46 915.473 683.653 916.073 684.04C916.686 684.413 916.993 685.027 916.993 685.88C916.993 686.36 916.866 686.813 916.613 687.24C916.373 687.667 916.026 688.033 915.573 688.34C915.12 688.647 914.566 688.887 913.913 689.06C913.273 689.247 912.553 689.34 911.753 689.34ZM911.873 680.44C912.34 680.44 912.74 680.273 913.073 679.94C913.406 679.593 913.573 679.1 913.573 678.46C913.573 677.847 913.406 677.373 913.073 677.04C912.753 676.693 912.353 676.52 911.873 676.52C911.393 676.52 910.986 676.687 910.653 677.02C910.32 677.353 910.153 677.833 910.153 678.46C910.153 679.1 910.32 679.593 910.653 679.94C910.986 680.273 911.393 680.44 911.873 680.44ZM912.113 687.84C912.913 687.84 913.553 687.68 914.033 687.36C914.526 687.053 914.773 686.687 914.773 686.26C914.773 685.873 914.62 685.613 914.313 685.48C914.02 685.347 913.593 685.28 913.033 685.28H911.693C911.16 685.28 910.713 685.233 910.353 685.14C909.846 685.527 909.593 685.96 909.593 686.44C909.593 686.88 909.813 687.22 910.253 687.46C910.706 687.713 911.326 687.84 912.113 687.84Z" fill="#6E49CB"/>
<path d="M920.752 685.24C919.885 685.24 919.185 684.98 918.652 684.46C918.119 683.927 917.852 683.227 917.852 682.36C917.852 681.84 917.959 681.38 918.172 680.98C918.399 680.567 918.745 680.213 919.212 679.92C919.692 679.627 920.292 679.38 921.012 679.18C921.745 678.98 922.619 678.827 923.632 678.72C923.619 678.467 923.579 678.227 923.512 678C923.459 677.76 923.359 677.553 923.212 677.38C923.079 677.193 922.899 677.053 922.672 676.96C922.445 676.853 922.165 676.8 921.832 676.8C921.352 676.8 920.879 676.893 920.412 677.08C919.959 677.267 919.512 677.493 919.072 677.76L918.232 676.22C918.779 675.873 919.392 675.573 920.072 675.32C920.752 675.067 921.485 674.94 922.272 674.94C923.499 674.94 924.412 675.307 925.012 676.04C925.625 676.76 925.932 677.807 925.932 679.18V685H924.032L923.872 683.92H923.792C923.352 684.293 922.879 684.607 922.372 684.86C921.879 685.113 921.339 685.24 920.752 685.24ZM921.492 683.44C921.892 683.44 922.252 683.347 922.572 683.16C922.905 682.973 923.259 682.707 923.632 682.36V680.16C922.965 680.24 922.405 680.347 921.952 680.48C921.499 680.613 921.132 680.767 920.852 680.94C920.572 681.1 920.372 681.287 920.252 681.5C920.132 681.713 920.072 681.94 920.072 682.18C920.072 682.62 920.205 682.94 920.472 683.14C920.739 683.34 921.079 683.44 921.492 683.44Z" fill="#6E49CB"/>
<path d="M928.685 685V675.18H930.585L930.745 676.5H930.825C931.265 676.073 931.738 675.707 932.245 675.4C932.765 675.093 933.365 674.94 934.045 674.94C935.098 674.94 935.865 675.28 936.345 675.96C936.825 676.627 937.065 677.587 937.065 678.84V685H934.765V679.14C934.765 678.327 934.645 677.753 934.405 677.42C934.165 677.087 933.771 676.92 933.225 676.92C932.798 676.92 932.418 677.027 932.085 677.24C931.765 677.44 931.398 677.74 930.985 678.14V685H928.685Z" fill="#6E49CB"/>
<path d="M939.876 685V675.18H942.176V685H939.876ZM941.036 673.46C940.623 673.46 940.283 673.34 940.016 673.1C939.749 672.86 939.616 672.547 939.616 672.16C939.616 671.773 939.749 671.46 940.016 671.22C940.283 670.967 940.623 670.84 941.036 670.84C941.449 670.84 941.789 670.967 942.056 671.22C942.323 671.46 942.456 671.773 942.456 672.16C942.456 672.547 942.323 672.86 942.056 673.1C941.789 673.34 941.449 673.46 941.036 673.46Z" fill="#6E49CB"/>
<path d="M944.33 685V683.76L948.97 677H944.85V675.18H951.85V676.4L947.23 683.16H952.01V685H944.33Z" fill="#6E49CB"/>
<path d="M956.006 685.24C955.139 685.24 954.439 684.98 953.906 684.46C953.373 683.927 953.106 683.227 953.106 682.36C953.106 681.84 953.213 681.38 953.426 680.98C953.653 680.567 953.999 680.213 954.466 679.92C954.946 679.627 955.546 679.38 956.266 679.18C956.999 678.98 957.873 678.827 958.886 678.72C958.873 678.467 958.833 678.227 958.766 678C958.713 677.76 958.613 677.553 958.466 677.38C958.333 677.193 958.153 677.053 957.926 676.96C957.699 676.853 957.419 676.8 957.086 676.8C956.606 676.8 956.133 676.893 955.666 677.08C955.213 677.267 954.766 677.493 954.326 677.76L953.486 676.22C954.033 675.873 954.646 675.573 955.326 675.32C956.006 675.067 956.739 674.94 957.526 674.94C958.753 674.94 959.666 675.307 960.266 676.04C960.879 676.76 961.186 677.807 961.186 679.18V685H959.286L959.126 683.92H959.046C958.606 684.293 958.133 684.607 957.626 684.86C957.133 685.113 956.593 685.24 956.006 685.24ZM956.746 683.44C957.146 683.44 957.506 683.347 957.826 683.16C958.159 682.973 958.513 682.707 958.886 682.36V680.16C958.219 680.24 957.659 680.347 957.206 680.48C956.753 680.613 956.386 680.767 956.106 680.94C955.826 681.1 955.626 681.287 955.506 681.5C955.386 681.713 955.326 681.94 955.326 682.18C955.326 682.62 955.459 682.94 955.726 683.14C955.993 683.34 956.333 683.44 956.746 683.44Z" fill="#6E49CB"/>
<path d="M967.086 685.24C966.513 685.24 966.026 685.153 965.626 684.98C965.239 684.807 964.919 684.567 964.666 684.26C964.426 683.94 964.246 683.567 964.126 683.14C964.019 682.7 963.966 682.213 963.966 681.68V677H962.566V675.28L964.086 675.18L964.366 672.5H966.286V675.18H968.786V677H966.286V681.68C966.286 682.827 966.746 683.4 967.666 683.4C967.839 683.4 968.013 683.38 968.186 683.34C968.373 683.3 968.539 683.247 968.686 683.18L969.086 684.88C968.819 684.973 968.513 685.053 968.166 685.12C967.833 685.2 967.473 685.24 967.086 685.24Z" fill="#6E49CB"/>
<path d="M970.853 685V675.18H973.153V685H970.853ZM972.013 673.46C971.599 673.46 971.259 673.34 970.993 673.1C970.726 672.86 970.593 672.547 970.593 672.16C970.593 671.773 970.726 671.46 970.993 671.22C971.259 670.967 971.599 670.84 972.013 670.84C972.426 670.84 972.766 670.967 973.033 671.22C973.299 671.46 973.433 671.773 973.433 672.16C973.433 672.547 973.299 672.86 973.033 673.1C972.766 673.34 972.426 673.46 972.013 673.46Z" fill="#6E49CB"/>
<path d="M980.107 685.24C979.494 685.24 978.907 685.127 978.347 684.9C977.787 684.673 977.287 684.34 976.847 683.9C976.42 683.46 976.08 682.92 975.827 682.28C975.574 681.64 975.447 680.913 975.447 680.1C975.447 679.287 975.574 678.56 975.827 677.92C976.08 677.28 976.42 676.74 976.847 676.3C977.287 675.86 977.787 675.527 978.347 675.3C978.907 675.06 979.494 674.94 980.107 674.94C980.72 674.94 981.307 675.06 981.867 675.3C982.44 675.527 982.94 675.86 983.367 676.3C983.794 676.74 984.134 677.28 984.387 677.92C984.654 678.56 984.787 679.287 984.787 680.1C984.787 680.913 984.654 681.64 984.387 682.28C984.134 682.92 983.794 683.46 983.367 683.9C982.94 684.34 982.44 684.673 981.867 684.9C981.307 685.127 980.72 685.24 980.107 685.24ZM980.107 683.36C980.827 683.36 981.394 683.067 981.807 682.48C982.22 681.88 982.427 681.087 982.427 680.1C982.427 679.1 982.22 678.307 981.807 677.72C981.394 677.12 980.827 676.82 980.107 676.82C979.387 676.82 978.82 677.12 978.407 677.72C978.007 678.307 977.807 679.1 977.807 680.1C977.807 681.087 978.007 681.88 978.407 682.48C978.82 683.067 979.387 683.36 980.107 683.36Z" fill="#6E49CB"/>
<path d="M987.064 685V675.18H988.964L989.124 676.5H989.204C989.644 676.073 990.117 675.707 990.624 675.4C991.144 675.093 991.744 674.94 992.424 674.94C993.477 674.94 994.244 675.28 994.724 675.96C995.204 676.627 995.444 677.587 995.444 678.84V685H993.144V679.14C993.144 678.327 993.024 677.753 992.784 677.42C992.544 677.087 992.15 676.92 991.604 676.92C991.177 676.92 990.797 677.027 990.464 677.24C990.144 677.44 989.777 677.74 989.364 678.14V685H987.064Z" fill="#6E49CB"/>
<path fill-rule="evenodd" clip-rule="evenodd" d="M1488.01 634.394L1497.56 643.94C1498.15 644.526 1498.15 645.476 1497.56 646.062L1488.01 655.608C1487.43 656.193 1486.48 656.193 1485.89 655.608C1485.31 655.022 1485.31 654.072 1485.89 653.486L1492.88 646.501H2V643.501H1492.88L1485.89 636.516C1485.31 635.93 1485.31 634.98 1485.89 634.394C1486.48 633.809 1487.43 633.809 1488.01 634.394Z" fill="#6E49CB"/>
<path fill-rule="evenodd" clip-rule="evenodd" d="M2.5 416C2.5 415.172 3.17157 414.5 4 414.5H42.92C43.7484 414.5 44.42 415.172 44.42 416V438.309C44.42 439.137 43.7484 439.809 42.92 439.809H4C3.17157 439.809 2.5 439.137 2.5 438.309V422.432C2.5 421.604 3.17157 420.932 4 420.932C4.82843 420.932 5.5 421.604 5.5 422.432V436.809H41.42V417.5H4C3.17157 417.5 2.5 416.828 2.5 416Z" fill="#AC7FFF"/>
<path fill-rule="evenodd" clip-rule="evenodd" d="M41.42 421.078C41.42 420.25 42.0916 419.578 42.92 419.578H50C50.8284 419.578 51.5 420.25 51.5 421.078V446.389C51.5 447.218 50.8284 447.889 50 447.889H9.07898C8.25055 447.889 7.57898 447.218 7.57898 446.389V438.851C7.57898 438.023 8.25055 437.351 9.07898 437.351C9.90741 437.351 10.579 438.023 10.579 438.851V444.889H48.5V422.578H42.92C42.0916 422.578 41.42 421.907 41.42 421.078Z" fill="#AC7FFF"/>
<path fill-rule="evenodd" clip-rule="evenodd" d="M23.4599 422.811C21.0609 422.811 19.116 424.755 19.116 427.154C19.116 429.554 21.0609 431.498 23.4599 431.498C25.859 431.498 27.8038 429.554 27.8038 427.154C27.8038 424.755 25.859 422.811 23.4599 422.811ZM16.116 427.154C16.116 423.099 19.404 419.811 23.4599 419.811C27.5159 419.811 30.8038 423.099 30.8038 427.154C30.8038 431.21 27.5159 434.498 23.4599 434.498C19.404 434.498 16.116 431.21 16.116 427.154Z" fill="#AC7FFF"/>
<path fill-rule="evenodd" clip-rule="evenodd" d="M1495.83 0.0149454C1496.37 -0.0796607 1496.89 0.284744 1496.99 0.828865L1498.53 9.69584C1498.62 10.24 1498.26 10.7577 1497.71 10.8524C1497.17 10.947 1496.65 10.5826 1496.56 10.0384L1495.42 3.50658C1494.61 4.6084 1493.45 6.17065 1491.93 8.16466C1488.67 12.4523 1483.75 18.7364 1477.13 26.7315C1463.9 42.7218 1443.86 65.5569 1416.65 92.9548C1362.24 147.75 1279.14 220.799 1164.35 293.844C934.764 439.938 578.454 586 71.5 586V584C578.046 584 933.986 438.062 1163.28 292.156C1277.92 219.201 1360.91 146.25 1415.24 91.5455C1442.4 64.1935 1462.39 41.4035 1475.59 25.4563C1482.19 17.4827 1487.09 11.2199 1490.34 6.95286C1491.81 5.01852 1492.95 3.49434 1493.75 2.40689L1487.3 3.52708C1486.76 3.62168 1486.24 3.25728 1486.15 2.71316C1486.05 2.16904 1486.42 1.65125 1486.96 1.55664L1495.83 0.0149454Z" fill="#6E49CB"/>
<path fill-rule="evenodd" clip-rule="evenodd" d="M6.00269 467H2V465H6.00269V467ZM22.0134 467H14.0081V465H22.0134V467ZM38.0242 467H30.0188V465H38.0242V467ZM54.035 467H46.0296V465H54.035V467ZM70.0457 467H62.0403V465H70.0457V467ZM86.0565 467H78.0511V465H86.0565V467ZM102.067 467H94.0618V465H102.067V467ZM118.078 467H110.073V465H118.078V467ZM134.089 467H126.083V465H134.089V467ZM150.099 467H142.094V465H150.099V467ZM166.11 467H158.105V465H166.11V467ZM182.121 467H174.116V465H182.121V467ZM198.132 467H190.126V465H198.132V467ZM214.142 467H206.137V465H214.142V467ZM230.153 467H222.148V465H230.153V467ZM246.164 467H238.159V465H246.164V467ZM262.175 467H254.169V465H262.175V467ZM278.185 467H270.18V465H278.185V467ZM294.196 467H286.191V465H294.196V467ZM310.207 467H302.202V465H310.207V467ZM326.218 467H318.212V465H326.218V467ZM342.228 467H334.223V465H342.228V467ZM358.239 467H350.234V465H358.239V467ZM374.25 467H366.245V465H374.25V467ZM390.261 467H382.255V465H390.261V467ZM406.271 467H398.266V465H406.271V467ZM422.282 467H414.277V465H422.282V467ZM438.293 467H430.288V465H438.293V467ZM454.304 467H446.298V465H454.304V467ZM470.314 467H462.309V465H470.314V467ZM486.325 467H478.32V465H486.325V467ZM502.336 467H494.33V465H502.336V467ZM518.347 467H510.341V465H518.347V467ZM534.357 467H526.352V465H534.357V467ZM550.368 467H542.363V465H550.368V467ZM566.379 467H558.373V465H566.379V467ZM582.39 467H574.384V465H582.39V467ZM598.4 467H590.395V465H598.4V467ZM614.411 467H606.406V465H614.411V467ZM630.422 467H622.416V465H630.422V467ZM646.432 467H638.427V465H646.432V467ZM662.443 467H654.438V465H662.443V467ZM678.454 467H670.449V465H678.454V467ZM694.465 467H686.459V465H694.465V467ZM710.475 467H702.47V465H710.475V467ZM726.486 467H718.481V465H726.486V467ZM742.497 467H734.492V465H742.497V467ZM758.508 467H750.502V465H758.508V467ZM774.518 467H766.513V465H774.518V467ZM790.529 467H782.524V465H790.529V467ZM806.54 467H798.535V465H806.54V467ZM822.551 467H814.545V465H822.551V467ZM838.561 467H830.556V465H838.561V467ZM854.572 467H846.567V465H854.572V467ZM870.583 467H862.578V465H870.583V467ZM886.594 467H878.588V465H886.594V467ZM902.604 467H894.599V465H902.604V467ZM918.615 467H910.61V465H918.615V467ZM934.626 467H926.62V465H934.626V467ZM950.637 467H942.631V465H950.637V467ZM966.647 467H958.642V465H966.647V467ZM982.658 467H974.653V465H982.658V467ZM998.669 467H990.663V465H998.669V467ZM1014.68 467H1006.67V465H1014.68V467ZM1030.69 467H1022.68V465H1030.69V467ZM1046.7 467H1038.7V465H1046.7V467ZM1062.71 467H1054.71V465H1062.71V467ZM1078.72 467H1070.72V465H1078.72V467ZM1094.73 467H1086.73V465H1094.73V467ZM1110.74 467H1102.74V465H1110.74V467ZM1126.75 467H1118.75V465H1126.75V467ZM1142.77 467H1134.76V465H1142.77V467ZM1158.78 467H1150.77V465H1158.78V467ZM1174.79 467H1166.78V465H1174.79V467ZM1190.8 467H1182.79V465H1190.8V467ZM1206.81 467H1198.8V465H1206.81V467ZM1222.82 467H1214.81V465H1222.82V467ZM1238.83 467H1230.82V465H1238.83V467ZM1254.84 467H1246.84V465H1254.84V467ZM1270.85 467H1262.85V465H1270.85V467ZM1286.86 467H1278.86V465H1286.86V467ZM1302.87 467H1294.87V465H1302.87V467ZM1318.88 467H1310.88V465H1318.88V467ZM1334.89 467H1326.89V465H1334.89V467ZM1350.91 467H1342.9V465H1350.91V467ZM1366.92 467H1358.91V465H1366.92V467ZM1382.93 467H1374.92V465H1382.93V467ZM1398.94 467H1390.93V465H1398.94V467ZM1414.95 467H1406.94V465H1414.95V467ZM1430.96 467H1422.95V465H1430.96V467ZM1446.97 467H1438.96V465H1446.97V467ZM1462.98 467H1454.97V465H1462.98V467ZM1478.99 467H1470.99V465H1478.99V467ZM1491 467H1487V465H1491V467Z" fill="#AC7FFF"/>
<path fill-rule="evenodd" clip-rule="evenodd" d="M0.499999 657L0.5 633L3.5 633L3.5 657L0.499999 657Z" fill="#6E49CB"/>
<path d="M2 575C2 571.686 4.68629 569 8 569H46C49.3137 569 52 571.686 52 575V594C52 597.314 49.3137 600 46 600H8C4.68629 600 2 597.314 2 594V575Z" fill="#AC7FFF"/>
<path d="M11.44 591V578H16.36C17.0533 578 17.7133 578.066 18.34 578.2C18.98 578.333 19.5333 578.56 20 578.88C20.48 579.2 20.86 579.633 21.14 580.18C21.42 580.713 21.56 581.386 21.56 582.2C21.56 583.133 21.3667 583.906 20.98 584.52C20.6067 585.133 20.1 585.613 19.46 585.96L22.28 591H18.44L16.2 586.64H14.88V591H11.44ZM14.88 583.92H16.12C17.5067 583.92 18.2 583.346 18.2 582.2C18.2 581.64 18.02 581.253 17.66 581.04C17.3133 580.826 16.8 580.72 16.12 580.72H14.88V583.92Z" fill="#380D75"/>
<path d="M29.5177 591.24C28.611 591.24 27.7843 591.086 27.0377 590.78C26.3043 590.473 25.671 590.033 25.1377 589.46C24.6177 588.873 24.211 588.16 23.9177 587.32C23.6243 586.466 23.4777 585.506 23.4777 584.44C23.4777 583.373 23.6243 582.426 23.9177 581.6C24.211 580.76 24.6177 580.06 25.1377 579.5C25.671 578.926 26.3043 578.493 27.0377 578.2C27.7843 577.906 28.611 577.76 29.5177 577.76C30.411 577.76 31.231 577.906 31.9777 578.2C32.7243 578.493 33.3577 578.926 33.8777 579.5C34.411 580.073 34.8243 580.773 35.1177 581.6C35.411 582.426 35.5577 583.373 35.5577 584.44C35.5577 585.506 35.411 586.466 35.1177 587.32C34.8243 588.16 34.411 588.873 33.8777 589.46C33.3577 590.033 32.7243 590.473 31.9777 590.78C31.231 591.086 30.411 591.24 29.5177 591.24ZM29.5177 588.28C30.3043 588.28 30.9177 587.94 31.3577 587.26C31.811 586.566 32.0377 585.626 32.0377 584.44C32.0377 583.253 31.811 582.34 31.3577 581.7C30.9177 581.046 30.3043 580.72 29.5177 580.72C28.731 580.72 28.111 581.046 27.6577 581.7C27.2177 582.34 26.9977 583.253 26.9977 584.44C26.9977 585.626 27.2177 586.566 27.6577 587.26C28.111 587.94 28.731 588.28 29.5177 588.28Z" fill="#380D75"/>
<path d="M37.8853 591V578H41.3253V591H37.8853Z" fill="#380D75"/>
</svg>
