<?xml version="1.0" encoding="utf-8"?>
<!-- Generator: Adobe Illustrator 25.3.1, SVG Export Plug-In . SVG Version: 6.00 Build 0)  -->
<svg version="1.1" id="Layer_1" xmlns="http://www.w3.org/2000/svg" xmlns:xlink="http://www.w3.org/1999/xlink" x="0px" y="0px"
	 viewBox="0 0 1920 380" style="enable-background:new 0 0 1920 380;" xml:space="preserve">
<style type="text/css">
	.st0{fill:#6E49CB;}
	.st1{fill:#380D75;}
	.st2{fill-rule:evenodd;clip-rule:evenodd;fill:#AC7FFF;}
	.st3{fill-rule:evenodd;clip-rule:evenodd;fill:#6E49CB;}
	.st4{fill-rule:evenodd;clip-rule:evenodd;fill:#380D75;}
	.st5{fill-rule:evenodd;clip-rule:evenodd;fill:#FFFFFF;}
</style>
<path class="st0" d="M1920,343v2H0l0-2H1920z"/>
<path class="st1" d="M526,220h1394v40H526v-20V220z"/>
<path class="st2" d="M526,225v-5h4v3h-1v2H526z M546,220h-8v3h8V220z M554,220v3h8v-3H554z M570.1,220v3h8v-3H570.1z M586.1,220v3h8
	v-3H586.1z M602.1,220v3h8v-3H602.1z M618.1,220v3h8v-3H618.1z M634.2,220v3h8v-3H634.2z M650.2,220v3h8v-3H650.2z M666.2,220v3h8
	v-3H666.2z M682.2,220v3h8v-3H682.2z M698.2,220v3h8v-3H698.2z M714.3,220v3h8v-3H714.3z M730.3,220v3h8v-3H730.3z M746.3,220v3h8
	v-3H746.3z M762.3,220v3h8v-3H762.3z M778.4,220v3h8v-3H778.4z M794.4,220v3h8v-3H794.4z M810.4,220v3h8v-3H810.4z M826.4,220v3h8
	v-3H826.4z M842.5,220v3h8v-3H842.5z M858.5,220v3h8v-3H858.5z M874.5,220v3h8v-3H874.5z M890.5,220v3h8v-3H890.5z M906.5,220v3h8
	v-3H906.5z M922.6,220v3h8v-3H922.6z M938.6,220v3h8v-3H938.6z M954.6,220v3h8v-3H954.6z M970.6,220v3h8v-3H970.6z M986.7,220v3h8
	v-3H986.7z M1002.7,220v3h8v-3H1002.7z M1018.7,220v3h8v-3H1018.7z M1034.7,220v3h8v-3H1034.7z M1050.8,220v3h8v-3H1050.8z
	 M1066.8,220v3h8v-3H1066.8z M1082.8,220v3h8v-3H1082.8z M1098.8,220v3h8v-3H1098.8z M1114.8,220v3h8v-3H1114.8z M1130.9,220v3h8v-3
	H1130.9z M1146.9,220v3h8v-3H1146.9z M1162.9,220v3h8v-3H1162.9z M1178.9,220v3h8v-3H1178.9z M1195,220v3h8v-3H1195z M1211,220v3h8
	v-3H1211z M1227,220v3h8v-3H1227z M1243,220v3h8v-3H1243z M1259.1,220v3h8v-3H1259.1z M1275.1,220v3h8v-3H1275.1z M1291.1,220v3h8
	v-3H1291.1z M1307.1,220v3h8v-3H1307.1z M1323.1,220v3h8v-3H1323.1z M1339.2,220v3h8v-3H1339.2z M1355.2,220v3h8v-3H1355.2z
	 M1371.2,220v3h8v-3H1371.2z M1387.2,220v3h8v-3H1387.2z M1403.3,220v3h8v-3H1403.3z M1419.3,220v3h8v-3H1419.3z M1435.3,220v3h8v-3
	H1435.3z M1451.3,220v3h8v-3H1451.3z M1467.3,220v3h8v-3H1467.3z M1483.4,220v3h8v-3H1483.4z M1499.4,220v3h8v-3H1499.4z
	 M1515.4,220v3h8v-3H1515.4z M1531.4,220v3h8v-3H1531.4z M1547.5,220v3h8v-3H1547.5z M1563.5,220v3h8v-3H1563.5z M1579.5,220v3h8v-3
	H1579.5z M1595.5,220v3h8v-3H1595.5z M1611.6,220v3h8v-3H1611.6z M1627.6,220v3h8v-3H1627.6z M1643.6,220v3h8v-3H1643.6z
	 M1659.6,220v3h8v-3H1659.6z M1675.7,220v3h8v-3H1675.7z M1691.7,220v3h8v-3H1691.7z M1707.7,220v3h8v-3H1707.7z M1723.7,220v3h8v-3
	H1723.7z M1739.7,220v3h8v-3H1739.7z M1755.8,220v3h8v-3H1755.8z M1771.8,220v3h8v-3H1771.8z M1787.8,220v3h8v-3H1787.8z
	 M1803.8,220v3h8v-3H1803.8z M1819.9,220v3h8v-3H1819.9z M1835.9,220v3h8v-3H1835.9z M1851.9,220v3h8v-3H1851.9z M1867.9,220v3h8v-3
	H1867.9z M1883.9,220v3h8v-3H1883.9z M1900,220v3h8v-3H1900z M1916,220v3h1v0.3h3V220H1916z M1920,230h-3v6.7h3V230z M1920,243.3h-3
	v6.7h3V243.3z M1920,256.7h-3v0.3h-1v3h4V256.7z M1908,260v-3h-8v3H1908z M1892,260v-3h-8v3H1892z M1875.9,260v-3h-8v3H1875.9z
	 M1859.9,260v-3h-8v3H1859.9z M1843.9,260v-3h-8v3H1843.9z M1827.9,260v-3h-8v3H1827.9z M1811.8,260v-3h-8v3H1811.8z M1795.8,260v-3
	h-8v3H1795.8z M1779.8,260v-3h-8v3H1779.8z M1763.8,260v-3h-8v3H1763.8z M1747.8,260v-3h-8v3H1747.8z M1731.7,260v-3h-8v3H1731.7z
	 M1715.7,260v-3h-8v3H1715.7z M1699.7,260v-3h-8v3H1699.7z M1683.7,260v-3h-8v3H1683.7z M1667.6,260v-3h-8v3H1667.6z M1651.6,260v-3
	h-8v3H1651.6z M1635.6,260v-3h-8v3H1635.6z M1619.6,260v-3h-8v3H1619.6z M1603.5,260v-3h-8v3H1603.5z M1587.5,260v-3h-8v3H1587.5z
	 M1571.5,260v-3h-8v3H1571.5z M1555.5,260v-3h-8v3H1555.5z M1539.4,260v-3h-8v3H1539.4z M1523.4,260v-3h-8v3H1523.4z M1507.4,260v-3
	h-8v3H1507.4z M1491.4,260v-3h-8v3H1491.4z M1475.4,260v-3h-8v3H1475.4z M1459.3,260v-3h-8v3H1459.3z M1443.3,260v-3h-8v3H1443.3z
	 M1427.3,260v-3h-8v3H1427.3z M1411.3,260v-3h-8v3H1411.3z M1395.2,260v-3h-8v3H1395.2z M1379.2,260v-3h-8v3H1379.2z M1363.2,260v-3
	h-8v3H1363.2z M1347.2,260v-3h-8v3H1347.2z M1331.2,260v-3h-8v3H1331.2z M1315.1,260v-3h-8v3H1315.1z M1299.1,260v-3h-8v3H1299.1z
	 M1283.1,260v-3h-8v3H1283.1z M1267.1,260v-3h-8v3H1267.1z M1251,260v-3h-8v3H1251z M1235,260v-3h-8v3H1235z M1219,260v-3h-8v3H1219
	z M1203,260v-3h-8v3H1203z M1186.9,260v-3h-8v3H1186.9z M1170.9,260v-3h-8v3H1170.9z M1154.9,260v-3h-8v3H1154.9z M1138.9,260v-3h-8
	v3H1138.9z M1122.9,260v-3h-8v3H1122.9z M1106.8,260v-3h-8v3H1106.8z M1090.8,260v-3h-8v3H1090.8z M1074.8,260v-3h-8v3H1074.8z
	 M1058.8,260v-3h-8v3H1058.8z M1042.7,260v-3h-8v3H1042.7z M1026.7,260v-3h-8v3H1026.7z M1010.7,260v-3h-8v3H1010.7z M994.7,260v-3
	h-8v3H994.7z M978.7,260v-3h-8v3H978.7z M962.6,260v-3h-8v3H962.6z M946.6,260v-3h-8v3H946.6z M930.6,260v-3h-8v3H930.6z M914.6,260
	v-3h-8v3H914.6z M898.5,260v-3h-8v3H898.5z M882.5,260v-3h-8v3H882.5z M866.5,260v-3h-8v3H866.5z M850.5,260v-3h-8v3H850.5z
	 M834.4,260v-3h-8v3H834.4z M818.4,260v-3h-8v3H818.4z M802.4,260v-3h-8v3H802.4z M786.4,260v-3h-8v3H786.4z M770.4,260v-3h-8v3
	H770.4z M754.3,260v-3h-8v3H754.3z M738.3,260v-3h-8v3H738.3z M722.3,260v-3h-8v3H722.3z M706.3,260v-3h-8v3H706.3z M690.2,260v-3
	h-8v3H690.2z M674.2,260v-3h-8v3H674.2z M658.2,260v-3h-8v3H658.2z M642.2,260v-3h-8v3H642.2z M626.1,260v-3h-8v3H626.1z M610.1,260
	v-3h-8v3H610.1z M594.1,260v-3h-8v3H594.1z M578.1,260v-3h-8v3H578.1z M562.1,260v-3h-8v3H562.1z M546,260v-3h-8v3H546z M530,260v-3
	h-1v-2h-3v5H530z M526,245h3v-10h-3V245z"/>
<path class="st2" d="M1431,250c5.5,0,10-4.5,10-10s-4.5-10-10-10s-10,4.5-10,10S1425.5,250,1431,250z M1431,253c7.2,0,13-5.8,13-13
	s-5.8-13-13-13s-13,5.8-13,13S1423.8,253,1431,253z"/>
<path class="st2" d="M1431,242c1.1,0,2-0.9,2-2s-0.9-2-2-2s-2,0.9-2,2S1429.9,242,1431,242z M1431,245c2.8,0,5-2.2,5-5s-2.2-5-5-5
	s-5,2.2-5,5S1428.2,245,1431,245z"/>
<path class="st2" d="M1215,250c5.5,0,10-4.5,10-10s-4.5-10-10-10s-10,4.5-10,10S1209.5,250,1215,250z M1215,253c7.2,0,13-5.8,13-13
	s-5.8-13-13-13s-13,5.8-13,13S1207.8,253,1215,253z"/>
<path class="st2" d="M1215,242c1.1,0,2-0.9,2-2s-0.9-2-2-2s-2,0.9-2,2S1213.9,242,1215,242z M1215,245c2.8,0,5-2.2,5-5s-2.2-5-5-5
	s-5,2.2-5,5S1212.2,245,1215,245z"/>
<path class="st2" d="M999,250c5.5,0,10-4.5,10-10s-4.5-10-10-10c-5.5,0-10,4.5-10,10S993.5,250,999,250z M999,253
	c7.2,0,13-5.8,13-13s-5.8-13-13-13s-13,5.8-13,13S991.8,253,999,253z"/>
<path class="st2" d="M999,242c1.1,0,2-0.9,2-2s-0.9-2-2-2c-1.1,0-2,0.9-2,2S997.9,242,999,242z M999,245c2.8,0,5-2.2,5-5s-2.2-5-5-5
	c-2.8,0-5,2.2-5,5S996.2,245,999,245z"/>
<path class="st2" d="M783,250c5.5,0,10-4.5,10-10s-4.5-10-10-10s-10,4.5-10,10S777.5,250,783,250z M783,253c7.2,0,13-5.8,13-13
	s-5.8-13-13-13s-13,5.8-13,13S775.8,253,783,253z"/>
<path class="st2" d="M783,242c1.1,0,2-0.9,2-2s-0.9-2-2-2s-2,0.9-2,2S781.9,242,783,242z M783,245c2.8,0,5-2.2,5-5s-2.2-5-5-5
	s-5,2.2-5,5S780.2,245,783,245z"/>
<path class="st2" d="M1719,250c5.5,0,10-4.5,10-10s-4.5-10-10-10s-10,4.5-10,10S1713.5,250,1719,250z M1719,253c7.2,0,13-5.8,13-13
	s-5.8-13-13-13s-13,5.8-13,13S1711.8,253,1719,253z"/>
<path class="st2" d="M1719,242c1.1,0,2-0.9,2-2s-0.9-2-2-2s-2,0.9-2,2S1717.9,242,1719,242z M1719,245c2.8,0,5-2.2,5-5s-2.2-5-5-5
	s-5,2.2-5,5S1716.2,245,1719,245z"/>
<path class="st2" d="M1863,250c5.5,0,10-4.5,10-10s-4.5-10-10-10s-10,4.5-10,10S1857.5,250,1863,250z M1863,253c7.2,0,13-5.8,13-13
	s-5.8-13-13-13s-13,5.8-13,13S1855.8,253,1863,253z"/>
<path class="st2" d="M1863,242c1.1,0,2-0.9,2-2s-0.9-2-2-2s-2,0.9-2,2S1861.9,242,1863,242z M1863,245c2.8,0,5-2.2,5-5s-2.2-5-5-5
	s-5,2.2-5,5S1860.2,245,1863,245z"/>
<path class="st2" d="M1503,250c5.5,0,10-4.5,10-10s-4.5-10-10-10s-10,4.5-10,10S1497.5,250,1503,250z M1503,253c7.2,0,13-5.8,13-13
	s-5.8-13-13-13s-13,5.8-13,13S1495.8,253,1503,253z"/>
<path class="st2" d="M1503,242c1.1,0,2-0.9,2-2s-0.9-2-2-2s-2,0.9-2,2S1501.9,242,1503,242z M1503,245c2.8,0,5-2.2,5-5s-2.2-5-5-5
	s-5,2.2-5,5S1500.2,245,1503,245z"/>
<path class="st2" d="M1791,250c5.5,0,10-4.5,10-10s-4.5-10-10-10s-10,4.5-10,10S1785.5,250,1791,250z M1791,253c7.2,0,13-5.8,13-13
	s-5.8-13-13-13s-13,5.8-13,13S1783.8,253,1791,253z"/>
<path class="st2" d="M1791,242c1.1,0,2-0.9,2-2s-0.9-2-2-2s-2,0.9-2,2S1789.9,242,1791,242z M1791,245c2.8,0,5-2.2,5-5s-2.2-5-5-5
	s-5,2.2-5,5S1788.2,245,1791,245z"/>
<path class="st0" d="M253,290h240v90H253V290z"/>
<path class="st1" d="M0,220h216v40H0V220z"/>
<path class="st3" d="M213,223H3v34h210V223z M0,220v40h216v-40H0z"/>
<path class="st1" d="M1914,220h6v131h-6V220z"/>
<path class="st0" d="M104,260h6v114h-6V260z"/>
<path class="st0" d="M84,374h46v6H84V374z"/>
<path class="st3" d="M35,250c5.5,0,10-4.5,10-10s-4.5-10-10-10s-10,4.5-10,10S29.5,250,35,250z M35,253c7.2,0,13-5.8,13-13
	s-5.8-13-13-13s-13,5.8-13,13S27.8,253,35,253z"/>
<path class="st0" d="M40,240c0,2.8-2.2,5-5,5s-5-2.2-5-5s2.2-5,5-5S40,237.2,40,240z"/>
<path class="st3" d="M179,250c5.5,0,10-4.5,10-10s-4.5-10-10-10s-10,4.5-10,10S173.5,250,179,250z M179,253c7.2,0,13-5.8,13-13
	s-5.8-13-13-13s-13,5.8-13,13S171.8,253,179,253z"/>
<path class="st0" d="M184,240c0,2.8-2.2,5-5,5s-5-2.2-5-5s2.2-5,5-5S184,237.2,184,240z"/>
<path class="st3" d="M107,250c5.5,0,10-4.5,10-10s-4.5-10-10-10s-10,4.5-10,10S101.5,250,107,250z M107,253c7.2,0,13-5.8,13-13
	s-5.8-13-13-13c-7.2,0-13,5.8-13,13S99.8,253,107,253z"/>
<path class="st0" d="M112,240c0,2.8-2.2,5-5,5s-5-2.2-5-5s2.2-5,5-5S112,237.2,112,240z"/>
<path class="st1" d="M213,49h320v241H213V49z"/>
<path class="st3" d="M530,52H216v235h314V52z M213,49v241h320V49H213z"/>
<path class="st1" d="M327,79h92v72h-92V79z"/>
<path class="st3" d="M416,82h-86v66h86V82z M327,79v72h92V79H327z"/>
<path class="st1" d="M327,156h92v35h-92V156z"/>
<path class="st3" d="M416,159h-86v29h86V159z M327,156v35h92v-35H327z"/>
<path class="st1" d="M335,97c0-5.5,4.5-10,10-10h56c5.5,0,10,4.5,10,10v36c0,5.5-4.5,10-10,10h-56c-5.5,0-10-4.5-10-10V97z"/>
<path class="st3" d="M401,90h-56c-3.9,0-7,3.1-7,7v36c0,3.9,3.1,7,7,7h56c3.9,0,7-3.1,7-7V97C408,93.1,404.9,90,401,90z M345,87
	c-5.5,0-10,4.5-10,10v36c0,5.5,4.5,10,10,10h56c5.5,0,10-4.5,10-10V97c0-5.5-4.5-10-10-10H345z"/>
<path class="st1" d="M304,104.5c0,3-0.5,6-1.5,8.7c-3.5,9.8-12.9,16.8-24,16.8s-20.4-7-24-16.8c-1-2.7-1.5-5.6-1.5-8.7
	c0-14.1,11.4-25.5,25.5-25.5S304,90.4,304,104.5z"/>
<path class="st3" d="M255.1,114.7c-0.2-0.5-0.4-1-0.6-1.5c-1-2.7-1.5-5.6-1.5-8.7c0-14.1,11.4-25.5,25.5-25.5S304,90.4,304,104.5
	c0,3-0.5,6-1.5,8.7c-0.2,0.5-0.4,1-0.6,1.5c-3.9,9-12.9,15.3-23.4,15.3S259,123.7,255.1,114.7z M298.6,114.7
	c-3.7,7.3-11.3,12.3-20.1,12.3s-16.4-5-20.1-12.3H298.6z M299.8,111.7h-42.7c-0.8-2.2-1.2-4.7-1.2-7.2c0-12.4,10.1-22.5,22.5-22.5
	S301,92.1,301,104.5C301,107,300.6,109.4,299.8,111.7z"/>
<path class="st3" d="M291.4,92.5l-8,21l-2.8-1.1l8-21L291.4,92.5z"/>
<path class="st1" d="M304,165.5c0,3-0.5,6-1.5,8.7c-3.5,9.8-12.9,16.8-24,16.8s-20.4-7-24-16.8c-1-2.7-1.5-5.6-1.5-8.7
	c0-14.1,11.4-25.5,25.5-25.5S304,151.4,304,165.5z"/>
<path class="st3" d="M255.1,175.7c-0.2-0.5-0.4-1-0.6-1.5c-1-2.7-1.5-5.6-1.5-8.7c0-14.1,11.4-25.5,25.5-25.5s25.5,11.4,25.5,25.5
	c0,3-0.5,6-1.5,8.7c-0.2,0.5-0.4,1-0.6,1.5c-3.9,9-12.9,15.3-23.4,15.3S259,184.7,255.1,175.7z M298.6,175.7
	c-3.7,7.3-11.3,12.3-20.1,12.3s-16.4-5-20.1-12.3H298.6z M299.8,172.7h-42.7c-0.8-2.2-1.2-4.7-1.2-7.2c0-12.4,10.1-22.5,22.5-22.5
	s22.5,10.1,22.5,22.5C301,168,300.6,170.4,299.8,172.7z"/>
<path class="st3" d="M269.4,152.5l7.5,21.5l-2.8,1l-7.5-21.5L269.4,152.5z"/>
<path class="st0" d="M280,211h186v3H280V211z"/>
<path class="st0" d="M327,167h92v3h-92V167z"/>
<path class="st0" d="M374,156v35h-3v-35H374z"/>
<path class="st0" d="M352,156v35h-3v-35H352z"/>
<path class="st0" d="M396,156v35h-3v-35H396z"/>
<path class="st0" d="M327,177h92v3h-92V177z"/>
<path class="st0" d="M280,234h186v3H280V234z"/>
<path class="st0" d="M280,257h186v3H280V257z"/>
<path class="st1" d="M303,305h140v3H303V305z"/>
<path class="st1" d="M303,318h140v3H303V318z"/>
<path class="st1" d="M303,331h140v3H303V331z"/>
<path class="st3" d="M480.5,101c5.2,0,9.5-4.3,9.5-9.5s-4.3-9.5-9.5-9.5s-9.5,4.3-9.5,9.5S475.3,101,480.5,101z M480.5,104
	c6.9,0,12.5-5.6,12.5-12.5S487.4,79,480.5,79S468,84.6,468,91.5S473.6,104,480.5,104z"/>
<path class="st3" d="M450.5,101c5.2,0,9.5-4.3,9.5-9.5s-4.3-9.5-9.5-9.5s-9.5,4.3-9.5,9.5S445.3,101,450.5,101z M450.5,104
	c6.9,0,12.5-5.6,12.5-12.5S457.4,79,450.5,79S438,84.6,438,91.5S443.6,104,450.5,104z"/>
<path class="st3" d="M480.5,131c5.2,0,9.5-4.3,9.5-9.5s-4.3-9.5-9.5-9.5s-9.5,4.3-9.5,9.5S475.3,131,480.5,131z M480.5,134
	c6.9,0,12.5-5.6,12.5-12.5c0-6.9-5.6-12.5-12.5-12.5s-12.5,5.6-12.5,12.5C468,128.4,473.6,134,480.5,134z"/>
<path class="st3" d="M450.5,131c5.2,0,9.5-4.3,9.5-9.5s-4.3-9.5-9.5-9.5s-9.5,4.3-9.5,9.5S445.3,131,450.5,131z M450.5,134
	c6.9,0,12.5-5.6,12.5-12.5c0-6.9-5.6-12.5-12.5-12.5s-12.5,5.6-12.5,12.5C438,128.4,443.6,134,450.5,134z"/>
<path class="st3" d="M446.5,150c1.9,0,3.5-1.6,3.5-3.5s-1.6-3.5-3.5-3.5s-3.5,1.6-3.5,3.5S444.6,150,446.5,150z M446.5,153
	c3.6,0,6.5-2.9,6.5-6.5s-2.9-6.5-6.5-6.5s-6.5,2.9-6.5,6.5S442.9,153,446.5,153z"/>
<path class="st3" d="M484.5,150c1.9,0,3.5-1.6,3.5-3.5s-1.6-3.5-3.5-3.5s-3.5,1.6-3.5,3.5S482.6,150,484.5,150z M484.5,153
	c3.6,0,6.5-2.9,6.5-6.5s-2.9-6.5-6.5-6.5s-6.5,2.9-6.5,6.5S480.9,153,484.5,153z"/>
<path class="st3" d="M465.5,150c1.9,0,3.5-1.6,3.5-3.5s-1.6-3.5-3.5-3.5s-3.5,1.6-3.5,3.5S463.6,150,465.5,150z M465.5,153
	c3.6,0,6.5-2.9,6.5-6.5s-2.9-6.5-6.5-6.5s-6.5,2.9-6.5,6.5S461.9,153,465.5,153z"/>
<path class="st3" d="M446.5,169c1.9,0,3.5-1.6,3.5-3.5s-1.6-3.5-3.5-3.5s-3.5,1.6-3.5,3.5S444.6,169,446.5,169z M446.5,172
	c3.6,0,6.5-2.9,6.5-6.5s-2.9-6.5-6.5-6.5s-6.5,2.9-6.5,6.5S442.9,172,446.5,172z"/>
<path class="st3" d="M484.5,169c1.9,0,3.5-1.6,3.5-3.5s-1.6-3.5-3.5-3.5s-3.5,1.6-3.5,3.5S482.6,169,484.5,169z M484.5,172
	c3.6,0,6.5-2.9,6.5-6.5s-2.9-6.5-6.5-6.5s-6.5,2.9-6.5,6.5S480.9,172,484.5,172z"/>
<path class="st3" d="M465.5,169c1.9,0,3.5-1.6,3.5-3.5s-1.6-3.5-3.5-3.5s-3.5,1.6-3.5,3.5S463.6,169,465.5,169z M465.5,172
	c3.6,0,6.5-2.9,6.5-6.5s-2.9-6.5-6.5-6.5s-6.5,2.9-6.5,6.5S461.9,172,465.5,172z"/>
<path class="st3" d="M446.5,188c1.9,0,3.5-1.6,3.5-3.5s-1.6-3.5-3.5-3.5s-3.5,1.6-3.5,3.5S444.6,188,446.5,188z M446.5,191
	c3.6,0,6.5-2.9,6.5-6.5s-2.9-6.5-6.5-6.5s-6.5,2.9-6.5,6.5S442.9,191,446.5,191z"/>
<path class="st3" d="M484.5,188c1.9,0,3.5-1.6,3.5-3.5s-1.6-3.5-3.5-3.5s-3.5,1.6-3.5,3.5S482.6,188,484.5,188z M484.5,191
	c3.6,0,6.5-2.9,6.5-6.5s-2.9-6.5-6.5-6.5s-6.5,2.9-6.5,6.5S480.9,191,484.5,191z"/>
<path class="st3" d="M465.5,188c1.9,0,3.5-1.6,3.5-3.5s-1.6-3.5-3.5-3.5s-3.5,1.6-3.5,3.5S463.6,188,465.5,188z M465.5,191
	c3.6,0,6.5-2.9,6.5-6.5s-2.9-6.5-6.5-6.5s-6.5,2.9-6.5,6.5S461.9,191,465.5,191z"/>
<path class="st0" d="M533,79l15,10v131h-15V79z"/>
<path class="st0" d="M213,79l-15,10v131h15V79z"/>
<path class="st0" d="M233,34h280v15H233V34z"/>
<path class="st4" d="M440,347H306v15h134V347z M303,344v21h140v-21H303z"/>
<path class="st3" d="M292,27h-27v7h27V27z M262,24v13h33V24H262z"/>
<path class="st3" d="M288,24V12.5c0-5.2-4.3-9.5-9.5-9.5s-9.5,4.3-9.5,9.5V24H288z M278.5,0C271.6,0,266,5.6,266,12.5V27h25V12.5
	C291,5.6,285.4,0,278.5,0z"/>
<path class="st1" d="M87,172h42v50.8H87V172z"/>
<path class="st3" d="M126,175H90v44.8h36V175z M87,172v50.8h42V172H87z"/>
<path class="st0" d="M109.2,186c0,3.9-3.1,7-7,7c-3.9,0-7-3.1-7-7s3.1-7,7-7C106,179,109.2,182.1,109.2,186z"/>
<path class="st3" d="M102.2,190c2.2,0,4-1.8,4-4c0-2.2-1.8-4-4-4c-2.2,0-4,1.8-4,4C98.2,188.2,100,190,102.2,190z M102.2,193
	c3.9,0,7-3.1,7-7s-3.1-7-7-7c-3.9,0-7,3.1-7,7S98.3,193,102.2,193z"/>
<path class="st0" d="M95.2,205.2h25.7v8.8H95.2V205.2z"/>
<path class="st3" d="M117.8,208.2H98.2v2.8h19.7V208.2z M95.2,205.2v8.8h25.7v-8.8H95.2z"/>
<path class="st0" d="M120.8,183.7V200h-14L120.8,183.7z"/>
<path class="st3" d="M120.8,183.7l-14,16.3h14V183.7z M117.8,191.8l-4.5,5.2h4.5V191.8z"/>
<path class="st1" d="M30,172h42v50.8H30V172z"/>
<path class="st3" d="M69,175H33v44.8h36V175z M30,172v50.8h42V172H30z"/>
<path class="st0" d="M52.2,186c0,3.9-3.1,7-7,7s-7-3.1-7-7s3.1-7,7-7S52.2,182.1,52.2,186z"/>
<path class="st3" d="M45.2,190c2.2,0,4-1.8,4-4c0-2.2-1.8-4-4-4c-2.2,0-4,1.8-4,4C41.2,188.2,43,190,45.2,190z M45.2,193
	c3.9,0,7-3.1,7-7s-3.1-7-7-7s-7,3.1-7,7S41.3,193,45.2,193z"/>
<path class="st0" d="M38.2,205.2h25.7v8.8H38.2V205.2z"/>
<path class="st3" d="M60.8,208.2H41.2v2.8h19.7V208.2z M38.2,205.2v8.8h25.7v-8.8H38.2z"/>
<path class="st0" d="M63.8,183.7V200h-14L63.8,183.7z"/>
<path class="st3" d="M63.8,183.7l-14,16.3h14V183.7z M60.8,191.8l-4.5,5.2h4.5V191.8z"/>
<path class="st1" d="M144,172h42v50.8h-42V172z"/>
<path class="st3" d="M183,175h-36v44.8h36V175z M144,172v50.8h42V172H144z"/>
<path class="st0" d="M166.2,186c0,3.9-3.1,7-7,7c-3.9,0-7-3.1-7-7s3.1-7,7-7C163,179,166.2,182.1,166.2,186z"/>
<path class="st3" d="M159.2,190c2.2,0,4-1.8,4-4c0-2.2-1.8-4-4-4c-2.2,0-4,1.8-4,4C155.2,188.2,157,190,159.2,190z M159.2,193
	c3.9,0,7-3.1,7-7s-3.1-7-7-7c-3.9,0-7,3.1-7,7S155.3,193,159.2,193z"/>
<path class="st0" d="M152.2,205.2h25.7v8.8h-25.7V205.2z"/>
<path class="st3" d="M174.8,208.2h-19.7v2.8h19.7V208.2z M152.2,205.2v8.8h25.7v-8.8H152.2z"/>
<path class="st0" d="M177.8,183.7V200h-14L177.8,183.7z"/>
<path class="st3" d="M177.8,183.7l-14,16.3h14V183.7z M174.8,191.8l-4.5,5.2h4.5V191.8z"/>
<path class="st1" d="M598,124h82v99h-82V124z"/>
<path class="st2" d="M677,127h-76v93h76V127z M598,124v99h82v-99H598z"/>
<path class="st2" d="M627.5,162c5.8,0,10.5-4.7,10.5-10.5s-4.7-10.5-10.5-10.5s-10.5,4.7-10.5,10.5S621.7,162,627.5,162z M627.5,165
	c7.5,0,13.5-6,13.5-13.5s-6-13.5-13.5-13.5s-13.5,6-13.5,13.5S620,165,627.5,165z"/>
<path class="st2" d="M661,192h-44v11h44V192z M614,189v17h50v-17H614z"/>
<path class="st2" d="M664,147l-27,32h27V147z M661,155.2L643.5,176H661V155.2z"/>
<path class="st0" d="M564,125.5c0-0.8,0.7-1.5,1.5-1.5l0,0c0.8,0,1.5,0.7,1.5,1.5v4c0,0.8-0.7,1.5-1.5,1.5l0,0
	c-0.8,0-1.5-0.7-1.5-1.5V125.5z"/>
<path class="st0" d="M564,139.5c0-0.8,0.7-1.5,1.5-1.5l0,0c0.8,0,1.5,0.7,1.5,1.5v4c0,0.8-0.7,1.5-1.5,1.5l0,0
	c-0.8,0-1.5-0.7-1.5-1.5V139.5z"/>
<path class="st0" d="M574.5,133c0.8,0,1.5,0.7,1.5,1.5l0,0c0,0.8-0.7,1.5-1.5,1.5h-4c-0.8,0-1.5-0.7-1.5-1.5l0,0
	c0-0.8,0.7-1.5,1.5-1.5H574.5z"/>
<path class="st0" d="M560.5,133c0.8,0,1.5,0.7,1.5,1.5l0,0c0,0.8-0.7,1.5-1.5,1.5h-4c-0.8,0-1.5-0.7-1.5-1.5l0,0
	c0-0.8,0.7-1.5,1.5-1.5H560.5z"/>
<path class="st0" d="M576,159.5c0-0.8,0.7-1.5,1.5-1.5l0,0c0.8,0,1.5,0.7,1.5,1.5v4c0,0.8-0.7,1.5-1.5,1.5l0,0
	c-0.8,0-1.5-0.7-1.5-1.5V159.5z"/>
<path class="st0" d="M576,173.5c0-0.8,0.7-1.5,1.5-1.5l0,0c0.8,0,1.5,0.7,1.5,1.5v4c0,0.8-0.7,1.5-1.5,1.5l0,0
	c-0.8,0-1.5-0.7-1.5-1.5V173.5z"/>
<path class="st0" d="M586.5,167c0.8,0,1.5,0.7,1.5,1.5l0,0c0,0.8-0.7,1.5-1.5,1.5h-4c-0.8,0-1.5-0.7-1.5-1.5l0,0
	c0-0.8,0.7-1.5,1.5-1.5H586.5z"/>
<path class="st0" d="M572.5,167c0.8,0,1.5,0.7,1.5,1.5l0,0c0,0.8-0.7,1.5-1.5,1.5h-4c-0.8,0-1.5-0.7-1.5-1.5l0,0
	c0-0.8,0.7-1.5,1.5-1.5H572.5z"/>
<path class="st0" d="M581,91.5c0-0.8,0.7-1.5,1.5-1.5l0,0c0.8,0,1.5,0.7,1.5,1.5v4c0,0.8-0.7,1.5-1.5,1.5l0,0
	c-0.8,0-1.5-0.7-1.5-1.5V91.5z"/>
<path class="st0" d="M581,105.5c0-0.8,0.7-1.5,1.5-1.5l0,0c0.8,0,1.5,0.7,1.5,1.5v4c0,0.8-0.7,1.5-1.5,1.5l0,0
	c-0.8,0-1.5-0.7-1.5-1.5V105.5z"/>
<path class="st0" d="M591.5,99c0.8,0,1.5,0.7,1.5,1.5l0,0c0,0.8-0.7,1.5-1.5,1.5h-4c-0.8,0-1.5-0.7-1.5-1.5l0,0
	c0-0.8,0.7-1.5,1.5-1.5H591.5z"/>
<path class="st0" d="M577.5,99c0.8,0,1.5,0.7,1.5,1.5l0,0c0,0.8-0.7,1.5-1.5,1.5h-4c-0.8,0-1.5-0.7-1.5-1.5l0,0
	c0-0.8,0.7-1.5,1.5-1.5H577.5z"/>
<path class="st1" d="M742,124h82v99h-82V124z"/>
<path class="st2" d="M821,127h-76v93h76V127z M742,124v99h82v-99H742z"/>
<path class="st2" d="M771.5,162c5.8,0,10.5-4.7,10.5-10.5s-4.7-10.5-10.5-10.5s-10.5,4.7-10.5,10.5S765.7,162,771.5,162z M771.5,165
	c7.5,0,13.5-6,13.5-13.5s-6-13.5-13.5-13.5s-13.5,6-13.5,13.5S764,165,771.5,165z"/>
<path class="st2" d="M805,192h-44v11h44V192z M758,189v17h50v-17H758z"/>
<path class="st2" d="M808,147l-27,32h27V147z M805,155.2L787.5,176H805V155.2z"/>
<path class="st1" d="M886,124h82v99h-82V124z"/>
<path class="st2" d="M965,127h-76v93h76V127z M886,124v99h82v-99H886z"/>
<path class="st2" d="M915.5,162c5.8,0,10.5-4.7,10.5-10.5s-4.7-10.5-10.5-10.5s-10.5,4.7-10.5,10.5S909.7,162,915.5,162z M915.5,165
	c7.5,0,13.5-6,13.5-13.5s-6-13.5-13.5-13.5s-13.5,6-13.5,13.5S908,165,915.5,165z"/>
<path class="st2" d="M949,192h-44v11h44V192z M902,189v17h50v-17H902z"/>
<path class="st2" d="M952,147l-27,32h27V147z M949,155.2L931.5,176H949V155.2z"/>
<path class="st1" d="M1030,124h82v99h-82V124z"/>
<path class="st2" d="M1109,127h-76v93h76V127z M1030,124v99h82v-99H1030z"/>
<path class="st2" d="M1059.5,162c5.8,0,10.5-4.7,10.5-10.5s-4.7-10.5-10.5-10.5s-10.5,4.7-10.5,10.5S1053.7,162,1059.5,162z
	 M1059.5,165c7.5,0,13.5-6,13.5-13.5s-6-13.5-13.5-13.5s-13.5,6-13.5,13.5S1052,165,1059.5,165z"/>
<path class="st2" d="M1093,192h-44v11h44V192z M1046,189v17h50v-17H1046z"/>
<path class="st2" d="M1096,147l-27,32h27V147z M1093,155.2l-17.5,20.8h17.5V155.2z"/>
<path class="st1" d="M1174,124h82v99h-82V124z"/>
<path class="st2" d="M1253,127h-76v93h76V127z M1174,124v99h82v-99H1174z"/>
<path class="st2" d="M1203.5,162c5.8,0,10.5-4.7,10.5-10.5s-4.7-10.5-10.5-10.5s-10.5,4.7-10.5,10.5S1197.7,162,1203.5,162z
	 M1203.5,165c7.5,0,13.5-6,13.5-13.5s-6-13.5-13.5-13.5s-13.5,6-13.5,13.5S1196,165,1203.5,165z"/>
<path class="st2" d="M1237,192h-44v11h44V192z M1190,189v17h50v-17H1190z"/>
<path class="st2" d="M1240,147l-27,32h27V147z M1237,155.2l-17.5,20.8h17.5V155.2z"/>
<path class="st1" d="M1318,124h82v99h-82V124z"/>
<path class="st2" d="M1397,127h-76v93h76V127z M1318,124v99h82v-99H1318z"/>
<path class="st2" d="M1347.5,162c5.8,0,10.5-4.7,10.5-10.5s-4.7-10.5-10.5-10.5s-10.5,4.7-10.5,10.5S1341.7,162,1347.5,162z
	 M1347.5,165c7.5,0,13.5-6,13.5-13.5s-6-13.5-13.5-13.5s-13.5,6-13.5,13.5S1340,165,1347.5,165z"/>
<path class="st2" d="M1381,192h-44v11h44V192z M1334,189v17h50v-17H1334z"/>
<path class="st2" d="M1384,147l-27,32h27V147z M1381,155.2l-17.5,20.8h17.5V155.2z"/>
<path class="st1" d="M1462,124h82v99h-82V124z"/>
<path class="st2" d="M1541,127h-76v93h76V127z M1462,124v99h82v-99H1462z"/>
<path class="st2" d="M1491.5,162c5.8,0,10.5-4.7,10.5-10.5s-4.7-10.5-10.5-10.5s-10.5,4.7-10.5,10.5S1485.7,162,1491.5,162z
	 M1491.5,165c7.5,0,13.5-6,13.5-13.5s-6-13.5-13.5-13.5s-13.5,6-13.5,13.5S1484,165,1491.5,165z"/>
<path class="st2" d="M1525,192h-44v11h44V192z M1478,189v17h50v-17H1478z"/>
<path class="st2" d="M1528,147l-27,32h27V147z M1525,155.2l-17.5,20.8h17.5V155.2z"/>
<path class="st1" d="M1606,124h82v99h-82V124z"/>
<path class="st2" d="M1685,127h-76v93h76V127z M1606,124v99h82v-99H1606z"/>
<path class="st2" d="M1635.5,162c5.8,0,10.5-4.7,10.5-10.5s-4.7-10.5-10.5-10.5s-10.5,4.7-10.5,10.5S1629.7,162,1635.5,162z
	 M1635.5,165c7.5,0,13.5-6,13.5-13.5s-6-13.5-13.5-13.5s-13.5,6-13.5,13.5S1628,165,1635.5,165z"/>
<path class="st2" d="M1669,192h-44v11h44V192z M1622,189v17h50v-17H1622z"/>
<path class="st2" d="M1672,147l-27,32h27V147z M1669,155.2l-17.5,20.8h17.5V155.2z"/>
<path class="st1" d="M1750,124h82v99h-82V124z"/>
<path class="st2" d="M1829,127h-76v93h76V127z M1750,124v99h82v-99H1750z"/>
<path class="st2" d="M1779.5,162c5.8,0,10.5-4.7,10.5-10.5s-4.7-10.5-10.5-10.5s-10.5,4.7-10.5,10.5S1773.7,162,1779.5,162z
	 M1779.5,165c7.5,0,13.5-6,13.5-13.5s-6-13.5-13.5-13.5s-13.5,6-13.5,13.5S1772,165,1779.5,165z"/>
<path class="st2" d="M1813,192h-44v11h44V192z M1766,189v17h50v-17H1766z"/>
<path class="st2" d="M1816,147l-27,32h27V147z M1813,155.2l-17.5,20.8h17.5V155.2z"/>
<path class="st2" d="M1359,250c5.5,0,10-4.5,10-10s-4.5-10-10-10s-10,4.5-10,10S1353.5,250,1359,250z M1359,253c7.2,0,13-5.8,13-13
	s-5.8-13-13-13s-13,5.8-13,13S1351.8,253,1359,253z"/>
<path class="st2" d="M1359,242c1.1,0,2-0.9,2-2s-0.9-2-2-2s-2,0.9-2,2S1357.9,242,1359,242z M1359,245c2.8,0,5-2.2,5-5s-2.2-5-5-5
	s-5,2.2-5,5S1356.2,245,1359,245z"/>
<path class="st2" d="M1143,250c5.5,0,10-4.5,10-10s-4.5-10-10-10s-10,4.5-10,10S1137.5,250,1143,250z M1143,253c7.2,0,13-5.8,13-13
	s-5.8-13-13-13s-13,5.8-13,13S1135.8,253,1143,253z"/>
<path class="st2" d="M1143,242c1.1,0,2-0.9,2-2s-0.9-2-2-2s-2,0.9-2,2S1141.9,242,1143,242z M1143,245c2.8,0,5-2.2,5-5s-2.2-5-5-5
	s-5,2.2-5,5S1140.2,245,1143,245z"/>
<path class="st2" d="M927,250c5.5,0,10-4.5,10-10s-4.5-10-10-10s-10,4.5-10,10S921.5,250,927,250z M927,253c7.2,0,13-5.8,13-13
	s-5.8-13-13-13s-13,5.8-13,13S919.8,253,927,253z"/>
<path class="st2" d="M927,242c1.1,0,2-0.9,2-2s-0.9-2-2-2s-2,0.9-2,2S925.9,242,927,242z M927,245c2.8,0,5-2.2,5-5s-2.2-5-5-5
	s-5,2.2-5,5S924.2,245,927,245z"/>
<path class="st2" d="M711,250c5.5,0,10-4.5,10-10s-4.5-10-10-10s-10,4.5-10,10S705.5,250,711,250z M711,253c7.2,0,13-5.8,13-13
	s-5.8-13-13-13s-13,5.8-13,13S703.8,253,711,253z"/>
<path class="st2" d="M711,242c1.1,0,2-0.9,2-2s-0.9-2-2-2s-2,0.9-2,2S709.9,242,711,242z M711,245c2.8,0,5-2.2,5-5s-2.2-5-5-5
	s-5,2.2-5,5S708.2,245,711,245z"/>
<path class="st2" d="M1647,250c5.5,0,10-4.5,10-10s-4.5-10-10-10s-10,4.5-10,10S1641.5,250,1647,250z M1647,253c7.2,0,13-5.8,13-13
	s-5.8-13-13-13s-13,5.8-13,13S1639.8,253,1647,253z"/>
<path class="st2" d="M1647,242c1.1,0,2-0.9,2-2s-0.9-2-2-2s-2,0.9-2,2S1645.9,242,1647,242z M1647,245c2.8,0,5-2.2,5-5s-2.2-5-5-5
	s-5,2.2-5,5S1644.2,245,1647,245z"/>
<path class="st2" d="M1287,250c5.5,0,10-4.5,10-10s-4.5-10-10-10s-10,4.5-10,10S1281.5,250,1287,250z M1287,253c7.2,0,13-5.8,13-13
	s-5.8-13-13-13s-13,5.8-13,13S1279.8,253,1287,253z"/>
<path class="st2" d="M1287,242c1.1,0,2-0.9,2-2s-0.9-2-2-2s-2,0.9-2,2S1285.9,242,1287,242z M1287,245c2.8,0,5-2.2,5-5s-2.2-5-5-5
	s-5,2.2-5,5S1284.2,245,1287,245z"/>
<path class="st2" d="M1071,250c5.5,0,10-4.5,10-10s-4.5-10-10-10s-10,4.5-10,10S1065.5,250,1071,250z M1071,253c7.2,0,13-5.8,13-13
	s-5.8-13-13-13s-13,5.8-13,13S1063.8,253,1071,253z"/>
<path class="st2" d="M1071,242c1.1,0,2-0.9,2-2s-0.9-2-2-2s-2,0.9-2,2S1069.9,242,1071,242z M1071,245c2.8,0,5-2.2,5-5s-2.2-5-5-5
	s-5,2.2-5,5S1068.2,245,1071,245z"/>
<path class="st2" d="M855,250c5.5,0,10-4.5,10-10s-4.5-10-10-10s-10,4.5-10,10S849.5,250,855,250z M855,253c7.2,0,13-5.8,13-13
	s-5.8-13-13-13s-13,5.8-13,13S847.8,253,855,253z"/>
<path class="st2" d="M855,242c1.1,0,2-0.9,2-2s-0.9-2-2-2s-2,0.9-2,2S853.9,242,855,242z M855,245c2.8,0,5-2.2,5-5s-2.2-5-5-5
	s-5,2.2-5,5S852.2,245,855,245z"/>
<path class="st2" d="M639,250c5.5,0,10-4.5,10-10s-4.5-10-10-10s-10,4.5-10,10S633.5,250,639,250z M639,253c7.2,0,13-5.8,13-13
	s-5.8-13-13-13s-13,5.8-13,13S631.8,253,639,253z"/>
<path class="st2" d="M639,242c1.1,0,2-0.9,2-2s-0.9-2-2-2s-2,0.9-2,2S637.9,242,639,242z M639,245c2.8,0,5-2.2,5-5s-2.2-5-5-5
	s-5,2.2-5,5S636.2,245,639,245z"/>
<path class="st2" d="M567,250c5.5,0,10-4.5,10-10s-4.5-10-10-10s-10,4.5-10,10S561.5,250,567,250z M567,253c7.2,0,13-5.8,13-13
	s-5.8-13-13-13s-13,5.8-13,13S559.8,253,567,253z"/>
<path class="st2" d="M567,242c1.1,0,2-0.9,2-2s-0.9-2-2-2s-2,0.9-2,2S565.9,242,567,242z M567,245c2.8,0,5-2.2,5-5s-2.2-5-5-5
	s-5,2.2-5,5S564.2,245,567,245z"/>
<path class="st2" d="M1575,250c5.5,0,10-4.5,10-10s-4.5-10-10-10s-10,4.5-10,10S1569.5,250,1575,250z M1575,253c7.2,0,13-5.8,13-13
	s-5.8-13-13-13s-13,5.8-13,13S1567.8,253,1575,253z"/>
<path class="st2" d="M1575,242c1.1,0,2-0.9,2-2s-0.9-2-2-2s-2,0.9-2,2S1573.9,242,1575,242z M1575,245c2.8,0,5-2.2,5-5s-2.2-5-5-5
	s-5,2.2-5,5S1572.2,245,1575,245z"/>
<path class="st2" d="M1483.8,380h-3.8v-3h3.8V380z M1499.2,380h-7.7v-3h7.7V380z M1514.5,380h-7.7v-3h7.7V380z M1526,380h-3.8v-3
	h3.8V380z"/>
<path class="st2" d="M1504.5,267v4.3h-3V267H1504.5z M1504.5,279.9v8.6h-3v-8.6H1504.5z M1504.5,297v8.6h-3V297H1504.5z
	 M1504.5,314.2v8.6h-3v-8.6H1504.5z M1504.5,331.4v8.6h-3v-8.6H1504.5z M1504.5,348.5v8.6h-3v-8.6H1504.5z M1504.5,365.7v4.3h-3
	v-4.3H1504.5z"/>
<path class="st2" d="M1195.8,380h-3.8v-3h3.8V380z M1211.2,380h-7.7v-3h7.7V380z M1226.5,380h-7.7v-3h7.7V380z M1238,380h-3.8v-3
	h3.8V380z"/>
<path class="st2" d="M1216.5,267v4.3h-3V267H1216.5z M1216.5,279.9v8.6h-3v-8.6H1216.5z M1216.5,297v8.6h-3V297H1216.5z
	 M1216.5,314.2v8.6h-3v-8.6H1216.5z M1216.5,331.4v8.6h-3v-8.6H1216.5z M1216.5,348.5v8.6h-3v-8.6H1216.5z M1216.5,365.7v4.3h-3
	v-4.3H1216.5z"/>
<path class="st2" d="M907.8,380H904v-3h3.8V380z M923.2,380h-7.7v-3h7.7V380z M938.5,380h-7.7v-3h7.7V380z M950,380h-3.8v-3h3.8V380
	z"/>
<path class="st2" d="M928.5,267v4.3h-3V267H928.5z M928.5,279.9v8.6h-3v-8.6H928.5z M928.5,297v8.6h-3V297H928.5z M928.5,314.2v8.6
	h-3v-8.6H928.5z M928.5,331.4v8.6h-3v-8.6H928.5z M928.5,348.5v8.6h-3v-8.6H928.5z M928.5,365.7v4.3h-3v-4.3H928.5z"/>
<path class="st2" d="M619.8,380H616v-3h3.8V380z M635.2,380h-7.7v-3h7.7V380z M650.5,380h-7.7v-3h7.7V380z M662,380h-3.8v-3h3.8V380
	z"/>
<path class="st2" d="M640.5,267v4.3h-3V267H640.5z M640.5,279.9v8.6h-3v-8.6H640.5z M640.5,297v8.6h-3V297H640.5z M640.5,314.2v8.6
	h-3v-8.6H640.5z M640.5,331.4v8.6h-3v-8.6H640.5z M640.5,348.5v8.6h-3v-8.6H640.5z M640.5,365.7v4.3h-3v-4.3H640.5z"/>
<path class="st2" d="M1771.8,380h-3.8v-3h3.8V380z M1787.2,380h-7.7v-3h7.7V380z M1802.5,380h-7.7v-3h7.7V380z M1814,380h-3.8v-3
	h3.8V380z"/>
<path class="st2" d="M1792.5,267v4.3h-3V267H1792.5z M1792.5,279.9v8.6h-3v-8.6H1792.5z M1792.5,297v8.6h-3V297H1792.5z
	 M1792.5,314.2v8.6h-3v-8.6H1792.5z M1792.5,331.4v8.6h-3v-8.6H1792.5z M1792.5,348.5v8.6h-3v-8.6H1792.5z M1792.5,365.7v4.3h-3
	v-4.3H1792.5z"/>
<path class="st1" d="M0,220h6v140H0V220z"/>
<path class="st5" d="M355.5,99c0-0.8,0.7-1.5,1.5-1.5h9c0.8,0,1.5,0.7,1.5,1.5s-0.7,1.5-1.5,1.5h-7.5v7.5c0,0.8-0.7,1.5-1.5,1.5
	s-1.5-0.7-1.5-1.5V99z"/>
<path class="st5" d="M390.5,99c0-0.8-0.7-1.5-1.5-1.5h-9c-0.8,0-1.5,0.7-1.5,1.5s0.7,1.5,1.5,1.5h7.5v7.5c0,0.8,0.7,1.5,1.5,1.5
	s1.5-0.7,1.5-1.5V99z"/>
<path class="st5" d="M355.5,131c0,0.8,0.7,1.5,1.5,1.5h9c0.8,0,1.5-0.7,1.5-1.5s-0.7-1.5-1.5-1.5h-7.5V122c0-0.8-0.7-1.5-1.5-1.5
	s-1.5,0.7-1.5,1.5V131z"/>
<path class="st5" d="M390.5,131c0,0.8-0.7,1.5-1.5,1.5h-9c-0.8,0-1.5-0.7-1.5-1.5s0.7-1.5,1.5-1.5h7.5V122c0-0.8,0.7-1.5,1.5-1.5
	s1.5,0.7,1.5,1.5V131z"/>
<path class="st5" d="M356.4,98.4c0.6-0.6,1.5-0.6,2.1,0l10.5,10.5c0.6,0.6,0.6,1.5,0,2.1c-0.6,0.6-1.5,0.6-2.1,0l-10.5-10.5
	C355.9,100,355.9,99,356.4,98.4z M376.9,118.9c0.6-0.6,1.5-0.6,2.1,0l10.5,10.5c0.6,0.6,0.6,1.5,0,2.1c-0.6,0.6-1.5,0.6-2.1,0
	l-10.5-10.5C376.4,120.5,376.4,119.5,376.9,118.9z"/>
<path class="st5" d="M389.6,98.4c-0.6-0.6-1.5-0.6-2.1,0l-10.5,10.5c-0.6,0.6-0.6,1.5,0,2.1c0.6,0.6,1.5,0.6,2.1,0l10.5-10.5
	C390.1,100,390.1,99,389.6,98.4z M369.1,118.9c-0.6-0.6-1.5-0.6-2.1,0l-10.5,10.5c-0.6,0.6-0.6,1.5,0,2.1c0.6,0.6,1.5,0.6,2.1,0
	l10.5-10.5C369.6,120.5,369.6,119.5,369.1,118.9z"/>
</svg>
