<?xml version="1.0" encoding="utf-8"?>
<!-- Generator: Adobe Illustrator 25.3.1, SVG Export Plug-In . SVG Version: 6.00 Build 0)  -->
<svg version="1.1" id="Layer_1" xmlns="http://www.w3.org/2000/svg" xmlns:xlink="http://www.w3.org/1999/xlink" x="0px" y="0px"
	 viewBox="0 0 520 1377.6" style="enable-background:new 0 0 520 1377.6;" xml:space="preserve">
<style type="text/css">
	.st0{fill:#CED3DD;}
	.st1{fill:#FFC46C;}
	.st2{fill:#FFFFFF;}
	.st3{fill:#5AC4FF;}
	.st4{fill:#FF9769;}
	.st5{fill:#AC7FFF;}
	.st6{fill:#FF675F;}
	.st7{fill:#FF99D1;}
	.st8{fill:#6E49CB;}
	.st9{fill:#08C486;}
	.st10{fill:#18A3FF;}
	.st11{fill:#FC6D26;}
</style>
<g>
	<rect x="10" y="275.3" class="st0" width="500" height="2.4"/>
</g>
<g>
	<rect x="10" y="550.2" class="st0" width="500" height="2.4"/>
</g>
<g>
	<rect x="10" y="825.1" class="st0" width="500" height="2.4"/>
</g>
<g>
	<rect x="10" y="1100" class="st0" width="500" height="2.4"/>
</g>
<g>
	<rect x="258.8" y="26.5" class="st0" width="2.4" height="1324.6"/>
</g>
<g>
	<path class="st1" d="M122.6,227.9c49.1,0,88.9-39.8,88.9-88.9s-39.8-88.9-88.9-88.9S33.7,90,33.7,139.1S73.5,227.9,122.6,227.9z"/>
</g>
<g>
	<path class="st2" d="M122.6,113.7c-4.1,0-40.5-0.4-40.5-13c0-12.6,36.3-13,40.5-13s40.5,0.4,40.5,13
		C163,113.3,126.7,113.7,122.6,113.7z M89.4,100.7c2.3,2.3,14.3,5.9,33.1,5.9s30.8-3.6,33.1-5.9c-2.3-2.3-14.3-5.9-33.1-5.9
		S91.8,98.4,89.4,100.7z"/>
</g>
<g>
	<path class="st2" d="M122.6,139.3c-4.1,0-40.5-0.4-40.5-13c0-2,1.6-3.6,3.6-3.6c1.9,0,3.4,1.4,3.5,3.3c1.6,2.3,13.8,6.2,33.4,6.2
		s31.8-3.9,33.4-6.2c0.1-1.8,1.7-3.3,3.5-3.3c2,0,3.6,1.6,3.6,3.6C163,138.9,126.7,139.3,122.6,139.3z"/>
</g>
<g>
	<path class="st2" d="M122.6,164.9c-11.7,0-22.7-1.4-30.1-3.8c-1.9-0.6-2.9-2.6-2.3-4.5c0.6-1.9,2.6-2.9,4.5-2.3
		c6.7,2.2,16.9,3.4,27.9,3.4c19.6,0,31.8-3.9,33.4-6.2c0.1-1.8,1.7-3.3,3.5-3.3c2,0,3.6,1.6,3.6,3.6
		C163,164.5,126.7,164.9,122.6,164.9z"/>
</g>
<g>
	<path class="st2" d="M159.5,164.1c-2,0-3.6-1.6-3.6-3.6v-59.9c0-2,1.6-3.6,3.6-3.6c2,0,3.6,1.6,3.6,3.6v59.9
		C163,162.5,161.4,164.1,159.5,164.1z"/>
</g>
<g>
	<path class="st2" d="M122.6,190.5c-4.1,0-40.5-0.4-40.5-13v-59c0-2,1.6-3.6,3.6-3.6s3.6,1.6,3.6,3.6v58.8
		c1.6,2.3,13.8,6.2,33.4,6.2c19.6,0,31.8-3.9,33.4-6.2c0.1-1.8,1.7-3.3,3.5-3.3c2,0,3.6,1.6,3.6,3.6
		C163,190.1,126.7,190.5,122.6,190.5z"/>
</g>
<g>
	<path class="st3" d="M397.4,227.9c49.1,0,88.9-39.8,88.9-88.9s-39.8-88.9-88.9-88.9s-88.9,39.8-88.9,88.9S348.4,227.9,397.4,227.9z
		"/>
</g>
<g>
	<path class="st2" d="M397.4,165.6c-2,0-3.6-1.6-3.6-3.6v-14.5c0-2,1.6-3.6,3.6-3.6s3.6,1.6,3.6,3.6V162
		C401,164,399.4,165.6,397.4,165.6z"/>
</g>
<g>
	<path class="st2" d="M397.4,154.4c-3.8,0-6.9-3.1-6.9-6.8c0-3.8,3.1-6.8,6.9-6.8c3.8,0,6.9,3.1,6.9,6.8
		C404.3,151.3,401.2,154.4,397.4,154.4z M397.4,147.3c-0.1,0-0.2,0.1-0.2,0.3c0,0.3,0.5,0.3,0.5,0
		C397.7,147.4,397.6,147.3,397.4,147.3z"/>
</g>
<g>
	<path class="st2" d="M423.7,124.3c-2,0-3.6-1.6-3.6-3.6v-11.8c0-6-2.4-11.6-6.7-15.9c-4.2-4.2-9.9-6.5-15.8-6.5c-0.1,0-0.2,0-0.2,0
		c-6,0-11.6,2.3-15.9,6.5c-4.3,4.2-6.6,9.9-6.7,15.9v11.8c0,2-1.6,3.6-3.6,3.6s-3.6-1.6-3.6-3.6v-11.8c0-7.9,3.2-15.4,8.8-20.9
		c5.6-5.6,13-8.5,21-8.6c0.1,0,0.1,0,0.2,0c7.8,0,15.2,3,20.8,8.6c5.6,5.6,8.7,13,8.8,20.9v11.8
		C427.2,122.7,425.6,124.3,423.7,124.3z"/>
</g>
<g>
	<path class="st2" d="M434.9,182.2H360c-2,0-3.6-1.6-3.6-3.6v-41.7c0-2,1.6-3.6,3.6-3.6c2,0,3.6,1.6,3.6,3.6v38.2h71.3
		c2,0,3.6,1.6,3.6,3.6C438.4,180.7,436.9,182.2,434.9,182.2z"/>
</g>
<g>
	<path class="st2" d="M434.9,170.2c-2,0-3.6-1.6-3.6-3.6v-38.2H360c-2,0-3.6-1.6-3.6-3.6c0-2,1.6-3.6,3.6-3.6h74.9
		c2,0,3.6,1.6,3.6,3.6v41.7C438.4,168.6,436.9,170.2,434.9,170.2z"/>
</g>
<g>
	<path class="st4" d="M122.6,502.8c49.1,0,88.9-39.8,88.9-88.9s-39.8-88.9-88.9-88.9s-88.9,39.8-88.9,88.9S73.5,502.8,122.6,502.8z"
		/>
</g>
<g>
	<path class="st2" d="M149.8,430.9c-1.1,0-2.2-0.5-2.9-1.5l-6.4-8.8h-19.3c-2.7,0-5.4-1-7.3-3c-2-2-3.1-4.6-3.1-7.3v-31.2
		c0-2.8,1.1-5.4,3.1-7.3c2-1.9,4.5-3,7.3-3c0,0,0,0,0,0h42.5c0,0,0,0,0,0c2.7,0,5.3,1.1,7.3,3c2,2,3.1,4.5,3.1,7.3v31.2
		c0,2.8-1.1,5.4-3.1,7.3c-2,1.9-4.5,3-7.3,3c0,0,0,0-0.1,0h-4.5l-6.4,8.8C152,430.3,150.9,430.9,149.8,430.9z M142.3,413.5
		c1.1,0,2.2,0.5,2.9,1.5l4.6,6.4l4.6-6.4c0.7-0.9,1.7-1.5,2.9-1.5h6.3c0,0,0,0,0,0c0.9,0,1.7-0.3,2.3-0.9c0.6-0.6,1-1.4,1-2.3v-31.1
		c0-0.8-0.4-1.7-1-2.3c-0.6-0.6-1.4-0.9-2.3-0.9h-42.5c0,0,0,0,0,0c-0.9,0-1.7,0.3-2.3,0.9c-0.6,0.6-1,1.4-1,2.3v31.1
		c0,0.9,0.3,1.7,1,2.3c0.6,0.6,1.4,0.9,2.3,0.9c0,0,0,0,0,0H142.3z"/>
</g>
<g>
	<path class="st2" d="M153.2,398.2h-21.7c-2,0-3.6-1.6-3.6-3.6s1.6-3.6,3.6-3.6h21.7c2,0,3.6,1.6,3.6,3.6S155.1,398.2,153.2,398.2z"
		/>
</g>
<g>
	<path class="st2" d="M107,427.2H92c-2,0-3.6-1.6-3.6-3.6c0-2,1.6-3.6,3.6-3.6H107c2,0,3.6,1.6,3.6,3.6
		C110.6,425.7,109,427.2,107,427.2z"/>
</g>
<g>
	<path class="st2" d="M95.4,459.1c-1.1,0-2.2-0.5-2.9-1.4l-6.5-8.8h-4.5c-2.7,0.1-5.4-1.1-7.3-3c-2-2-3.1-4.6-3.1-7.3v-31.2
		c0-2.8,1.1-5.4,3.1-7.3c2-1.9,4.6-3,7.3-3h20c2,0,3.6,1.6,3.6,3.6c0,2-1.6,3.6-3.6,3.6h-20c0,0,0,0,0,0c-0.9,0-1.7,0.3-2.3,0.9
		c-0.6,0.6-1,1.4-1,2.3v31.1c0,0.9,0.3,1.7,1,2.3c0.6,0.6,1.4,0.9,2.3,0.9c0,0,0,0,0,0h6.3c1.1,0,2.2,0.5,2.9,1.4l4.7,6.4l4.6-6.3
		c0.7-0.9,1.7-1.5,2.9-1.5H124c0.4,0,0.9-0.1,1.3-0.2c0.4-0.2,0.8-0.4,1.1-0.7c0.3-0.3,0.5-0.7,0.7-1.1c0.2-0.4,0.3-0.8,0.3-1.2
		v-9.8c0-2,1.6-3.6,3.6-3.6c2,0,3.6,1.6,3.6,3.6v9.8c0,1.4-0.3,2.7-0.8,4c-0.5,1.3-1.3,2.4-2.3,3.4c-1,1-2.1,1.7-3.4,2.2
		c-1.3,0.5-2.6,0.7-4,0.8h-19.3l-6.4,8.8C97.6,458.5,96.6,459.1,95.4,459.1C95.4,459.1,95.4,459.1,95.4,459.1z"/>
</g>
<g>
	<path class="st5" d="M122.6,777.7c49.1,0,88.9-39.8,88.9-88.9S171.6,600,122.6,600s-88.9,39.8-88.9,88.9S73.5,777.7,122.6,777.7z"
		/>
</g>
<g>
	<path class="st2" d="M95.3,740.2c-3.9,0-7.5-1.5-10.2-4.2c-2.7-2.7-4.3-6.4-4.3-10.3v-52.1c0-2,1.6-3.6,3.6-3.6
		c2,0,3.6,1.6,3.6,3.6v52.1c0,1.9,0.8,3.9,2.2,5.2c1.4,1.4,3.3,2.2,5.2,2.2c0,0,0,0,0,0h38.2c0,0,0,0,0,0c2,0,3.9-0.8,5.2-2.2
		c1.4-1.4,2.2-3.3,2.2-5.2v-73.8c0-1.9-0.8-3.9-2.2-5.2c-1.4-1.4-3.3-2.2-5.2-2.2c0,0,0,0,0,0H95.3c-2.1-0.1-3.9,0.8-5.3,2.2
		c-1.4,1.4-2.2,3.3-2.2,5.2c0,2-1.6,3.5-3.6,3.5c0,0,0,0,0,0c-2,0-3.5-1.6-3.5-3.6c0-3.9,1.5-7.5,4.3-10.3c2.7-2.7,6.4-4.2,10.2-4.2
		c0,0,0,0,0,0h38.1c0,0,0,0,0,0c3.9,0,7.5,1.5,10.2,4.2c2.8,2.7,4.3,6.4,4.3,10.3v73.8c0,3.8-1.6,7.6-4.3,10.3
		c-2.7,2.7-6.4,4.2-10.2,4.2c0,0,0,0,0,0H95.3C95.3,740.2,95.3,740.2,95.3,740.2z"/>
</g>
<g>
	<path class="st2" d="M143.2,734c-0.8,0-1.5-0.2-2.2-0.7c-1.6-1.2-1.9-3.4-0.7-5l34.5-45.2c0.6-0.8,1-1.7,1.3-2.6
		c0.2-0.9,0.3-1.9,0.2-2.9c-0.1-1-0.5-1.9-1-2.7c-0.5-0.8-1.2-1.6-1.9-2.1l-34-25.3c-1.6-1.2-1.9-3.4-0.7-5c1.2-1.6,3.4-1.9,5-0.7
		l34,25.3c1.5,1.1,2.8,2.6,3.8,4.2c1,1.7,1.6,3.5,1.9,5.4c0.3,1.9,0.2,3.8-0.3,5.7c-0.5,1.9-1.3,3.6-2.5,5.1L146,732.6
		C145.3,733.5,144.3,734,143.2,734z"/>
</g>
<g>
	<path class="st6" d="M397.4,502.8c49.1,0,88.9-39.8,88.9-88.9s-39.8-88.9-88.9-88.9s-88.9,39.8-88.9,88.9S348.4,502.8,397.4,502.8z
		"/>
</g>
<g>
	<path class="st2" d="M436.4,434.2c-1.3,0-2.5-0.7-3.2-1.9c-0.9-1.7-0.2-3.9,1.5-4.8c2.1-1.1,3.8-2.7,5.1-4.7c1.2-2,1.9-4.3,1.9-6.7
		c0-1.7-0.3-3.3-1-4.9c-0.6-1.6-1.6-3-2.8-4.2c-1.2-1.2-2.6-2.1-4.2-2.8c-1.6-0.6-3.2-1-4.9-1c0,0,0,0,0,0c-1,0-1.9,0.1-2.9,0.3
		c-1.1,0.3-2.3,0-3.2-0.8c-0.9-0.8-1.3-1.9-1.1-3.1c0.1-0.8,0.2-1.7,0.2-2.5c0-2.6-0.5-5.2-1.5-7.6c-1-2.4-2.4-4.6-4.3-6.4
		c-1.9-1.8-4-3.3-6.4-4.3c-2.4-1-5-1.5-7.6-1.5c0,0,0,0,0,0c-4.1,0-8.1,1.3-11.5,3.6c-3.4,2.4-5.9,5.7-7.2,9.6
		c-0.3,0.9-1,1.6-1.9,2.1c-0.9,0.4-1.9,0.4-2.8,0.1c-2.2-0.8-4.5-1.3-6.8-1.3c0,0,0,0,0,0c-2.5,0-4.9,0.5-7.2,1.4
		c-2.3,0.9-4.3,2.3-6.1,4.1c-1.7,1.7-3.1,3.8-4.1,6.1c-1,2.3-1.4,4.7-1.4,7.2c0,3.2,0.8,6.3,2.3,9c1.5,2.8,3.7,5.1,6.4,6.8
		c1.7,1,2.2,3.2,1.1,4.9c-1,1.7-3.2,2.2-4.9,1.1c-3.7-2.3-6.8-5.6-8.9-9.4c-2.1-3.8-3.2-8.1-3.2-12.5c0-3.4,0.7-6.7,2-9.9
		c1.3-3.1,3.2-6,5.6-8.4c2.4-2.4,5.2-4.3,8.4-5.6c3.1-1.3,6.5-2,9.9-2c2.1,0,4.1,0.2,6.1,0.7c2-3.9,4.9-7.3,8.5-9.9
		c4.6-3.2,10-5,15.6-5c0,0,0,0,0,0c3.5,0,7,0.7,10.3,2c3.3,1.4,6.2,3.3,8.7,5.8c2.5,2.5,4.5,5.5,5.8,8.7c1.2,3,1.9,6.1,2,9.3
		c2.6,0,5.2,0.5,7.6,1.5c2.4,1,4.6,2.5,6.5,4.3c1.9,1.9,3.3,4,4.3,6.5c1,2.4,1.5,5,1.5,7.6c0,3.7-1,7.2-2.9,10.4
		c-1.9,3.1-4.6,5.7-7.9,7.3C437.5,434,437,434.2,436.4,434.2z"/>
</g>
<g>
	<path class="st2" d="M382,439.6c-0.9,0-1.8-0.3-2.5-1l-7.9-7.9c-0.7-0.7-1-1.6-1-2.5c0-0.9,0.4-1.8,1-2.5l7.9-7.9
		c1.4-1.4,3.6-1.4,5,0c1.4,1.4,1.4,3.6,0,5l-5.4,5.4l5.4,5.4c1.4,1.4,1.4,3.6,0,5C383.8,439.3,382.9,439.6,382,439.6z"/>
</g>
<g>
	<path class="st2" d="M412.9,439.6c-0.9,0-1.8-0.3-2.5-1c-1.4-1.4-1.4-3.6,0-5l5.4-5.4l-5.4-5.4c-1.4-1.4-1.4-3.6,0-5
		c1.4-1.4,3.6-1.4,5,0l7.9,7.9c0.7,0.7,1,1.6,1,2.5c0,0.9-0.4,1.8-1,2.5l-7.9,7.9C414.7,439.3,413.8,439.6,412.9,439.6z"/>
</g>
<g>
	<path class="st2" d="M393.3,443.9c-0.4,0-0.8-0.1-1.1-0.2c-1.9-0.6-2.9-2.7-2.2-4.5l8.2-24.2c0.6-1.9,2.6-2.9,4.5-2.2
		c1.9,0.6,2.9,2.7,2.2,4.5l-8.2,24.2C396.2,443,394.8,443.9,393.3,443.9z"/>
</g>
<g>
	<path class="st7" d="M397.4,777.7c49.1,0,88.9-39.8,88.9-88.9S446.5,600,397.4,600s-88.9,39.8-88.9,88.9S348.4,777.7,397.4,777.7z"
		/>
</g>
<g>
	<path class="st2" d="M412.2,720.1c-2,0-3.6-1.6-3.6-3.6v-3.8c0-2.2-0.6-4.4-1.6-6.3c-1.1-1.9-2.6-3.6-4.5-4.8l-22.3-15.1
		c-2.9-2-5.2-4.6-6.8-7.7c-1.6-3.1-2.5-6.5-2.4-10v-10.6c0-2,1.6-3.6,3.6-3.6c2,0,3.6,1.6,3.6,3.6v10.6c0,2.3,0.6,4.6,1.6,6.6
		s2.6,3.8,4.5,5.1l22.2,15.1c2.8,1.8,5.2,4.3,6.8,7.3c1.6,3,2.5,6.4,2.5,9.8v3.8C415.7,718.5,414.1,720.1,412.2,720.1z"/>
</g>
<g>
	<path class="st2" d="M374.5,661.2c-6.5,0-11.8-5.3-11.8-11.9s5.3-11.9,11.8-11.9c6.5,0,11.8,5.3,11.8,11.9S381,661.2,374.5,661.2z
		 M374.5,644.5c-2.6,0-4.7,2.1-4.7,4.8s2.1,4.8,4.7,4.8c2.6,0,4.7-2.1,4.7-4.8S377.1,644.5,374.5,644.5z"/>
</g>
<g>
	<path class="st2" d="M412.2,723.5c-2,0-3.6-1.6-3.6-3.6v-62.3c0-2,1.6-3.6,3.6-3.6s3.6,1.6,3.6,3.6V720
		C415.7,721.9,414.1,723.5,412.2,723.5z"/>
</g>
<g>
	<path class="st2" d="M412.2,661.2c-6.5,0-11.8-5.3-11.8-11.9s5.3-11.9,11.8-11.9s11.8,5.3,11.8,11.9S418.6,661.2,412.2,661.2z
		 M412.2,644.5c-2.6,0-4.7,2.1-4.7,4.8s2.1,4.8,4.7,4.8s4.7-2.1,4.7-4.8S414.7,644.5,412.2,644.5z"/>
</g>
<g>
	<path class="st2" d="M412.2,740.2c-6.5,0-11.8-5.3-11.8-11.9c0-6.6,5.3-11.9,11.8-11.9s11.8,5.3,11.8,11.9
		C423.9,734.9,418.6,740.2,412.2,740.2z M412.2,723.5c-2.6,0-4.7,2.1-4.7,4.8c0,2.6,2.1,4.8,4.7,4.8s4.7-2.1,4.7-4.8
		C416.8,725.7,414.7,723.5,412.2,723.5z"/>
</g>
<g>
	<path class="st8" d="M397.4,1327.4c49.1,0,88.9-39.8,88.9-88.9c0-49.1-39.8-88.9-88.9-88.9s-88.9,39.8-88.9,88.9
		C308.6,1287.7,348.4,1327.4,397.4,1327.4z"/>
</g>
<g>
	<path class="st2" d="M409.4,1284.1c-1.2,0-2.4-0.6-3-1.7c-1-1.7-0.5-3.9,1.2-4.9c10-6.1,18.7-14.3,21.6-20.5
		c4.5-9.4,4.4-17.3,4.1-30.3c-0.1-5-0.2-10.7-0.1-17.4c-6.5,0.3-13-0.8-19.1-3c-6.2-2.3-11.9-5.9-16.7-10.4
		c-7.4,7.1-17,11.7-27.2,13.1c-2,0.3-3.7-1.1-4-3c-0.3-1.9,1.1-3.7,3-4c9.8-1.3,18.9-6.1,25.5-13.5c0.7-0.8,1.6-1.2,2.6-1.2
		c0,0,0,0,0,0c1,0,2,0.4,2.6,1.2c4.5,5,10.2,8.9,16.5,11.2c6.3,2.4,13.2,3.1,19.8,2.3c1-0.1,2.1,0.2,2.8,0.9
		c0.8,0.7,1.2,1.7,1.2,2.7c-0.3,8.3-0.1,15.1,0,21c0.3,13.6,0.4,22.6-4.8,33.5c-4.3,9-15.4,18.1-24.3,23.5
		C410.7,1283.9,410.1,1284.1,409.4,1284.1z"/>
</g>
<g>
	<path class="st2" d="M397.4,1290c-0.4,0-0.8-0.1-1.2-0.2c-13.3-4.8-31.3-17.8-37-29.7c-5.2-10.9-5.1-19.9-4.8-33.5
		c0.1-5.9,0.2-12.6,0-21c-0.1-2,1.5-3.6,3.4-3.7c2-0.1,3.6,1.5,3.7,3.4c0.3,8.5,0.1,15.3,0,21.3c-0.2,13.1-0.4,20.9,4.1,30.3
		c4.3,9,20,21.5,33,26.1c1.8,0.7,2.8,2.7,2.1,4.5C400.3,1289.1,398.9,1290,397.4,1290z"/>
</g>
<g>
	<path class="st2" d="M391.9,1252.3L391.9,1252.3c-0.9,0-1.9-0.4-2.5-1l-9.1-9.1c-1.4-1.4-1.4-3.6,0-5c1.4-1.4,3.6-1.4,5,0l6.6,6.6
		l17.7-17.8c1.4-1.4,3.6-1.4,5,0c1.4,1.4,1.4,3.6,0,5l-20.2,20.3C393.8,1251.9,392.9,1252.3,391.9,1252.3z"/>
</g>
<g>
	<path class="st9" d="M397.4,1052.6c49.1,0,88.9-39.8,88.9-88.9c0-49.1-39.8-88.9-88.9-88.9s-88.9,39.8-88.9,88.9
		C308.6,1012.8,348.4,1052.6,397.4,1052.6z"/>
</g>
<g>
	<path class="st2" d="M406.1,990.2c-0.4,0-0.9-0.1-1.3-0.3c-1.8-0.7-2.7-2.8-2-4.6l21-52.7c0.3-0.7,0.4-1.5,0.4-2.2
		c0-0.8-0.2-1.5-0.5-2.2c-0.3-0.7-0.7-1.3-1.3-1.9c-0.5-0.5-1.2-1-1.9-1.2l-12.9-5.1c-1.5-0.6-3-0.6-4.5,0.1
		c-1.4,0.6-2.6,1.8-3.1,3.2l-4.5,11.4c-0.7,1.8-2.8,2.7-4.6,2c-1.8-0.7-2.7-2.8-2-4.6l4.5-11.4c1.3-3.2,3.8-5.8,6.9-7.1
		c3.2-1.4,6.7-1.4,9.9-0.1l12.9,5.1c1.6,0.6,3,1.6,4.2,2.7c1.2,1.2,2.2,2.6,2.9,4.2c0.7,1.6,1,3.2,1.1,5c0,1.7-0.3,3.4-0.9,5
		l-21,52.7C408.9,989.3,407.5,990.2,406.1,990.2z"/>
</g>
<g>
	<path class="st2" d="M378.6,1015.1c-0.4,0-0.9-0.1-1.3-0.3c-1-0.4-1.8-1.3-2.1-2.3l-7.3-26c-0.2-0.7-0.2-1.5,0.1-2.3l16.9-42.5
		c0.7-1.8,2.8-2.7,4.6-2c1.8,0.7,2.7,2.8,2,4.6L375,985.7l5.7,20.4l19.1-11.5c1.7-1,3.9-0.5,4.9,1.2c1,1.7,0.5,3.9-1.2,4.9
		l-23.1,13.9C379.8,1014.9,379.2,1015.1,378.6,1015.1z"/>
</g>
<g>
	<path class="st2" d="M401.7,1001.2c-0.4,0-0.9-0.1-1.3-0.3L370,988.8c-1.8-0.7-2.7-2.8-2-4.6c0.7-1.8,2.8-2.7,4.6-2l30.4,12.1
		c1.8,0.7,2.7,2.8,2,4.6C404.5,1000.3,403.1,1001.2,401.7,1001.2z"/>
</g>
<g>
	<path class="st2" d="M383.8,1011.1c-0.4,0-0.9-0.1-1.3-0.3l-6.8-2.7c-1.8-0.7-2.7-2.8-2-4.6c0.7-1.8,2.8-2.7,4.6-2l6.8,2.7
		c1.8,0.7,2.7,2.8,2,4.6C386.5,1010.2,385.2,1011.1,383.8,1011.1z"/>
</g>
<g>
	<path class="st2" d="M422.5,948.8c-0.4,0-0.9-0.1-1.3-0.3l-30.4-12.1c-1.8-0.7-2.7-2.8-2-4.6c0.7-1.8,2.8-2.7,4.6-2l30.4,12.1
		c1.8,0.7,2.7,2.8,2,4.6C425.3,948,423.9,948.8,422.5,948.8z"/>
</g>
<g>
	<path class="st2" d="M386.5,995.1c-0.4,0-0.9-0.1-1.3-0.3c-1.8-0.7-2.7-2.8-2-4.6l20.8-52.4c0.7-1.8,2.8-2.7,4.6-2
		c1.8,0.7,2.7,2.8,2,4.6l-20.8,52.4C389.3,994.3,387.9,995.1,386.5,995.1z"/>
</g>
<g>
	<path class="st2" d="M433.7,978.8c-0.9,0-1.8-0.3-2.5-1c-1.4-1.4-1.4-3.6,0-5l9.1-9.1l-9.1-9.1c-1.4-1.4-1.4-3.6,0-5
		c1.4-1.4,3.6-1.4,5,0l11.6,11.6c0.7,0.7,1,1.6,1,2.5c0,0.9-0.4,1.8-1,2.5l-11.6,11.6C435.5,978.5,434.6,978.8,433.7,978.8z"/>
</g>
<g>
	<path class="st2" d="M361.2,978.8c-0.9,0-1.8-0.3-2.5-1l-11.6-11.6c-0.7-0.7-1-1.6-1-2.5c0-0.9,0.4-1.8,1-2.5l11.6-11.6
		c1.4-1.4,3.6-1.4,5,0c1.4,1.4,1.4,3.6,0,5l-9.1,9.1l9.1,9.1c1.4,1.4,1.4,3.6,0,5C363,978.5,362.1,978.8,361.2,978.8z"/>
</g>
<g>
	<path class="st10" d="M122.6,1052.6c49.1,0,88.9-39.8,88.9-88.9c0-49.1-39.8-88.9-88.9-88.9s-88.9,39.8-88.9,88.9
		C33.7,1012.8,73.5,1052.6,122.6,1052.6z"/>
</g>
<g>
	<path class="st2" d="M165.2,1006.9H79.9c-1.2,0-2.3-0.2-3.4-0.7c-1-0.4-2-1.1-2.8-1.9c-0.8-0.8-1.5-1.8-1.9-2.8
		c-0.4-1.1-0.7-2.2-0.7-3.4v-18.9c0-1.2,0.2-2.3,0.7-3.4c0.4-1.1,1.1-2,1.9-2.8c0.8-0.8,1.8-1.5,2.8-1.9c1.1-0.4,2.2-0.7,3.3-0.7
		h26.6c2,0,3.6,1.6,3.6,3.6c0,2-1.6,3.6-3.6,3.6H79.9c-0.2,0-0.4,0-0.6,0.1c-0.2,0.1-0.4,0.2-0.5,0.4c-0.2,0.2-0.3,0.3-0.4,0.5
		c-0.1,0.2-0.1,0.4-0.1,0.6v18.9c0,0.2,0,0.4,0.1,0.6c0.1,0.2,0.2,0.4,0.4,0.5c0.1,0.1,0.3,0.3,0.5,0.3c0.2,0.1,0.4,0.1,0.6,0.1
		h85.3c0.2,0,0.4,0,0.6-0.1c0.2-0.1,0.4-0.2,0.5-0.4c0.2-0.2,0.3-0.3,0.4-0.5c0.1-0.2,0.1-0.4,0.1-0.6v-18.9c0-0.2,0-0.4-0.1-0.6
		c-0.1-0.2-0.2-0.4-0.4-0.5c-0.2-0.2-0.3-0.3-0.5-0.4c-0.2-0.1-0.4-0.1-0.6-0.1h-42.6c-2,0-3.6-1.6-3.6-3.6c0-2,1.6-3.6,3.6-3.6
		h42.6c1.2,0,2.3,0.2,3.3,0.7c1.1,0.4,2,1.1,2.8,1.9c0.8,0.8,1.5,1.8,1.9,2.8c0.4,1.1,0.7,2.2,0.7,3.3v18.9c0,1.2-0.2,2.3-0.7,3.3
		c-0.4,1.1-1.1,2-1.9,2.8c-0.8,0.8-1.8,1.5-2.8,1.9C167.5,1006.7,166.4,1006.9,165.2,1006.9z"/>
</g>
<g>
	<path class="st2" d="M154.8,992.2h-24.6c-2,0-3.6-1.6-3.6-3.6s1.6-3.6,3.6-3.6h24.6c2,0,3.6,1.6,3.6,3.6S156.8,992.2,154.8,992.2z"
		/>
</g>
<g>
	<path class="st2" d="M89.2,993c-2,0-3.6-1.6-3.6-3.6v-1.6c0-2,1.6-3.6,3.6-3.6s3.6,1.6,3.6,3.6v1.6C92.8,991.5,91.2,993,89.2,993z"
		/>
</g>
<g>
	<path class="st2" d="M101.7,993c-2,0-3.6-1.6-3.6-3.6v-1.6c0-2,1.6-3.6,3.6-3.6s3.6,1.6,3.6,3.6v1.6
		C105.3,991.5,103.7,993,101.7,993z"/>
</g>
<g>
	<path class="st2" d="M122.6,977.6c-2,0-3.6-1.6-3.6-3.6v-21.7h-16.7c-4.4,0-8.4-1.7-11.5-4.8c-3.1-3.1-4.8-7.2-4.8-11.5
		c0-4.4,1.7-8.5,4.8-11.5c2.8-2.8,6.3-4.4,10.2-4.7c0.9-3.9,3-7.4,5.9-10.2c3.8-3.5,8.7-5.5,13.9-5.5c4.4,0,8.7,1.4,12.2,4
		c2.6,2,4.8,4.6,6.2,7.5c0.5,0,1,0,1.5-0.1c4.9,0,9.5,1.9,13,5.4c3.5,3.5,5.4,8.1,5.4,13c0,4.9-1.9,9.5-5.4,13
		c-3.5,3.5-8.1,5.4-13,5.4c0,0,0,0,0,0c-2,0-3.6-1.6-3.6-3.5c0-2,1.6-3.6,3.5-3.6c3,0,5.8-1.2,8-3.3c2.1-2.1,3.3-4.9,3.3-8
		c0-3-1.2-5.8-3.3-7.9c-2.1-2.1-4.9-3.3-8-3.3c-0.9,0-1.9,0.1-2.9,0.4c-1.9,0.5-3.8-0.6-4.3-2.4c-0.8-2.7-2.5-5.1-4.8-6.8
		c-2.3-1.7-5.1-2.6-7.9-2.6c-3.4,0-6.6,1.3-9.1,3.6c-2.5,2.3-4,5.4-4.2,8.8c-0.1,1-0.5,1.9-1.3,2.5c-0.8,0.6-1.7,0.9-2.7,0.8
		c-2.8-0.4-5.7,0.6-7.7,2.6c-1.7,1.7-2.7,4-2.7,6.5c0,2.4,1,4.8,2.7,6.5c1.7,1.7,4,2.7,6.5,2.7h20.2c2,0,3.6,1.6,3.6,3.6V974
		C126.1,976,124.5,977.6,122.6,977.6z"/>
</g>
<g>
	<path class="st11" d="M122.6,1327.4c49.1,0,88.9-39.8,88.9-88.9c0-49.1-39.8-88.9-88.9-88.9s-88.9,39.8-88.9,88.9
		C33.7,1287.7,73.5,1327.4,122.6,1327.4z"/>
</g>
<g>
	<path class="st2" d="M74.7,1242.1c-2,0-3.6-1.6-3.6-3.5c0-6.8,1.3-13.4,3.9-19.7c2.6-6.3,6.4-11.9,11.2-16.7
		c9.7-9.7,22.6-15.1,36.3-15.1s26.6,5.3,36.3,15.1c1.8,1.8,3.5,3.7,5,5.8c1.2,1.6,0.8,3.8-0.7,5c-1.6,1.2-3.8,0.8-5-0.7
		c-1.3-1.8-2.8-3.4-4.3-5c-8.4-8.4-19.5-13-31.3-13s-23,4.6-31.3,13c-4.1,4.1-7.4,9-9.6,14.4c-2.2,5.4-3.4,11.1-3.4,16.9
		C78.3,1240.5,76.7,1242.1,74.7,1242.1C74.7,1242.1,74.7,1242.1,74.7,1242.1z"/>
</g>
<g>
	<path class="st2" d="M122.6,1290c-13.7,0-26.6-5.3-36.3-15.1c-1.8-1.8-3.5-3.8-5.1-5.9c-1.2-1.6-0.8-3.8,0.8-5
		c1.6-1.2,3.8-0.8,5,0.8c1.3,1.8,2.8,3.5,4.4,5.1c8.4,8.4,19.5,13,31.3,13s23-4.6,31.3-13c4.1-4.1,7.4-9,9.6-14.4
		c2.2-5.4,3.4-11.1,3.4-16.9c0-2,1.6-3.6,3.5-3.6c2,0.1,3.6,1.6,3.6,3.5c0,6.8-1.3,13.4-3.9,19.7c-2.6,6.3-6.4,11.9-11.2,16.7
		C149.2,1284.6,136.3,1290,122.6,1290z"/>
</g>
<g>
	<path class="st2" d="M122.6,1267.8c-16.1,0-29.2-13.1-29.2-29.2s13.1-29.2,29.2-29.2s29.2,13.1,29.2,29.2
		S138.7,1267.8,122.6,1267.8z M122.6,1216.5c-12.2,0-22.1,9.9-22.1,22.1c0,12.2,9.9,22.1,22.1,22.1s22.1-9.9,22.1-22.1
		C144.7,1226.4,134.8,1216.5,122.6,1216.5z"/>
</g>
<g>
	<path class="st2" d="M118.6,1249.1c-0.9,0-1.8-0.4-2.5-1l-5.8-5.8c-1.4-1.4-1.4-3.6,0-5c1.4-1.4,3.6-1.4,5,0l3.3,3.3l11.3-11.3
		c1.4-1.4,3.6-1.4,5,0c1.4,1.4,1.4,3.6,0,5l-13.8,13.8C120.4,1248.7,119.5,1249.1,118.6,1249.1z"/>
</g>
<g>
	<path class="st2" d="M161,1213.7h-12.7c-2,0-3.6-1.6-3.6-3.6s1.6-3.6,3.6-3.6h9.2v-9.2c0-2,1.6-3.6,3.6-3.6c2,0,3.6,1.6,3.6,3.6
		v12.7C164.6,1212.1,163,1213.7,161,1213.7z"/>
</g>
<g>
	<path class="st2" d="M84,1283.2c-2,0-3.6-1.6-3.6-3.6v-12.7c0-2,1.6-3.6,3.6-3.6h12.7c2,0,3.6,1.6,3.6,3.6c0,2-1.6,3.6-3.6,3.6
		h-9.2v9.2C87.6,1281.6,86,1283.2,84,1283.2z"/>
</g>
</svg>
