<?xml version="1.0" encoding="utf-8"?>
<!-- Generator: Adobe Illustrator 23.0.1, SVG Export Plug-In . SVG Version: 6.00 Build 0)  -->
<svg version="1.1" xmlns="http://www.w3.org/2000/svg" xmlns:xlink="http://www.w3.org/1999/xlink" x="0px" y="0px"
	 viewBox="0 0 586 559" style="enable-background:new 0 0 586 559;" xml:space="preserve">
<style type="text/css">
	.st0{fill:#FC6D26;}
	.st1{fill:#E24329;}
	.st2{fill:#FCA326;}
	.st3{fill:#FFFFFF;}
	.st4{fill:#8D1405;}
	.st5{fill:#E04329;}
	.st6{fill:#9CA2AC;}
	.st7{display:none;}
	.st8{display:inline;}
	.st9{display:inline;opacity:0.1;fill:#E828E3;}
	.st10{font-family:'SourceSansPro-Semibold';}
	.st11{font-size:24px;}
</style>
<g id="logo_art">
	<g>
		<path class="st4" d="M293,436.3c-3.2,0-6.3-1-9-2.9L135.1,325.2c-8.9-6.5-12.9-17.5-10.3-28.2v-0.6l0.7-1.7l17.1-52.6
			c0.1-0.2,0.2-0.4,0.2-0.7l33.8-104.3c3-8.9,10.9-14.6,20.1-14.6l0.2,0c9.2,0.1,17,5.8,19.8,14.5l30.6,94.2h45.7l45.5,0l30.6-94.2
			c2.9-8.8,10.7-14.5,19.9-14.6c9.3,0,17.2,5.6,20.2,14.4l33.9,104.3c0.2,0.6,0.4,1.3,0.6,1.9l17.4,53.4v0.2
			c2.6,10.7-1.4,21.7-10.3,28.2L302.1,433.3l-0.6,0.4l-0.3,0.2C298.7,435.5,295.9,436.3,293,436.3z"/>
		<path class="st5" d="M449.3,298.3L437.8,263c-0.6-1.8-2.6-2.8-4.4-2.2c-1.8,0.6-2.8,2.6-2.2,4.4l11.5,35.4c1.1,3.4-0.1,7.1-3,9.2
			l-127.8,92.8l108-138.6c1.2-1.5,0.9-3.7-0.6-4.9c-1.5-1.2-3.7-0.9-4.9,0.6L302,403.9L352,250h60.7c1.9,0,3.5-1.6,3.5-3.5
			s-1.6-3.5-3.5-3.5h-58.4L387,142.6c0.5-1.4,1.7-1.6,2.2-1.6c0.4,0,1.8,0.1,2.3,1.6l34,104.9c0.5,1.5,1.9,2.4,3.3,2.4
			c0.4,0,0.7-0.1,1.1-0.2c1.8-0.6,2.8-2.6,2.2-4.4l-34-105c-1.3-3.9-4.8-6.4-8.9-6.4c0,0,0,0-0.1,0c-4.1,0-7.6,2.5-8.8,6.4
			L346.9,243l-34.7,0c0,0,0,0,0,0c-1.9,0-3.5,1.6-3.5,3.5c0,1.9,1.6,3.5,3.5,3.5l32.4,0l-51.8,159.3l-51.8-159.4h48.4l0,13.8
			c-11.5,1.7-20.3,11.6-20.3,23.6c0,7.7,3.7,14.6,10,19.1l-1.7,23.3c-0.1,1,0.3,1.9,0.9,2.6s1.6,1.1,2.6,1.1H305
			c1,0,1.9-0.4,2.6-1.1c0.7-0.7,1-1.7,0.9-2.6l-1.7-23c6.2-4.4,10-11.7,10-19.4c0-3.7-0.9-7.5-2.6-10.8c-0.9-1.7-3-2.4-4.7-1.5
			c-1.7,0.9-2.4,3-1.5,4.7c1.2,2.4,1.8,4.9,1.8,7.6c0,6-3.2,11.5-8.4,14.5c-1.2,0.7-1.8,2-1.7,3.3l1.6,21.3h-16.6l1.6-21.6
			c0.1-1.3-0.6-2.6-1.7-3.3c-5.3-3.1-8.4-8.3-8.4-14.2c0-9.3,7.5-16.8,16.8-16.8c1.9,0,3.5-1.6,3.5-3.5l0-20.5c0-0.9-0.4-1.8-1-2.5
			c-0.7-0.7-1.5-1-2.5-1h-54.1l-33.3-102.4c-1.3-3.9-4.7-6.4-8.8-6.4c0,0,0,0-0.1,0c-4.1,0-7.6,2.5-8.9,6.4l-34,104.9
			c-0.6,1.8,0.4,3.8,2.2,4.4c0.4,0.1,0.7,0.2,1.1,0.2c1.5,0,2.8-0.9,3.3-2.4l34-104.9c0.5-1.5,1.9-1.6,2.3-1.6c0,0,0,0,0,0
			c0.5,0,1.8,0.2,2.2,1.6L231.5,243H173c-1.9,0-3.5,1.6-3.5,3.5s1.6,3.5,3.5,3.5h60.7l49.7,152.9L171.8,259.6
			c-1.2-1.5-3.4-1.8-4.9-0.6c-1.5,1.2-1.8,3.4-0.6,4.9L275,403.4l-129-93.7c-2.9-2.1-4.1-5.8-3-9.2l11.5-35.4
			c0.6-1.8-0.4-3.8-2.2-4.4c-1.8-0.6-3.8,0.4-4.4,2.2l-11.5,35.4c-2,6.3,0.2,13.1,5.5,17l148.9,108.2c0.6,0.5,1.3,0.7,2.1,0.7
			c0,0,0,0,0,0c0,0,0,0,0,0c0.2,0,0.5,0,0.7-0.1c1-0.1,1.9-0.5,2.5-1.3l0.2-0.3l147.4-107.1C449.2,311.5,451.4,304.6,449.3,298.3z"
			/>
	</g>
</g>
<g id="spacing_guides" xmlns:sketch="http://www.bohemiancoding.com/sketch/ns" class="st7">
	<path id="path40_8_" sketch:type="MSShapeGroup" class="st9" d="M0,0.5v124h586V0.5H0L0,0.5z"/>
	<path id="path40_7_" sketch:type="MSShapeGroup" class="st9" d="M0,435.5v124h586v-124H0L0,435.5z"/>
	<path id="path40_6_" sketch:type="MSShapeGroup" class="st9" d="M462.2,560h124V0h-124V560L462.2,560z"/>
	<g class="st8">
		<text transform="matrix(1 0 0 1 511.0728 283.332)" class="st10 st11">1x</text>
	</g>
	<g class="st8">
		<text transform="matrix(1 0 0 1 281.0684 500.9979)" class="st10 st11">1x</text>
	</g>
	<g class="st8">
		<text transform="matrix(1 0 0 1 281.0684 65.9981)" class="st10 st11">1x</text>
	</g>
	<path id="path40_1_" sketch:type="MSShapeGroup" class="st9" d="M0,560h124V0H0V560L0,560z"/>
	<g class="st8">
		<text transform="matrix(1 0 0 1 51.0684 283.332)" class="st10 st11">1x</text>
	</g>
</g>
</svg>
