<?xml version="1.0" encoding="UTF-8"?>
<svg width="22px" height="22px" viewBox="0 0 22 22" version="1.1" xmlns="http://www.w3.org/2000/svg" xmlns:xlink="http://www.w3.org/1999/xlink">
    <title>Group 7</title>
    <g id="Page-1" stroke="none" stroke-width="1" fill="none" fill-rule="evenodd" stroke-linecap="round" stroke-linejoin="round">
        <g id="DevSecOps-UI" transform="translate(-806.000000, -2853.000000)" stroke="#6E49CB" stroke-width="2">
            <g id="Group-7" transform="translate(807.000000, 2854.000000)">
                <path d="M20,10 C20,15.522 15.522,20 10,20 C4.478,20 0,15.522 0,10 C0,4.477 4.478,0 10,0 C15.522,0 20,4.477 20,10 Z" id="Stroke-1"></path>
                <path d="M3.4317,17.2383 C5.1887,15.7073 7.4867,14.7793 9.9997,14.7793 C12.5247,14.7793 14.8297,15.7153 16.5897,17.2583" id="Stroke-3"></path>
                <path d="M13.1934,8.9415 C13.1934,10.7055 11.7634,12.1345 10.0004,12.1345 C8.2364,12.1345 6.8064,10.7055 6.8064,8.9415 C6.8064,7.1775 8.2364,5.7485 10.0004,5.7485 C11.7634,5.7485 13.1934,7.1775 13.1934,8.9415 Z" id="Stroke-5"></path>
            </g>
        </g>
    </g>
</svg>