<?xml version="1.0" encoding="utf-8"?>
<!-- Generator: Adobe Illustrator 24.0.3, SVG Export Plug-In . SVG Version: 6.00 Build 0)  -->
<svg version="1.1" id="Layer_1" xmlns="http://www.w3.org/2000/svg" xmlns:xlink="http://www.w3.org/1999/xlink" x="0px" y="0px"
	 viewBox="0 0 846.58 621.97" style="enable-background:new 0 0 846.58 621.97;" xml:space="preserve">
<style type="text/css">
	.st0{fill:#FFD731;}
	.st1{fill:#F7DEB0;}
	.st2{fill:#38E5C4;}
	.st3{fill:#4584F4;}
	.st4{fill:#FC6D26;}
	.st5{fill:#E24329;}
	.st6{fill:#FCA326;}
	.st7{fill:#002E8C;}
	.st8{fill:#7285A5;}
	.st9{fill:#FFBB69;}
	.st10{fill:#FD96A9;}
	.st11{fill:#E0BE86;}
	.st12{fill:#FFFFFF;}
</style>
<g>
	<g>
		<g>
			<circle class="st0" cx="526.58" cy="398" r="12.81"/>
		</g>
		<g>
			<circle class="st0" cx="318.91" cy="398" r="12.81"/>
		</g>
		<g>
			<path class="st1" d="M138.39,421.05c-16.14-8.8-31.85-18.7-47.02-29.72c-7.26,10,7.12,52.36,7.12,52.36s-45.51,0.48-53.8,11.89
				c36.61,26.6,75.73,47.55,116.57,63.22"/>
		</g>
		<g>
			<path class="st1" d="M707.8,421.05c16.14-8.8,31.85-18.7,47.02-29.72c7.26,10-7.12,52.36-7.12,52.36s45.51,0.48,53.8,11.89
				c-36.61,26.6-75.73,47.55-116.57,63.22"/>
		</g>
		<g>
			<path class="st1" d="M721.96,440.54c-178.17,129.45-419.42,129.45-597.59,0c15.56-21.42,31.12-42.83,46.68-64.25
				c150.33,109.22,353.9,109.22,504.23,0C690.84,397.71,706.4,419.12,721.96,440.54z"/>
		</g>
		<g>
			<circle class="st2" cx="828.13" cy="344.3" r="12.45"/>
		</g>
		<g>
			<circle class="st2" cx="809.23" cy="420.38" r="12.45"/>
		</g>
		<g>
			<path class="st3" d="M724.28,292.44c0.54,1.7,1.23,3.33,2.04,4.89l-4.25,9.11c2.46,3.37,5.43,6.34,8.8,8.8l9.11-4.25
				c1.56,0.81,3.19,1.5,4.89,2.04l3.43,9.44c4.18,0.65,8.36,0.63,12.44,0l3.43-9.44c1.7-0.54,3.33-1.23,4.89-2.04l9.11,4.25
				c3.37-2.46,6.34-5.43,8.8-8.8l-4.25-9.11c0.81-1.56,1.5-3.19,2.04-4.89l9.44-3.43c0.64-4.13,0.64-8.32,0-12.44l-9.44-3.43
				c-0.54-1.7-1.23-3.33-2.04-4.89l4.25-9.11c-2.46-3.37-5.43-6.34-8.8-8.8l-9.11,4.25c-1.56-0.81-3.19-1.5-4.89-2.04l-3.43-9.44
				c-4.18-0.65-8.36-0.63-12.44,0l-3.43,9.44c-1.7,0.54-3.33,1.23-4.89,2.04l-9.11-4.25c-3.37,2.46-6.34,5.43-8.8,8.8l4.25,9.11
				c-0.81,1.56-1.5,3.19-2.04,4.89l-9.44,3.43c-0.66,4.24-0.62,8.43,0,12.44L724.28,292.44z M739.61,282.79
				c0-8.23,6.67-14.91,14.91-14.91s14.91,6.67,14.91,14.91c0,8.23-6.67,14.91-14.91,14.91S739.61,291.02,739.61,282.79z"/>
		</g>
		<g>
			<path class="st4" d="M544.89,95.84c-9.33,9.33-65.57,31.77-65.57,31.77s22.44-56.24,31.77-65.57c9.33-9.33,24.46-9.33,33.8,0
				C554.22,71.38,554.22,86.51,544.89,95.84z"/>
		</g>
		<g>
			<path class="st0" d="M583.61,156.5c-10.32,1.05-55.7-13.22-55.7-13.22s41.59-23.09,51.91-24.14s19.53,6.47,20.58,16.78
				C601.44,146.24,593.92,155.45,583.61,156.5z"/>
		</g>
		<g>
			<path class="st4" d="M306.34,95.84c9.33,9.33,65.57,31.77,65.57,31.77s-22.44-56.24-31.77-65.57c-9.33-9.33-24.46-9.33-33.8,0
				S297.01,86.51,306.34,95.84z"/>
		</g>
		<g>
			<path class="st0" d="M264.75,156.5c10.32,1.05,55.7-13.22,55.7-13.22s-41.59-23.09-51.91-24.14
				c-10.32-1.05-19.53,6.47-20.58,16.78C246.92,146.24,254.44,155.45,264.75,156.5z"/>
		</g>
		<g>
			<circle class="st4" cx="644.98" cy="151.4" r="10.8"/>
		</g>
		<g>
			<path class="st2" d="M636.61,337.06c-7.47,5.13-6.01,12.25,0.67,13.82c3.25,0.76,4.57,0.32,34.61-2.96
				c5.96-0.65,12.43-3.4,7.44-8.98C675.81,335,650.56,327.49,636.61,337.06z"/>
		</g>
		<g>
			<path class="st2" d="M611.23,363.69c1.58,6.28-2.57,9.4-6.89,7.08c-2.1-1.13-2.6-1.99-17.14-17.94
				c-2.89-3.17-5.06-7.69,0.26-8.33C591.2,344.06,608.28,351.97,611.23,363.69z"/>
		</g>
		<g>
			<path class="st0" d="M651.36,204.5c-3.51-5.07-7.48-10.48-13.4-12.21c-13.12,21.67-21.46,22.86-15.32,27.04
				C634.91,227.71,665.69,225.21,651.36,204.5z"/>
		</g>
		<g>
			<path class="st4" d="M678.66,213.68c-15.85,27.52,6.76,66.36-15.64,80.95c-17.18,11.19-42.55,7.17-55.43-8.78
				c2.73-23.6,0.66-47.98-3.93-71.29c10.73,0.03,21.33,5.29,27.84,13.82c-1.15-9.84,14.03-11.92,15.56-1.74
				C650.46,221.1,666.86,209.21,678.66,213.68z"/>
		</g>
		<g>
			<circle class="st2" cx="19.17" cy="344.3" r="12.45"/>
		</g>
		<g>
			<circle class="st2" cx="38.07" cy="420.38" r="12.45"/>
		</g>
		<g>
			<path class="st3" d="M132.45,289.01c0.62-4.01,0.66-8.2,0-12.44l-9.44-3.43c-0.54-1.7-1.23-3.33-2.04-4.89l4.25-9.11
				c-2.46-3.37-5.43-6.34-8.8-8.8l-9.11,4.25c-1.56-0.81-3.19-1.5-4.89-2.04L99,243.12c-4.08-0.63-8.26-0.65-12.44,0l-3.43,9.44
				c-1.7,0.54-3.33,1.23-4.89,2.04l-9.11-4.25c-3.37,2.46-6.34,5.43-8.8,8.8l4.25,9.11c-0.81,1.56-1.5,3.19-2.04,4.89l-9.44,3.43
				c-0.64,4.12-0.64,8.31,0,12.44l9.44,3.43c0.54,1.7,1.23,3.33,2.04,4.89l-4.25,9.11c2.46,3.37,5.43,6.34,8.8,8.8l9.11-4.25
				c1.56,0.81,3.19,1.5,4.89,2.04l3.43,9.44c4.08,0.63,8.26,0.65,12.44,0l3.43-9.44c1.7-0.54,3.33-1.23,4.89-2.04l9.11,4.25
				c3.37-2.46,6.34-5.43,8.8-8.8l-4.25-9.11c0.81-1.56,1.5-3.19,2.04-4.89L132.45,289.01z M92.78,297.7
				c-8.23,0-14.91-6.67-14.91-14.91c0-8.23,6.67-14.91,14.91-14.91s14.91,6.67,14.91,14.91C107.69,291.02,101.02,297.7,92.78,297.7z
				"/>
		</g>
		<g>
			<circle class="st4" cx="202.32" cy="151.4" r="10.8"/>
		</g>
		<g>
			<path class="st2" d="M210.69,337.06c7.47,5.13,6.01,12.25-0.67,13.82c-3.25,0.76-4.57,0.32-34.61-2.96
				c-5.96-0.65-12.43-3.4-7.44-8.98C171.49,335,196.74,327.49,210.69,337.06z"/>
		</g>
		<g>
			<path class="st2" d="M236.07,363.69c-1.58,6.28,2.57,9.4,6.89,7.08c2.1-1.13,2.6-1.99,17.14-17.94c2.89-3.17,5.06-7.69-0.26-8.33
				C256.1,344.06,239.02,351.97,236.07,363.69z"/>
		</g>
		<g>
			<path class="st0" d="M195.94,204.5c3.51-5.07,7.48-10.48,13.4-12.21c13.12,21.67,21.46,22.86,15.32,27.04
				C212.39,227.71,181.61,225.21,195.94,204.5z"/>
		</g>
		<g>
			<path class="st4" d="M168.64,213.68c15.85,27.52-6.76,66.36,15.64,80.95c17.18,11.19,42.55,7.17,55.43-8.78
				c-2.73-23.6-0.66-47.98,3.93-71.29c-10.73,0.03-21.33,5.29-27.84,13.82c1.15-9.84-14.03-11.92-15.56-1.74
				C196.84,221.1,180.44,209.21,168.64,213.68z"/>
		</g>
		<g>
			<g>
				<polygon class="st2" points="421.91,102.08 421.92,102.08 421.92,102.08 				"/>
			</g>
			<g>
				<path class="st2" d="M421.92,4.31c-20.63,0-37.35,16.72-37.35,37.35c0,20.75,22.67,42.61,37.35,60.43
					c14.68-17.81,37.35-39.68,37.35-60.43C459.27,21.03,442.54,4.31,421.92,4.31z M421.91,57.52c-8.76,0-15.86-7.1-15.86-15.86
					s7.1-15.86,15.86-15.86c8.76,0,15.86,7.1,15.86,15.86S430.68,57.52,421.91,57.52z"/>
			</g>
		</g>
		<g>
			<circle class="st3" cx="422.4" cy="179.85" r="54.02"/>
		</g>
		<g>
			<g id="g48_8_" transform="translate(155.197863, 1.160267)">
				<g id="path50_8_">
					<path class="st5" d="M266.75,423.77L266.75,423.77l52.78-162.42H213.96L266.75,423.77L266.75,423.77z"/>
				</g>
			</g>
			<g id="g56_8_" transform="translate(28.531199, 1.160800)">
				<g id="path58_8_">
					<path class="st4" d="M393.37,423.77l-52.78-162.42h-73.91L393.37,423.77L393.37,423.77z"/>
				</g>
			</g>
			<g id="g64_8_" transform="translate(0.088533, 0.255867)">
				<g id="path66_8_">
					<path class="st6" d="M295.11,262.32L295.11,262.32l-16.06,49.35c-1.45,4.48,0.12,9.43,3.96,12.22l138.79,100.85L295.11,262.32
						L295.11,262.32z"/>
				</g>
			</g>
			<g id="g72_8_" transform="translate(29.421866, 280.255593)">
				<g id="path74_8_">
					<path class="st5" d="M265.79-17.68h73.96l-31.83-97.82c-1.63-5-8.73-5-10.42,0L265.79-17.68L265.79-17.68z"/>
				</g>
			</g>
			<g id="g76_8_" transform="translate(247.197860, 1.160800)">
				<g id="path78_8_">
					<path class="st4" d="M174.75,423.77l52.78-162.42h73.96L174.75,423.77L174.75,423.77z"/>
				</g>
			</g>
			<g id="g80_8_" transform="translate(246.307061, 0.255867)">
				<g id="path82_8_">
					<path class="st6" d="M302.33,262.32L302.33,262.32l16.06,49.35c1.45,4.48-0.12,9.43-3.96,12.22L175.64,424.68L302.33,262.32
						L302.33,262.32z"/>
				</g>
			</g>
			<g id="g84_8_" transform="translate(336.973725, 280.255593)">
				<g id="path86_8_">
					<path class="st5" d="M211.7-17.68h-73.96l31.77-97.82c1.63-5,8.73-5,10.42,0L211.7-17.68L211.7-17.68z"/>
				</g>
			</g>
		</g>
	</g>
	<g>
		<g>
			<g id="g48_7_" transform="translate(155.197863, 1.160267)">
				<g id="path50_7_">
					<path class="st7" d="M268.12,430.81c-1.86,0-3.52-1.2-4.1-2.98l-53.33-164.1c-0.43-1.31-0.2-2.75,0.61-3.86
						c0.81-1.11,2.11-1.77,3.48-1.77h106.65c1.38,0,2.67,0.66,3.48,1.77c0.81,1.12,1.04,2.55,0.61,3.86l-53.33,164.1
						C271.64,429.61,269.98,430.81,268.12,430.81z M220.72,266.71l47.4,145.86l47.4-145.86H220.72z"/>
				</g>
			</g>
			<g id="g56_7_" transform="translate(28.531199, 1.160800)">
				<g id="path58_7_">
					<path class="st7" d="M394.75,430.81c-1.29,0-2.56-0.58-3.4-1.66l-128-164.1c-1.01-1.3-1.2-3.06-0.47-4.54
						c0.72-1.48,2.22-2.42,3.87-2.42h74.67c1.86,0,3.52,1.2,4.1,2.98l53.33,164.1c0.64,1.99-0.23,4.15-2.07,5.13
						C396.13,430.65,395.43,430.81,394.75,430.81z M275.57,266.71l107.51,137.84l-44.79-137.84H275.57z"/>
				</g>
			</g>
			<g id="g64_7_" transform="translate(0.088533, 0.255867)">
				<g id="path66_7_">
					<path class="st7" d="M423.16,431.77c-0.88,0-1.77-0.27-2.53-0.82L280.4,329.06c-5.39-3.92-7.63-10.82-5.56-17.16l16.23-49.86
						c0.49-1.51,1.78-2.63,3.35-2.91c1.58-0.27,3.16,0.34,4.14,1.59l128,164.1c1.32,1.69,1.19,4.1-0.3,5.64
						C425.42,431.33,424.3,431.77,423.16,431.77z M296.75,272.41l-13.72,42.15c-0.91,2.79,0.07,5.81,2.43,7.53l115.51,83.93
						L296.75,272.41z"/>
				</g>
			</g>
			<g id="g72_7_" transform="translate(29.421866, 280.255593)">
				<g id="path74_7_">
					<path class="st7" d="M340.58-12.32h-74.73c-1.38,0-2.67-0.66-3.48-1.77c-0.81-1.11-1.04-2.55-0.61-3.86l32.04-98.84
						c1.4-4.16,4.98-6.76,9.44-6.77c4.31,0.02,7.95,2.68,9.28,6.77l32.16,98.84c0.43,1.31,0.2,2.75-0.61,3.86
						C343.26-12.99,341.96-12.32,340.58-12.32z M271.78-20.94h62.88l-30.33-93.2c-0.17-0.54-0.56-0.82-1.14-0.82c0,0-0.01,0-0.01,0
						c-0.42,0-0.96,0.15-1.21,0.86L271.78-20.94z"/>
				</g>
			</g>
			<g id="g76_7_" transform="translate(247.197860, 1.160800)">
				<g id="path78_7_">
					<path class="st7" d="M176.12,430.81c-0.68,0-1.38-0.16-2.02-0.5c-1.84-0.98-2.72-3.15-2.07-5.13l53.33-164.1
						c0.58-1.77,2.23-2.98,4.1-2.98h74.73c1.65,0,3.15,0.94,3.87,2.42c0.72,1.48,0.54,3.24-0.47,4.54l-128.06,164.1
						C178.67,430.23,177.41,430.81,176.12,430.81z M232.57,266.71l-44.8,137.86l107.58-137.86H232.57z"/>
				</g>
			</g>
			<g id="g80_7_" transform="translate(246.307061, 0.255867)">
				<g id="path82_7_">
					<path class="st7" d="M177.02,431.72c-1.14,0-2.26-0.45-3.1-1.31c-1.49-1.54-1.62-3.95-0.3-5.64l128-164.04
						c0.98-1.26,2.56-1.87,4.14-1.59c1.57,0.28,2.86,1.39,3.35,2.91l16.23,49.86c2.06,6.35-0.17,13.25-5.56,17.16L179.55,430.89
						C178.79,431.45,177.9,431.72,177.02,431.72z M303.43,272.4L199.2,405.97l115.51-83.88c2.36-1.72,3.34-4.74,2.43-7.53
						L303.43,272.4z"/>
				</g>
			</g>
			<g id="g84_7_" transform="translate(336.973725, 280.255593)">
				<g id="path86_7_">
					<path class="st7" d="M214.39-12.32h-74.73c-1.38,0-2.67-0.66-3.48-1.77c-0.81-1.12-1.04-2.55-0.61-3.86l32.1-98.84
						c1.33-4.09,4.97-6.75,9.28-6.77c4.41-0.13,8.04,2.62,9.42,6.72l32.12,98.88c0.43,1.31,0.2,2.75-0.61,3.86
						C217.06-12.99,215.77-12.32,214.39-12.32z M145.58-20.94h62.88l-30.27-93.2c-0.22-0.67-0.77-0.82-1.19-0.82c0,0-0.01,0-0.01,0
						c-0.58,0-0.96,0.28-1.14,0.82L145.58-20.94z"/>
				</g>
			</g>
		</g>
		<g>
			<g>
				<path class="st7" d="M423.36,541.93c-108.97,0-213.17-33.85-301.33-97.91c-1.92-1.4-2.35-4.09-0.95-6.02l46.68-64.25
					c0.67-0.92,1.68-1.54,2.81-1.72c1.12-0.18,2.28,0.1,3.2,0.77c149.28,108.46,349.89,108.46,499.17,0
					c0.92-0.67,2.08-0.95,3.2-0.77c1.13,0.18,2.14,0.8,2.81,1.72l46.68,64.25c1.4,1.92,0.97,4.62-0.95,6.02
					C636.53,508.07,532.33,541.93,423.36,541.93z M130.59,439.57c85.93,61.34,187.07,93.75,292.77,93.75
					c105.7,0,206.84-32.4,292.77-93.75l-41.62-57.28c-150.77,107.31-351.53,107.31-502.3,0L130.59,439.57z"/>
			</g>
			<g>
				<path class="st7" d="M685.12,523.1c-1.73,0-3.36-1.05-4.02-2.77c-0.85-2.22,0.26-4.71,2.48-5.56
					c39.45-15.13,76.78-35.11,111.05-59.43c-9.27-4.81-31.47-7.2-46.78-7.36c-1.38-0.02-2.67-0.69-3.47-1.82
					c-0.8-1.13-1.01-2.57-0.56-3.87c5.39-15.89,9.61-34.93,8.91-44.04c-13.69,9.66-28.02,18.58-42.67,26.57
					c-2.08,1.14-4.7,0.37-5.84-1.72c-1.14-2.09-0.37-4.7,1.72-5.84c16.06-8.75,31.72-18.65,46.55-29.43
					c0.93-0.67,2.07-0.96,3.2-0.77c1.13,0.18,2.14,0.8,2.81,1.72c6.87,9.45-0.34,36.73-4.72,50.73c13.9,0.54,43.72,2.94,51.4,13.52
					c1.4,1.92,0.97,4.62-0.95,6.02c-36.1,26.23-75.66,47.68-117.56,63.76C686.16,523.01,685.63,523.1,685.12,523.1z"/>
			</g>
			<g>
				<path class="st7" d="M658.73,479.66l26.39,39.13l37.04-78.25C722.16,440.54,687.08,476.32,658.73,479.66z"/>
				<path class="st7" d="M685.12,523.1c-1.42,0-2.76-0.71-3.57-1.9l-26.4-39.13c-0.84-1.24-0.97-2.84-0.34-4.2
					c0.63-1.37,1.92-2.31,3.41-2.48c26.5-3.13,60.52-37.52,60.86-37.86c1.48-1.51,3.82-1.72,5.54-0.52c1.72,1.2,2.33,3.47,1.43,5.37
					l-37.03,78.25c-0.66,1.4-2.02,2.34-3.57,2.45C685.34,523.09,685.23,523.1,685.12,523.1z M665.93,482.65l18.53,27.47l24.65-52.09
					C697.58,467.41,681.42,478.59,665.93,482.65z"/>
			</g>
			<g>
				<path class="st7" d="M161.46,523.1c-0.51,0-1.03-0.09-1.54-0.29c-41.9-16.07-81.46-37.52-117.56-63.76
					c-1.92-1.4-2.35-4.09-0.95-6.02c7.69-10.58,37.5-12.98,51.4-13.52c-4.38-14-11.59-41.28-4.72-50.73
					c0.67-0.92,1.68-1.54,2.81-1.72c1.12-0.19,2.28,0.1,3.2,0.77c14.83,10.78,30.49,20.68,46.55,29.43
					c2.09,1.14,2.86,3.75,1.72,5.84c-1.14,2.09-3.76,2.86-5.84,1.72c-14.65-7.98-28.98-16.91-42.67-26.57
					c-0.7,9.11,3.52,28.14,8.91,44.04c0.45,1.31,0.24,2.75-0.56,3.87c-0.8,1.13-2.09,1.8-3.47,1.82
					c-15.31,0.16-37.51,2.55-46.78,7.36c34.26,24.31,71.6,44.29,111.05,59.43c2.22,0.85,3.33,3.34,2.48,5.56
					C164.82,522.05,163.19,523.1,161.46,523.1z"/>
			</g>
			<g>
				<path class="st7" d="M124.42,440.54l37.04,78.25l26.39-39.13C187.85,479.66,159.23,477.43,124.42,440.54z"/>
				<path class="st7" d="M161.46,523.1c-0.11,0-0.22,0-0.33-0.01c-1.54-0.12-2.9-1.05-3.57-2.45l-37.04-78.25
					c-0.91-1.91-0.29-4.2,1.46-5.4c1.75-1.2,4.11-0.94,5.56,0.6c33.28,35.27,60.36,37.77,60.63,37.79c1.53,0.12,2.88,1.04,3.54,2.42
					c0.67,1.38,0.55,3.01-0.31,4.28l-26.39,39.13C164.22,522.39,162.88,523.1,161.46,523.1z M138.02,459.21l24.09,50.9l18.53-27.48
					C172.19,480.42,156.65,474.55,138.02,459.21z"/>
			</g>
		</g>
		<g>
			<g>
				<circle class="st7" cx="563.85" cy="188.35" r="11.74"/>
			</g>
			<g>
				<circle class="st7" cx="573.15" cy="235.61" r="8.49"/>
			</g>
			<g>
				<path class="st7" d="M579.12,278.52c-1.12,0-2.24-0.46-3.04-1.26c-0.8-0.8-1.26-1.9-1.26-3.04c0-0.29,0.03-0.57,0.08-0.83
					c0.06-0.29,0.15-0.55,0.26-0.8c0.08-0.26,0.23-0.52,0.37-0.75c0.17-0.26,0.34-0.46,0.54-0.66c1.01-1,2.5-1.46,3.88-1.18
					c0.29,0.06,0.54,0.14,0.8,0.23c0.26,0.11,0.52,0.26,0.75,0.4c0.26,0.17,0.46,0.34,0.66,0.55c0.2,0.2,0.37,0.4,0.55,0.66
					c0.14,0.23,0.29,0.49,0.4,0.75c0.09,0.26,0.17,0.52,0.23,0.8c0.06,0.26,0.09,0.55,0.09,0.83c0,0.29-0.03,0.57-0.09,0.83
					c-0.06,0.29-0.14,0.55-0.23,0.8c-0.11,0.26-0.26,0.52-0.4,0.75c-0.17,0.23-0.34,0.46-0.55,0.66c-0.2,0.2-0.4,0.37-0.66,0.55
					c-0.23,0.14-0.49,0.29-0.75,0.37c-0.26,0.11-0.52,0.2-0.8,0.26C579.69,278.49,579.41,278.52,579.12,278.52z"/>
			</g>
			<g>
				<circle class="st7" cx="282.73" cy="188.35" r="11.74"/>
			</g>
			<g>
				<circle class="st7" cx="273.43" cy="235.61" r="8.49"/>
			</g>
			<g>
				<path class="st7" d="M267.46,278.52c-1.15,0-2.27-0.46-3.04-1.26c-0.8-0.8-1.26-1.92-1.26-3.04c0-1.12,0.46-2.24,1.26-3.04
					c1.58-1.61,4.48-1.61,6.09,0c0.8,0.8,1.26,1.92,1.26,3.04c0,1.12-0.46,2.24-1.26,3.04C269.7,278.06,268.58,278.52,267.46,278.52
					z"/>
			</g>
		</g>
		<g>
			<g>
				<path class="st7" d="M476.99,131.92c-1.12,0-2.22-0.44-3.04-1.26c-1.22-1.22-1.59-3.04-0.96-4.64
					c2.33-5.84,23.05-57.34,32.73-67.02c5.33-5.33,12.41-8.26,19.94-8.26c7.54,0,14.62,2.93,19.94,8.26
					c5.33,5.33,8.26,12.41,8.26,19.94c0,7.53-2.94,14.62-8.26,19.94c-9.68,9.68-61.18,30.4-67.02,32.73
					C478.07,131.82,477.53,131.92,476.99,131.92z M525.66,59.36c-5.02,0-10.03,1.91-13.85,5.73c-5.54,5.54-17.98,32.97-26.98,54.69
					c21.71-9,49.14-21.44,54.68-26.98c7.64-7.64,7.64-20.07,0-27.71C535.7,61.27,530.68,59.36,525.66,59.36z"/>
			</g>
			<g>
				<path class="st7" d="M504.3,102.33c-1.3,0.61-2.64-0.73-2.03-2.03c6.36-13.54,13.56-25.92,16.13-28.68
					c3.98-3.98,10.52-3.98,14.53,0.03c4.02,4.02,4.02,10.55,0,14.57C530.2,88.78,517.84,95.97,504.3,102.33z"/>
			</g>
			<g>
				<path class="st7" d="M369.59,131.92c-0.54,0-1.08-0.1-1.6-0.31c-5.84-2.33-57.34-23.05-67.02-32.73
					c-5.33-5.33-8.26-12.41-8.26-19.94c0-7.53,2.94-14.62,8.26-19.94c11-11,28.89-11,39.89,0c9.68,9.68,30.4,61.18,32.73,67.02
					c0.64,1.6,0.26,3.42-0.96,4.64C371.81,131.48,370.71,131.92,369.59,131.92z M320.91,59.36c-5.02,0-10.03,1.91-13.85,5.73
					c-7.64,7.64-7.64,20.07,0,27.71c5.54,5.54,32.97,17.98,54.68,26.98c-9-21.71-21.44-49.14-26.98-54.69
					C330.95,61.27,325.93,59.36,320.91,59.36z"/>
			</g>
			<g>
				<path class="st7" d="M342.27,102.33c1.3,0.61,2.64-0.73,2.03-2.03c-6.36-13.54-13.56-25.92-16.13-28.68
					c-3.98-3.98-10.52-3.98-14.53,0.03c-4.02,4.02-4.02,10.55,0,14.57C316.37,88.78,328.73,95.97,342.27,102.33z"/>
			</g>
		</g>
		<g>
			<g>
				<path class="st7" d="M581.67,160.85c-12.75,0-51.41-12.03-55.95-13.46c-1.64-0.52-2.82-1.96-2.99-3.67
					c-0.17-1.71,0.69-3.36,2.19-4.2c4.34-2.41,42.68-23.55,53.57-24.66c6.12-0.63,12.14,1.18,16.92,5.08
					c4.78,3.9,7.75,9.42,8.37,15.56c0.63,6.13-1.18,12.14-5.07,16.92c-3.9,4.78-9.42,7.75-15.56,8.37
					C582.71,160.83,582.21,160.85,581.67,160.85z M538.1,142.15c17,5.02,38.5,10.61,44.18,10.06c3.85-0.39,7.31-2.26,9.75-5.25
					c2.44-2.99,3.57-6.76,3.18-10.61c-0.39-3.85-2.25-7.31-5.25-9.75c-3-2.44-6.75-3.57-10.61-3.18
					C573.66,124,553.75,133.82,538.1,142.15z"/>
			</g>
			<g>
				<path class="st7" d="M556.2,141.45c-1.09-0.27-1.24-1.75-0.23-2.24c10.6-5.09,21.13-9.04,24.06-9.45
					c4.4-0.45,8.38,2.8,8.83,7.24c0.45,4.44-2.79,8.42-7.24,8.87C578.7,146.06,567.6,144.3,556.2,141.45z"/>
			</g>
			<g>
				<path class="st7" d="M264.9,160.85c-0.54,0-1.03-0.02-1.47-0.07l0,0c-6.13-0.62-11.66-3.6-15.55-8.37
					c-3.9-4.78-5.7-10.79-5.08-16.92c0.62-6.13,3.59-11.66,8.37-15.55c4.78-3.9,10.79-5.7,16.92-5.08
					c10.88,1.1,49.23,22.25,53.57,24.66c1.5,0.84,2.37,2.49,2.19,4.2c-0.17,1.71-1.35,3.16-2.99,3.67
					C316.31,148.82,277.65,160.85,264.9,160.85z M264.29,152.22c5.69,0.57,27.18-5.04,44.18-10.06
					c-15.64-8.33-35.56-18.15-41.25-18.73c-3.86-0.39-7.61,0.74-10.61,3.18s-4.86,5.91-5.25,9.75c-0.39,3.85,0.74,7.61,3.18,10.61
					C256.99,149.96,260.45,151.82,264.29,152.22L264.29,152.22z"/>
			</g>
			<g>
				<path class="st7" d="M290.37,141.45c1.09-0.27,1.24-1.75,0.23-2.24c-10.6-5.09-21.13-9.04-24.06-9.45
					c-4.4-0.45-8.38,2.8-8.83,7.24c-0.45,4.44,2.79,8.42,7.24,8.87C267.88,146.06,278.97,144.3,290.37,141.45z"/>
			</g>
		</g>
		<g>
			<g>
				<path class="st7" d="M710.95,221.29c20.21,0.54,36.19-15.42,35.65-35.65C726.39,185.1,710.41,201.06,710.95,221.29z"/>
				<path class="st7" d="M711.96,225.61c-0.37,0-0.75-0.01-1.12-0.02c-2.29-0.06-4.13-1.9-4.19-4.19
					c-0.29-10.97,3.72-21.19,11.3-28.77c7.58-7.58,17.75-11.57,28.77-11.3c2.29,0.06,4.13,1.9,4.19,4.19
					c0.29,10.97-3.72,21.19-11.3,28.77C732.29,221.61,722.5,225.61,711.96,225.61z M742.12,190.12c-6.9,0.75-13.2,3.73-18.09,8.61
					c-4.88,4.88-7.85,11.18-8.6,18.08c6.9-0.75,13.2-3.73,18.09-8.61C738.39,203.32,741.37,197.02,742.12,190.12z"/>
			</g>
			<g>
				<path class="st7" d="M689.32,185.43c9.21-8.73,9.22-22.91,0-31.65C680.11,162.51,680.1,176.69,689.32,185.43z"/>
				<path class="st7" d="M689.32,189.73c-1.07,0-2.13-0.39-2.96-1.18c-5.32-5.05-8.25-11.78-8.25-18.95c0-7.17,2.93-13.9,8.25-18.95
					c1.67-1.58,4.27-1.58,5.93,0c5.32,5.05,8.25,11.78,8.25,18.95c0,7.17-2.93,13.9-8.25,18.95
					C691.45,189.34,690.39,189.73,689.32,189.73z M689.32,160.53c-1.7,2.73-2.6,5.84-2.6,9.08c0,3.24,0.91,6.35,2.6,9.08
					c1.7-2.73,2.6-5.84,2.6-9.08C691.93,166.37,691.02,163.25,689.32,160.53z"/>
			</g>
			<g>
				<path class="st7" d="M135.62,221.29c-20.21,0.54-36.19-15.42-35.65-35.65C120.18,185.1,136.16,201.06,135.62,221.29z"/>
				<path class="st7" d="M134.62,225.61c-10.54,0-20.33-4-27.65-11.32c-7.58-7.58-11.59-17.79-11.3-28.77
					c0.06-2.29,1.9-4.13,4.19-4.19c11.01-0.29,21.19,3.72,28.77,11.3c7.58,7.58,11.59,17.79,11.3,28.77
					c-0.06,2.29-1.9,4.13-4.19,4.19C135.36,225.6,134.99,225.61,134.62,225.61z M135.62,221.29h0.03H135.62z M104.46,190.12
					c0.75,6.9,3.73,13.2,8.6,18.08c4.88,4.88,11.19,7.86,18.09,8.61c-0.75-6.9-3.72-13.2-8.6-18.08
					C117.66,193.85,111.36,190.87,104.46,190.12z"/>
			</g>
			<g>
				<path class="st7" d="M157.25,185.43c-9.21-8.73-9.22-22.91,0-31.65C166.46,162.51,166.47,176.69,157.25,185.43z"/>
				<path class="st7" d="M157.26,189.73c-1.07,0-2.13-0.39-2.96-1.18c-5.32-5.05-8.25-11.78-8.25-18.95c0-7.17,2.93-13.9,8.25-18.95
					c1.67-1.58,4.27-1.58,5.93,0c5.32,5.05,8.25,11.78,8.25,18.95c0,7.17-2.93,13.9-8.25,18.95
					C159.39,189.34,158.32,189.73,157.26,189.73z M157.26,160.53c-1.7,2.73-2.6,5.84-2.6,9.08c0,3.24,0.91,6.35,2.6,9.08
					c1.7-2.73,2.6-5.84,2.6-9.08C159.86,166.37,158.96,163.25,157.26,160.53z"/>
			</g>
		</g>
		<g>
			<g>
				<path class="st7" d="M804.38,411.08c-1.49,0-2.93-0.77-3.73-2.15c-28.12-48.66-75.92-40.77-77.95-40.41
					c-2.31,0.43-4.58-1.14-5-3.48c-0.42-2.34,1.12-4.57,3.46-5c0.57-0.1,14.2-2.5,31.74,1.79c16.19,3.96,38.91,14.59,55.2,42.78
					c1.19,2.06,0.49,4.69-1.58,5.88C805.86,410.9,805.11,411.08,804.38,411.08z"/>
			</g>
			<g>
				<path class="st7" d="M789.11,380.9c-10.76,0-20.99-3.59-27.63-7.3c-2.07-1.16-2.82-3.78-1.65-5.86
					c1.16-2.08,3.78-2.81,5.85-1.66l0,0c1.42,0.79,34.89,18.92,51.53-10.77c1.17-2.08,3.8-2.81,5.86-1.65
					c2.07,1.16,2.81,3.79,1.65,5.86C815.63,375.76,801.99,380.9,789.11,380.9z"/>
			</g>
			<g>
				<path class="st7" d="M828.67,362.21c-9.87,0-17.9-8.03-17.9-17.91s8.03-17.91,17.9-17.91c9.87,0,17.9,8.03,17.9,17.91
					S838.54,362.21,828.67,362.21z M828.67,335.01c-5.12,0-9.29,4.17-9.29,9.29s4.17,9.29,9.29,9.29c5.12,0,9.29-4.17,9.29-9.29
					S833.79,335.01,828.67,335.01z"/>
			</g>
			<g>
				<path class="st7" d="M809.78,438.29c-9.87,0-17.9-8.03-17.9-17.91c0-9.87,8.03-17.9,17.9-17.9s17.9,8.03,17.9,17.9
					C827.68,430.25,819.65,438.29,809.78,438.29z M809.78,411.09c-5.12,0-9.29,4.17-9.29,9.29c0,5.12,4.17,9.29,9.29,9.29
					c5.12,0,9.29-4.17,9.29-9.29C819.07,415.26,814.9,411.09,809.78,411.09z"/>
			</g>
			<g>
				<path class="st7" d="M42.19,411.08c-0.73,0-1.47-0.19-2.15-0.58c-2.06-1.19-2.76-3.82-1.58-5.88
					c16.29-28.19,39.01-38.83,55.2-42.78c17.54-4.29,31.17-1.89,31.74-1.79c2.34,0.43,3.89,2.67,3.47,5.01s-2.68,3.89-5.01,3.46
					c-2.02-0.36-49.82-8.26-77.94,40.41C45.13,410.31,43.68,411.08,42.19,411.08z"/>
			</g>
			<g>
				<path class="st7" d="M57.47,380.9c-12.89,0-26.52-5.14-35.62-21.37c-1.16-2.07-0.42-4.7,1.65-5.86c2.06-1.16,4.7-0.43,5.86,1.65
					c16.71,29.8,50.11,11.56,51.53,10.77c2.07-1.16,4.7-0.42,5.86,1.66c1.16,2.08,0.42,4.7-1.66,5.86
					C78.46,377.32,68.22,380.9,57.47,380.9z"/>
			</g>
			<g>
				<path class="st7" d="M17.9,362.21c-9.87,0-17.9-8.03-17.9-17.91s8.03-17.91,17.9-17.91c9.87,0,17.91,8.03,17.91,17.91
					S27.78,362.21,17.9,362.21z M17.9,335.01c-5.12,0-9.29,4.17-9.29,9.29s4.17,9.29,9.29,9.29c5.12,0,9.29-4.17,9.29-9.29
					S23.03,335.01,17.9,335.01z"/>
			</g>
			<g>
				<path class="st7" d="M36.8,438.29c-9.87,0-17.9-8.03-17.9-17.91c0-9.87,8.03-17.9,17.9-17.9s17.9,8.03,17.9,17.9
					C54.7,430.25,46.67,438.29,36.8,438.29z M36.8,411.09c-5.12,0-9.29,4.17-9.29,9.29c0,5.12,4.17,9.29,9.29,9.29
					s9.29-4.17,9.29-9.29C46.09,415.26,41.92,411.09,36.8,411.09z"/>
			</g>
		</g>
		<g>
			<g>
				<path class="st7" d="M714.91,389.48c-1.15,0-2.24-0.46-3.04-1.26c-0.8-0.78-1.26-1.89-1.26-3.04c0-1.12,0.46-2.24,1.26-3.04
					c1.58-1.58,4.48-1.61,6.09,0c0.2,0.2,0.37,0.43,0.55,0.66c0.14,0.23,0.29,0.49,0.37,0.75c0.11,0.26,0.2,0.55,0.26,0.8
					c0.06,0.29,0.09,0.57,0.09,0.83c0,0.29-0.03,0.57-0.09,0.86c-0.06,0.26-0.14,0.55-0.26,0.8c-0.09,0.26-0.23,0.52-0.37,0.75
					c-0.17,0.23-0.34,0.46-0.55,0.63C717.15,389.02,716.03,389.48,714.91,389.48z"/>
			</g>
			<g>
				<path class="st7" d="M131.66,389.51c-0.29,0-0.57-0.03-0.83-0.09c-0.29-0.06-0.54-0.14-0.8-0.26c-0.26-0.11-0.52-0.23-0.75-0.4
					c-0.23-0.14-0.46-0.34-0.66-0.52c-0.8-0.8-1.26-1.92-1.26-3.07c0-1.12,0.46-2.24,1.26-3.04c0.2-0.2,0.43-0.37,0.66-0.52
					c0.23-0.17,0.49-0.29,0.75-0.4c0.26-0.11,0.52-0.2,0.8-0.26c1.38-0.29,2.87,0.17,3.87,1.18c0.8,0.8,1.26,1.92,1.26,3.04
					c0,1.15-0.46,2.27-1.26,3.07C133.91,389.05,132.78,389.51,131.66,389.51z"/>
			</g>
		</g>
		<g>
			<g>
				<path class="st7" d="M486.82,424.68c-0.29,0-0.57-0.03-0.83-0.09c-0.29-0.06-0.54-0.11-0.8-0.23c-0.26-0.11-0.52-0.26-0.75-0.4
					c-0.26-0.17-0.46-0.34-0.66-0.55c-0.2-0.2-0.37-0.4-0.55-0.66c-0.14-0.23-0.29-0.46-0.4-0.72c-0.09-0.26-0.17-0.55-0.23-0.83
					c-0.06-0.26-0.09-0.55-0.09-0.83c0-0.29,0.03-0.55,0.09-0.83c0.06-0.29,0.14-0.55,0.23-0.8c0.11-0.26,0.26-0.52,0.4-0.75
					c0.17-0.23,0.34-0.46,0.55-0.66c0.2-0.2,0.4-0.37,0.66-0.52c0.23-0.17,0.49-0.32,0.75-0.4c0.26-0.11,0.52-0.2,0.8-0.26
					c0.55-0.11,1.12-0.11,1.67,0c0.29,0.06,0.55,0.14,0.8,0.26c0.26,0.09,0.52,0.23,0.75,0.4c0.23,0.14,0.46,0.32,0.66,0.52
					c0.2,0.2,0.37,0.43,0.54,0.66c0.14,0.23,0.29,0.49,0.37,0.75c0.11,0.26,0.2,0.52,0.26,0.8c0.06,0.29,0.09,0.55,0.09,0.83
					c0,0.29-0.03,0.57-0.09,0.83c-0.06,0.29-0.14,0.57-0.26,0.83c-0.09,0.26-0.23,0.49-0.37,0.72c-0.17,0.26-0.34,0.46-0.54,0.66
					C489.06,424.22,487.94,424.68,486.82,424.68z"/>
			</g>
			<g>
				<path class="st7" d="M359.76,424.68c-1.12,0-2.24-0.46-3.04-1.26c-0.2-0.2-0.37-0.4-0.54-0.66c-0.14-0.23-0.29-0.46-0.4-0.72
					c-0.08-0.26-0.17-0.55-0.23-0.8c-0.06-0.29-0.09-0.57-0.09-0.86c0-0.26,0.03-0.55,0.09-0.83c0.06-0.29,0.14-0.55,0.23-0.8
					c0.11-0.26,0.26-0.52,0.4-0.75c0.17-0.23,0.34-0.46,0.54-0.66c0.2-0.2,0.4-0.37,0.66-0.52c0.23-0.17,0.49-0.29,0.75-0.4
					c0.26-0.11,0.52-0.2,0.8-0.26c1.38-0.29,2.87,0.17,3.87,1.18c0.2,0.2,0.37,0.43,0.55,0.66c0.14,0.23,0.29,0.49,0.37,0.75
					c0.11,0.26,0.2,0.52,0.26,0.8c0.06,0.29,0.09,0.57,0.09,0.83c0,0.29-0.03,0.57-0.09,0.86c-0.06,0.26-0.14,0.55-0.26,0.8
					c-0.09,0.26-0.23,0.49-0.37,0.72c-0.17,0.26-0.34,0.46-0.55,0.66C362,424.22,360.88,424.68,359.76,424.68z"/>
			</g>
		</g>
		<g>
			<g>
				<path class="st7" d="M792.28,353.57c-0.29,0-0.57-0.03-0.83-0.09c-0.29-0.06-0.55-0.14-0.83-0.26c-0.26-0.11-0.49-0.23-0.72-0.4
					c-0.26-0.14-0.46-0.34-0.66-0.52c-0.8-0.8-1.26-1.92-1.26-3.04c0-0.29,0.03-0.57,0.08-0.86c0.06-0.26,0.11-0.55,0.23-0.8
					c0.11-0.26,0.26-0.52,0.4-0.75c0.17-0.23,0.34-0.46,0.54-0.63c0.2-0.2,0.4-0.4,0.66-0.55c0.23-0.14,0.46-0.29,0.72-0.4
					c0.29-0.11,0.54-0.17,0.83-0.23c0.54-0.11,1.12-0.11,1.67,0c0.29,0.06,0.54,0.11,0.8,0.23c0.26,0.11,0.52,0.26,0.75,0.4
					c0.23,0.14,0.46,0.34,0.66,0.55c0.2,0.17,0.37,0.4,0.55,0.63c0.14,0.23,0.29,0.49,0.37,0.75c0.11,0.26,0.2,0.55,0.26,0.8
					c0.06,0.29,0.09,0.57,0.09,0.86c0,1.12-0.46,2.24-1.26,3.04c-0.2,0.17-0.43,0.37-0.66,0.52c-0.23,0.17-0.49,0.29-0.75,0.4
					c-0.26,0.11-0.52,0.2-0.8,0.26C792.86,353.54,792.57,353.57,792.28,353.57z"/>
			</g>
			<g>
				<path class="st7" d="M54.29,353.57c-0.29,0-0.57-0.03-0.83-0.09c-0.29-0.06-0.54-0.14-0.8-0.26c-0.26-0.11-0.52-0.23-0.75-0.4
					c-0.26-0.14-0.46-0.32-0.66-0.52c-0.8-0.8-1.26-1.92-1.26-3.04c0-1.15,0.46-2.27,1.26-3.07c0.2-0.17,0.4-0.37,0.66-0.52
					c0.23-0.17,0.49-0.29,0.75-0.4c0.26-0.11,0.52-0.17,0.8-0.23c0.55-0.11,1.12-0.11,1.67,0c0.29,0.06,0.55,0.11,0.8,0.23
					c0.26,0.11,0.52,0.23,0.75,0.4c0.23,0.14,0.46,0.34,0.66,0.52c0.2,0.2,0.37,0.43,0.54,0.66c0.14,0.23,0.29,0.49,0.4,0.75
					c0.08,0.26,0.17,0.55,0.23,0.8c0.06,0.29,0.08,0.57,0.08,0.86c0,0.26-0.03,0.55-0.08,0.83c-0.06,0.26-0.15,0.55-0.23,0.8
					c-0.11,0.26-0.26,0.52-0.4,0.75c-0.17,0.23-0.34,0.46-0.54,0.66c-0.2,0.2-0.43,0.37-0.66,0.52c-0.23,0.17-0.49,0.29-0.75,0.4
					s-0.52,0.2-0.8,0.26C54.87,353.54,54.58,353.57,54.29,353.57z"/>
			</g>
		</g>
		<g>
			<g>
				<path class="st7" d="M685.4,310.5c-0.29,0-0.57-0.03-0.83-0.09c-0.29-0.06-0.54-0.14-0.83-0.26c-0.23-0.11-0.49-0.23-0.72-0.4
					c-0.26-0.14-0.46-0.32-0.66-0.52c-0.8-0.8-1.26-1.92-1.26-3.04c0-1.15,0.46-2.24,1.26-3.07c0.2-0.17,0.4-0.37,0.66-0.52
					c0.23-0.17,0.46-0.29,0.72-0.4c0.29-0.11,0.55-0.2,0.83-0.23c0.55-0.11,1.12-0.11,1.67,0c0.29,0.03,0.55,0.11,0.8,0.23
					c0.26,0.11,0.52,0.23,0.75,0.4c0.23,0.14,0.46,0.34,0.66,0.52c0.8,0.83,1.26,1.92,1.26,3.07c0,1.12-0.46,2.24-1.26,3.04
					c-0.2,0.2-0.43,0.37-0.66,0.52c-0.23,0.17-0.49,0.29-0.75,0.4c-0.26,0.11-0.52,0.2-0.8,0.26
					C685.97,310.48,685.69,310.5,685.4,310.5z"/>
			</g>
			<g>
				<path class="st7" d="M161.18,310.5c-1.12,0-2.24-0.46-3.04-1.26c-0.8-0.8-1.26-1.92-1.26-3.04c0-0.29,0.03-0.57,0.08-0.86
					c0.06-0.26,0.15-0.55,0.26-0.8c0.08-0.26,0.23-0.49,0.37-0.75c0.17-0.23,0.34-0.43,0.54-0.63c0.2-0.2,0.43-0.4,0.66-0.55
					c0.23-0.14,0.49-0.29,0.75-0.4c0.26-0.11,0.52-0.17,0.8-0.23c0.54-0.11,1.12-0.11,1.67,0c0.29,0.06,0.54,0.11,0.8,0.23
					c0.26,0.11,0.52,0.26,0.75,0.4c0.23,0.14,0.46,0.34,0.66,0.55c0.2,0.2,0.37,0.4,0.55,0.63c0.14,0.26,0.29,0.49,0.4,0.75
					c0.09,0.26,0.17,0.55,0.23,0.8c0.06,0.29,0.09,0.57,0.09,0.86c0,0.29-0.03,0.55-0.09,0.83c-0.06,0.29-0.14,0.55-0.23,0.8
					c-0.11,0.26-0.26,0.52-0.4,0.75c-0.17,0.23-0.34,0.46-0.55,0.66C163.42,310.04,162.3,310.5,161.18,310.5z"/>
			</g>
		</g>
		<g>
			<g>
				<path class="st7" d="M639.82,307.07c-1.33,0-2.58-0.61-3.39-1.65c-20.43-26.14-20.43-67.09,0-93.23
					c0.82-1.04,2.07-1.65,3.39-1.65l0,0c1.33,0,2.58,0.61,3.39,1.65c20.43,26.14,20.43,67.09,0,93.23
					C642.39,306.46,641.14,307.07,639.82,307.07z M639.82,222.31c-13.58,21.48-13.58,51.5,0,72.98
					C653.4,273.81,653.4,243.79,639.82,222.31z"/>
			</g>
			<g>
				<path class="st7" d="M658.68,219.14c-1.41,0-2.79-0.69-3.62-1.97c-4.81-7.43-9.92-14.73-15.25-21.76
					c-5.31,7.02-10.43,14.32-15.25,21.76c-1.3,2-3.96,2.56-5.95,1.27c-2-1.29-2.57-3.96-1.27-5.96c5.97-9.23,12.39-18.24,19.08-26.8
					c0.82-1.04,2.07-1.65,3.39-1.65l0,0c1.33,0,2.58,0.61,3.39,1.65c6.7,8.58,13.12,17.59,19.08,26.8c1.29,2,0.72,4.66-1.27,5.95
					C660.29,218.92,659.48,219.14,658.68,219.14z"/>
			</g>
			<g>
				<path class="st7" d="M639.82,307.07c-12.08,0-22.72-5.07-29.97-14.29c-7.51-9.54-10.13-21.97-7.19-34.08
					c2.84-11.7,5.33-33.32-9.89-46.61c-1.29-1.12-1.79-2.9-1.28-4.52c0.51-1.63,1.93-2.8,3.62-3c1.03-0.12,25.09-2.57,39.59,22.59
					c1.19,2.06,0.48,4.69-1.58,5.88c-2.06,1.18-4.7,0.48-5.88-1.58c-6.32-10.97-14.77-15.45-21.29-17.24
					c10.21,15.61,7.84,35.14,5.08,46.52c-2.31,9.53-0.27,19.27,5.59,26.73c5.58,7.09,13.82,11,23.2,11c9.38,0,17.61-3.91,23.2-11
					c5.86-7.45,7.9-17.2,5.59-26.73c-2.76-11.38-5.13-30.91,5.08-46.52c-6.52,1.79-14.99,6.28-21.31,17.29
					c-1.19,2.06-3.82,2.77-5.88,1.59c-2.06-1.18-2.77-3.82-1.59-5.88c14.49-25.21,38.59-22.75,39.61-22.63
					c1.69,0.19,3.11,1.37,3.62,3c0.5,1.63,0.01,3.4-1.28,4.52c-15.21,13.28-12.72,34.91-9.89,46.61
					c2.94,12.12,0.31,24.54-7.19,34.08C662.53,301.99,651.89,307.07,639.82,307.07z"/>
			</g>
			<g>
				<path class="st7" d="M578.79,407.92c-1.41,0-2.79-0.69-3.62-1.96c-1.29-1.99-0.72-4.66,1.27-5.96
					c31.19-20.22,49.53-49.48,57.7-92.06c0.45-2.34,2.72-3.86,5.04-3.42c2.34,0.45,3.87,2.71,3.42,5.04
					c-8.64,45.04-28.18,76.08-61.47,97.66C580.41,407.7,579.6,407.92,578.79,407.92z"/>
			</g>
			<g>
				<path class="st7" d="M605.4,377.29c-6.08,0-12.07-2.04-16.97-5.93l0,0c-7.19-5.71-11.01-14.6-10.21-23.77
					c0.15-1.72,1.31-3.19,2.96-3.72c8.75-2.85,18.27-1.13,25.46,4.58c7.19,5.72,11.01,14.6,10.21,23.77
					c-0.15,1.72-1.31,3.19-2.96,3.72C611.11,376.84,608.24,377.29,605.4,377.29z M586.78,351.35c0.38,5.17,2.88,9.98,7.01,13.26l0,0
					c4.13,3.28,9.37,4.64,14.5,3.84c-0.38-5.17-2.88-9.98-7.01-13.26C597.15,351.91,591.9,350.56,586.78,351.35z"/>
			</g>
			<g>
				<path class="st7" d="M653.65,364.01c-11.26,0-21.99-4.95-29.35-13.71c-1.11-1.32-1.33-3.18-0.54-4.72
					c5.86-11.51,17.01-19.26,29.82-20.73c12.8-1.48,25.43,3.56,33.74,13.46c1.11,1.32,1.33,3.18,0.54,4.72
					c-5.86,11.51-17.01,19.26-29.83,20.73C656.57,363.92,655.11,364.01,653.65,364.01z M632.9,346.92c6.38,6.23,15.2,9.3,24.16,8.28
					h0c8.95-1.02,16.86-6.01,21.66-13.52c-6.38-6.23-15.19-9.3-24.16-8.28C645.61,334.43,637.71,339.41,632.9,346.92z"/>
			</g>
			<g>
				<path class="st7" d="M627.6,347.53l56.43-6.45C684.03,341.07,665.25,373.09,627.6,347.53z"/>
			</g>
			<g>
				<path class="st7" d="M611.55,370.91l-30.05-23.88C581.5,347.02,584.18,379.75,611.55,370.91z"/>
			</g>
			<g>
				<path class="st7" d="M639.81,192.65c-2.12,0-3.97-1.57-4.26-3.73c-0.06-0.45-1.45-11.27,2-27.61c0.49-2.33,2.79-3.81,5.11-3.32
					c2.33,0.49,3.81,2.78,3.32,5.1c-3.12,14.77-1.91,24.6-1.9,24.7c0.31,2.36-1.35,4.52-3.71,4.83
					C640.19,192.64,639.99,192.65,639.81,192.65z"/>
			</g>
			<g>
				<path class="st7" d="M645.52,166.51c-8.33,0-15.11-6.78-15.11-15.11s6.78-15.11,15.11-15.11s15.11,6.78,15.11,15.11
					S653.86,166.51,645.52,166.51z M645.52,144.9c-3.58,0-6.5,2.91-6.5,6.5s2.91,6.5,6.5,6.5s6.5-2.91,6.5-6.5
					S649.11,144.9,645.52,144.9z"/>
			</g>
			<g>
				<path class="st7" d="M206.76,307.07L206.76,307.07c-1.33,0-2.58-0.61-3.39-1.65c-20.43-26.14-20.43-67.09,0-93.23
					c1.63-2.09,5.15-2.09,6.78,0c20.43,26.14,20.43,67.09,0,93.23C209.34,306.46,208.09,307.07,206.76,307.07z M206.76,222.31
					c-13.58,21.48-13.58,51.49,0,72.98C220.34,273.81,220.34,243.79,206.76,222.31z"/>
			</g>
			<g>
				<path class="st7" d="M187.9,219.14c-0.8,0-1.61-0.22-2.34-0.69c-2-1.29-2.57-3.96-1.27-5.95c5.96-9.21,12.38-18.22,19.08-26.8
					c1.63-2.09,5.15-2.09,6.78,0c6.69,8.55,13.11,17.57,19.08,26.8c1.29,2,0.72,4.66-1.27,5.96c-2,1.29-4.66,0.72-5.95-1.27
					c-4.82-7.44-9.93-14.74-15.25-21.76c-5.32,7.04-10.44,14.33-15.25,21.76C190.69,218.45,189.31,219.14,187.9,219.14z"/>
			</g>
			<g>
				<path class="st7" d="M206.76,307.07c-12.08,0-22.72-5.07-29.96-14.29c-7.51-9.54-10.13-21.97-7.19-34.08
					c2.84-11.71,5.32-33.33-9.89-46.61c-1.29-1.12-1.79-2.9-1.28-4.52c0.51-1.63,1.93-2.8,3.62-3c1.03-0.11,25.12-2.57,39.61,22.63
					c1.18,2.06,0.47,4.69-1.59,5.88c-2.06,1.19-4.69,0.48-5.88-1.59c-6.32-11-14.79-15.49-21.31-17.28
					c10.21,15.61,7.84,35.14,5.08,46.52c-2.31,9.53-0.27,19.28,5.59,26.73c5.58,7.09,13.82,11,23.2,11s17.62-3.91,23.2-11
					c5.87-7.45,7.9-17.2,5.59-26.73c-2.76-11.38-5.13-30.91,5.08-46.52c-6.51,1.79-14.96,6.27-21.28,17.24
					c-1.19,2.06-3.83,2.77-5.88,1.58c-2.06-1.19-2.77-3.82-1.58-5.88c14.5-25.16,38.56-22.7,39.58-22.59c1.69,0.19,3.11,1.37,3.62,3
					c0.5,1.63,0.01,3.4-1.28,4.52c-15.21,13.29-12.72,34.91-9.89,46.61c2.94,12.12,0.31,24.54-7.19,34.08
					C229.48,301.99,218.84,307.07,206.76,307.07z"/>
			</g>
			<g>
				<path class="st7" d="M267.78,407.92c-0.8,0-1.61-0.22-2.34-0.69c-33.29-21.59-52.83-52.62-61.47-97.66
					c-0.45-2.34,1.08-4.59,3.42-5.04c2.32-0.44,4.59,1.08,5.04,3.42c8.17,42.58,26.51,71.84,57.7,92.06
					c1.99,1.29,2.56,3.96,1.27,5.96C270.57,407.23,269.19,407.92,267.78,407.92z"/>
			</g>
			<g>
				<path class="st7" d="M241.17,377.29c-2.84,0-5.71-0.44-8.49-1.35c-1.64-0.53-2.81-2-2.96-3.72c-0.8-9.17,3.02-18.05,10.21-23.77
					c7.19-5.72,16.72-7.43,25.46-4.58c1.64,0.53,2.81,2,2.96,3.72c0.8,9.17-3.02,18.06-10.21,23.77
					C253.24,375.25,247.26,377.29,241.17,377.29z M238.29,368.45c5.12,0.8,10.37-0.56,14.5-3.84l0,0c4.13-3.28,6.63-8.09,7.01-13.26
					c-5.13-0.8-10.37,0.56-14.5,3.84C241.17,358.47,238.67,363.28,238.29,368.45z"/>
			</g>
			<g>
				<path class="st7" d="M192.92,364.01c-1.46,0-2.92-0.08-4.39-0.25h0c-12.82-1.46-23.97-9.21-29.83-20.73
					c-0.79-1.54-0.57-3.4,0.54-4.72c8.31-9.89,20.94-14.93,33.74-13.46c12.82,1.47,23.97,9.21,29.83,20.73
					c0.79,1.54,0.57,3.4-0.54,4.72C214.91,359.06,204.18,364,192.92,364.01z M167.85,341.68c4.81,7.51,12.71,12.49,21.66,13.52h0
					c8.95,1.02,17.78-2.05,24.16-8.28c-4.81-7.51-12.71-12.49-21.67-13.52C183.06,332.38,174.22,335.45,167.85,341.68z"/>
			</g>
			<g>
				<path class="st7" d="M218.98,347.53l-56.43-6.45C162.55,341.07,181.32,373.09,218.98,347.53z"/>
			</g>
			<g>
				<path class="st7" d="M235.02,370.91l30.05-23.88C265.08,347.02,262.4,379.75,235.02,370.91z"/>
			</g>
			<g>
				<path class="st7" d="M206.76,192.66c-0.19,0-0.38-0.01-0.58-0.04c-2.35-0.32-4.01-2.48-3.7-4.83l0,0
					c0.01-0.1,1.23-9.92-1.9-24.7c-0.49-2.33,1-4.61,3.32-5.1c2.31-0.49,4.61,0.99,5.11,3.32c3.45,16.34,2.07,27.16,2,27.61
					C210.74,191.09,208.89,192.66,206.76,192.66z"/>
			</g>
			<g>
				<path class="st7" d="M201.05,166.51c-8.33,0-15.11-6.78-15.11-15.11s6.78-15.11,15.11-15.11c8.33,0,15.11,6.78,15.11,15.11
					S209.38,166.51,201.05,166.51z M201.05,144.9c-3.58,0-6.5,2.91-6.5,6.5s2.91,6.5,6.5,6.5s6.5-2.91,6.5-6.5
					S204.63,144.9,201.05,144.9z"/>
			</g>
		</g>
		<g>
			<g>
				<path class="st7" d="M527.12,415.11c-9.44,0-17.12-7.68-17.12-17.12c0-9.44,7.68-17.12,17.12-17.12s17.12,7.68,17.12,17.12
					C544.24,407.44,536.56,415.11,527.12,415.11z M527.12,389.5c-4.69,0-8.5,3.81-8.5,8.5s3.82,8.5,8.5,8.5s8.5-3.81,8.5-8.5
					S531.81,389.5,527.12,389.5z"/>
			</g>
			<g>
				<path class="st7" d="M319.45,415.11c-9.44,0-17.12-7.68-17.12-17.12c0-9.44,7.68-17.12,17.12-17.12s17.12,7.68,17.12,17.12
					C336.57,407.44,328.89,415.11,319.45,415.11z M319.45,389.5c-4.69,0-8.5,3.81-8.5,8.5s3.82,8.5,8.5,8.5c4.69,0,8.5-3.81,8.5-8.5
					S324.14,389.5,319.45,389.5z"/>
			</g>
		</g>
		<g>
			<path class="st7" d="M167.38,446.37c-0.77-0.43-0.97-0.96-0.61-1.6l0.1-0.19c0.22-0.4,0.88-0.84,1.98-1.33s1.88-1.16,2.33-1.98
				l12-21.59c0.46-0.83,0.61-1.84,0.45-3.03c-0.16-1.19-0.13-1.98,0.09-2.38l0.1-0.19c0.36-0.64,0.92-0.75,1.68-0.33l12.22,6.79
				c4.5,2.5,7.58,5.39,9.22,8.67c1.65,3.28,1.44,6.77-0.62,10.48c-1.91,3.43-4.65,5.53-8.23,6.31c-3.58,0.78-7.33,0.08-11.25-2.1
				l-3.54-1.97l-2.58,4.64c-0.46,0.83-0.57,1.86-0.33,3.09c0.24,1.23,0.24,2.05,0.02,2.45l-0.1,0.18c-0.36,0.64-0.92,0.75-1.68,0.33
				L167.38,446.37z M187.53,439.65l1.29,0.71c1.1,0.61,2.23,0.51,3.39-0.31c1.16-0.82,2.18-2.03,3.06-3.62
				c1.53-2.76,2.3-5.34,2.29-7.75c-0.01-2.41-0.6-3.94-1.8-4.61l-0.14-0.08c-1.19-0.66-2.23-0.2-3.12,1.39l-5.9,10.61
				C185.73,437.61,186.03,438.82,187.53,439.65z"/>
			<path class="st7" d="M244.54,477.46c-0.24,0.66-0.2,1.54,0.13,2.65c0.33,1.11,0.39,1.91,0.19,2.39l-0.08,0.19
				c-0.29,0.68-0.84,0.84-1.64,0.5l-11.32-4.81c-0.81-0.34-1.07-0.85-0.78-1.53l0.08-0.19c0.2-0.49,0.7-0.97,1.5-1.45
				c0.79-0.48,1.32-1.03,1.58-1.64c1.71-4.03,1.63-7.24-0.25-9.64l-4.47-1.84l-3.04,7.16c-0.37,0.87-0.37,1.91-0.01,3.11
				c0.36,1.2,0.46,2.01,0.28,2.43l-0.08,0.19c-0.29,0.68-0.84,0.84-1.64,0.5l-11.85-5.03c-0.8-0.34-1.07-0.85-0.78-1.53l0.08-0.19
				c0.18-0.42,0.79-0.93,1.82-1.54c1.04-0.61,1.74-1.34,2.11-2.21l9.65-22.74c0.37-0.87,0.41-1.89,0.13-3.06
				c-0.29-1.17-0.34-1.96-0.16-2.38l0.08-0.19c0.29-0.68,0.83-0.85,1.64-0.5l13.84,5.87c4.58,1.94,7.77,4.41,9.57,7.4
				c1.79,2.99,1.93,6.27,0.41,9.85c-0.59,1.39-1.63,2.63-3.12,3.73c-1.49,1.1-3.2,1.85-5.12,2.25
				C245.79,468.91,246.21,472.99,244.54,477.46z M234.37,459.84l0.87,0.37c0.87,0.37,1.81,0.2,2.81-0.49c1-0.7,1.9-2,2.71-3.9
				c0.99-2.32,1.27-4.5,0.86-6.54c-0.41-2.04-1.23-3.32-2.45-3.84l-0.24-0.1c-0.58-0.25-1.17-0.19-1.76,0.17
				c-0.59,0.36-1.05,0.93-1.38,1.7l-2.95,6.97c-0.64,1.52-0.83,2.72-0.56,3.62C232.54,458.68,233.24,459.37,234.37,459.84z"/>
			<path class="st7" d="M262.21,490.12c-0.84-0.25-1.16-0.73-0.94-1.43l0.06-0.2c0.15-0.5,0.77-1.05,1.86-1.64
				c1.09-0.59,1.97-1.33,2.64-2.23l15.92-20.52c0.54-0.71,0.58-1.8,0.1-3.26c-0.48-1.46-0.68-2.32-0.59-2.59l0.06-0.2
				c0.21-0.7,0.74-0.93,1.58-0.68l13.04,3.91c0.84,0.25,1.15,0.73,0.94,1.44l-0.06,0.2c-0.09,0.3-0.46,0.64-1.1,1.01
				c-0.64,0.37-1.22,0.84-1.74,1.4c-0.52,0.56-0.73,1.24-0.64,2.03l3,26.42c0.12,1.06,0.46,2.14,1.03,3.24
				c0.57,1.1,0.77,1.92,0.61,2.46l-0.06,0.2c-0.21,0.7-0.74,0.93-1.58,0.68l-14.65-4.39c-0.84-0.25-1.15-0.73-0.94-1.43l0.06-0.2
				c0.1-0.34,0.36-0.64,0.79-0.91c0.43-0.27,0.86-0.5,1.3-0.68c0.44-0.18,0.83-0.48,1.18-0.91c0.35-0.43,0.51-0.95,0.48-1.58
				l-0.11-2.56l-11.78-3.53l-1.5,2.07c-0.37,0.51-0.53,1.04-0.48,1.59c0.06,0.55,0.22,1.01,0.48,1.41c0.27,0.39,0.5,0.82,0.71,1.28
				c0.21,0.47,0.26,0.87,0.16,1.2l-0.06,0.2c-0.21,0.7-0.74,0.93-1.58,0.68L262.21,490.12z M275.44,480.38l8.86,2.65L283.79,469
				L275.44,480.38z"/>
			<path class="st7" d="M350.9,491.78c0.86,0.16,1.22,0.6,1.09,1.33l-0.04,0.21c-0.08,0.45-0.61,1.07-1.58,1.87
				c-0.97,0.8-1.54,1.66-1.71,2.59l-2.22,11.83c-0.08,0.41-0.28,0.75-0.62,1.01c-0.33,0.26-0.71,0.35-1.12,0.27
				c-0.66-0.12-1.17-0.43-1.54-0.93l-1.86-2.65c-1.3,0.65-2.83,1.07-4.6,1.28c-1.77,0.2-3.37,0.17-4.82-0.1
				c-5.68-1.07-9.83-3.74-12.45-8.03c-2.62-4.29-3.44-9.05-2.46-14.28c0.71-3.79,2.21-6.98,4.52-9.58c2.3-2.6,4.9-4.38,7.79-5.33
				c2.89-0.96,5.78-1.16,8.67-0.62c4.44,0.83,7.96,2.41,10.56,4.73c2.6,2.32,3.63,4.9,3.1,7.72c-0.27,1.41-0.9,2.47-1.9,3.17
				c-1.01,0.7-2.21,0.92-3.63,0.66c-1.65-0.31-3.05-1.12-4.19-2.44s-1.97-2.68-2.47-4.07c-0.5-1.39-1.17-2.72-1.98-3.98
				c-0.82-1.26-1.76-1.99-2.83-2.19c-1.45-0.27-2.72,0.23-3.81,1.51c-1.1,1.27-1.86,3.05-2.28,5.32c-0.94,5.03-0.67,9.53,0.82,13.49
				c1.48,3.97,3.76,6.24,6.82,6.81c0.62,0.12,1.15,0.16,1.58,0.14l1.06-5.63c0.17-0.93-0.11-1.95-0.84-3.07
				c-0.73-1.12-1.06-1.9-0.98-2.35l0.04-0.21c0.06-0.31,0.24-0.54,0.56-0.7c0.31-0.15,0.68-0.19,1.09-0.11L350.9,491.78z"/>
			<path class="st7" d="M403.48,510.06c-0.07,0.98-0.01,1.73,0.18,2.25c0.19,0.52,0.42,0.82,0.7,0.89c0.27,0.07,0.52,0.23,0.73,0.48
				s0.3,0.61,0.26,1.1c-0.09,1.26-2.13,1.74-6.11,1.45c-1.89-0.14-3.21-0.58-3.96-1.32c-0.75-0.74-1.13-2.06-1.13-3.96
				c-2.07,3.26-5.81,4.69-11.22,4.29c-3.98-0.29-7.07-1.75-9.25-4.37c-2.18-2.62-3.11-6.18-2.78-10.69l1.18-16.2
				c0.07-0.94-0.22-1.9-0.87-2.88c-0.65-0.98-0.96-1.66-0.93-2.04l0.01-0.21c0.03-0.31,0.17-0.59,0.43-0.84
				c0.26-0.24,0.59-0.37,0.98-0.38l9.31-0.48c1.87-0.08,2.76,0.4,2.69,1.41l-1.97,24.05c-0.24,2.76,0.06,4.92,0.9,6.49
				c0.83,1.57,2.05,2.42,3.66,2.53c2.27,0.17,3.99-0.57,5.17-2.21c1.17-1.63,1.86-3.76,2.05-6.38l1.27-17.4
				c0.07-0.94-0.31-1.91-1.13-2.9c-0.82-0.99-1.22-1.68-1.19-2.06l0.01-0.21c0.02-0.28,0.24-0.54,0.66-0.77
				c0.42-0.23,0.84-0.37,1.27-0.41l8.78-0.52c1.73-0.08,2.55,0.38,2.48,1.39L403.48,510.06z"/>
			<path class="st7" d="M427.19,516.5c-0.88,0.03-1.33-0.32-1.35-1.06l-0.01-0.21c-0.01-0.46,0.32-1.18,1-2.16
				c0.68-0.99,1.01-1.95,0.98-2.9l-0.84-24.69c-0.03-0.95-0.42-1.89-1.17-2.83c-0.75-0.94-1.14-1.63-1.15-2.09l-0.01-0.21
				c-0.03-0.73,0.4-1.12,1.28-1.15l24.48-0.84c0.63-0.02,1.09,0.09,1.38,0.35c0.29,0.25,0.5,0.69,0.62,1.32l1.5,7
				c0.09,0.49-0.01,0.89-0.27,1.19c-0.27,0.31-0.65,0.47-1.14,0.49l-0.31,0.01c-0.74,0.03-1.48-0.28-2.24-0.92
				c-0.76-0.64-1.42-1.35-1.99-2.11c-0.57-0.77-1.29-1.47-2.15-2.11c-0.86-0.64-1.74-0.94-2.61-0.91l-2.94,0.1
				c-1.75,0.06-2.59,1-2.53,2.82l0.33,9.56l4.47-0.15c0.7-0.03,1.3-0.28,1.81-0.77s0.89-1.02,1.13-1.59
				c0.24-0.57,0.53-1.1,0.87-1.58c0.33-0.49,0.68-0.73,1.03-0.74l0.52-0.02c0.73-0.03,1.12,0.4,1.15,1.28l0.35,10.24
				c0.03,0.87-0.33,1.32-1.06,1.35l-0.52,0.02c-0.35,0.01-0.71-0.2-1.07-0.62c-0.36-0.42-0.69-0.9-0.97-1.44
				c-0.28-0.53-0.69-1.01-1.23-1.43c-0.54-0.42-1.16-0.62-1.86-0.59l-4.46,0.15l0.29,8.61c0.04,1.12,0.34,2.09,0.91,2.92
				c0.57,0.82,1.47,1.21,2.7,1.17l3.78-0.13c0.87-0.03,1.68-0.41,2.43-1.14s1.34-1.53,1.79-2.4c0.44-0.87,1-1.67,1.68-2.4
				c0.68-0.72,1.4-1.1,2.17-1.13l0.52-0.02c0.45-0.02,0.8,0.16,1.04,0.52c0.24,0.36,0.33,0.75,0.28,1.17l-0.91,7.29
				c-0.08,0.67-0.26,1.15-0.53,1.44c-0.27,0.29-0.72,0.45-1.35,0.47L427.19,516.5z"/>
			<path class="st7" d="M527.96,493.8c0.38-0.07,0.69-0.01,0.94,0.2c0.25,0.2,0.38,0.5,0.38,0.89l-0.08,9
				c-0.01,0.89-0.36,1.4-1.05,1.53l-25.72,4.83c-0.38,0.07-0.74,0.01-1.08-0.2c-0.34-0.2-0.54-0.48-0.61-0.82l-0.15-0.78
				c-0.39-2.07-0.17-4.21,0.64-6.43c0.81-2.22,1.91-4.29,3.3-6.21c1.38-1.92,2.77-3.8,4.15-5.65c1.38-1.85,2.51-3.71,3.39-5.61
				c0.87-1.89,1.17-3.61,0.87-5.16c-0.3-1.62-0.85-2.85-1.63-3.7c-0.78-0.85-1.62-1.19-2.52-1.03c-0.69,0.13-1.17,0.77-1.46,1.93
				c-0.28,1.16-0.47,2.4-0.56,3.71c-0.09,1.32-0.53,2.6-1.31,3.85c-0.78,1.25-1.97,2.03-3.55,2.32c-1.45,0.27-2.73,0.07-3.86-0.61
				c-1.13-0.68-1.83-1.78-2.12-3.29c-0.5-2.69,0.47-5.17,2.91-7.44c2.44-2.28,5.61-3.78,9.5-4.51c4.48-0.84,8.15-0.68,11.03,0.5
				c2.87,1.17,4.65,3.55,5.32,7.13c0.36,1.93,0.15,3.79-0.63,5.6c-0.78,1.81-1.9,3.44-3.36,4.91c-1.45,1.47-2.95,2.86-4.48,4.18
				c-1.54,1.32-2.94,2.71-4.22,4.16c-1.28,1.45-2.08,2.83-2.41,4.14l12.24-2.3c0.96-0.18,1.76-0.54,2.39-1.07
				c0.63-0.53,1.05-1.07,1.24-1.62c0.2-0.56,0.44-1.07,0.73-1.53c0.29-0.47,0.6-0.73,0.95-0.79L527.96,493.8z"/>
			<path class="st7" d="M567.56,495.71c-4.7,1.41-9.16,0.94-13.4-1.41c-4.24-2.35-7.17-6.25-8.8-11.68
				c-1.67-5.57-1.49-10.52,0.54-14.86c2.03-4.34,5.58-7.27,10.64-8.79c4.77-1.43,9.29-0.9,13.56,1.58
				c4.28,2.49,7.24,6.48,8.89,11.99c1.62,5.4,1.28,10.27-1.03,14.6S572.19,494.33,567.56,495.71z M567.95,491.54
				c2.58-0.78,2.91-4.4,0.96-10.88c-0.88-2.92-1.99-5.74-3.33-8.47c-1.35-2.72-2.88-4.99-4.59-6.8c-1.71-1.81-3.27-2.5-4.68-2.08
				c-2.62,0.79-2.84,4.8-0.66,12.05c1.39,4.63,3.28,8.64,5.66,12.02C563.69,490.77,565.9,492.15,567.95,491.54z"/>
			<path class="st7" d="M626,461.25c0.35-0.15,0.68-0.15,0.96-0.01c0.29,0.14,0.48,0.41,0.56,0.79l1.82,8.81
				c0.18,0.88-0.06,1.45-0.7,1.72l-24.14,10.12c-0.36,0.15-0.72,0.16-1.1,0.03c-0.38-0.13-0.63-0.35-0.77-0.68l-0.31-0.73
				c-0.81-1.94-1.06-4.08-0.73-6.42c0.33-2.34,0.97-4.6,1.92-6.76c0.95-2.16,1.91-4.3,2.88-6.39c0.96-2.09,1.67-4.16,2.13-6.19
				c0.46-2.04,0.38-3.78-0.23-5.23c-0.64-1.52-1.43-2.61-2.37-3.28c-0.95-0.67-1.84-0.83-2.68-0.47c-0.64,0.27-0.98,1-1.01,2.19
				c-0.03,1.19,0.04,2.44,0.23,3.75c0.19,1.31,0.03,2.65-0.47,4.04c-0.5,1.39-1.49,2.39-2.98,3.02c-1.36,0.57-2.66,0.64-3.9,0.21
				c-1.24-0.43-2.16-1.35-2.76-2.78c-1.06-2.52-0.63-5.15,1.28-7.89c1.91-2.74,4.69-4.87,8.34-6.41c4.2-1.76,7.83-2.37,10.89-1.83
				c3.06,0.54,5.29,2.49,6.7,5.85c0.76,1.81,0.94,3.68,0.56,5.61s-1.14,3.77-2.25,5.5c-1.11,1.74-2.28,3.42-3.5,5.03
				s-2.3,3.27-3.25,4.95c-0.94,1.69-1.44,3.21-1.48,4.55l11.49-4.82c0.9-0.38,1.61-0.89,2.12-1.54c0.5-0.65,0.8-1.26,0.88-1.85
				c0.08-0.58,0.21-1.13,0.39-1.65c0.18-0.51,0.44-0.84,0.76-0.97L626,461.25z"/>
			<path class="st7" d="M665.11,454.8c-4.3,2.37-8.76,2.85-13.4,1.44c-4.64-1.41-8.32-4.6-11.06-9.57c-2.8-5.1-3.67-9.98-2.6-14.65
				c1.07-4.67,3.93-8.28,8.56-10.83c4.36-2.4,8.89-2.83,13.59-1.3c4.7,1.53,8.44,4.81,11.21,9.85c2.72,4.94,3.41,9.77,2.07,14.49
				C672.13,448.94,669.34,452.47,665.11,454.8z M664.61,450.63c2.36-1.3,1.91-4.91-1.35-10.84c-1.47-2.67-3.15-5.2-5.04-7.58
				c-1.89-2.38-3.86-4.27-5.92-5.68c-2.05-1.41-3.73-1.76-5.02-1.05c-2.39,1.32-1.77,5.29,1.88,11.92
				c2.33,4.24,5.02,7.76,8.06,10.56C660.28,450.77,662.74,451.66,664.61,450.63z"/>
		</g>
		<g>
			<g>
				<path class="st7" d="M646.34,558.3c-17.44,0-25.61-6.53-29.41-12.14c-6.51-9.59-3.55-21.36,2.53-27.57
					c4.24-4.32,9.64-5.99,15.07-4.91c0.07,0.01,0.13,0.02,0.2,0.04c2.21,0.47,4.44,1.39,6.58,2.79c3.43,2.23,5.58,6.47,5.48,10.81
					c-0.09,3.83-1.89,7.05-4.93,8.83c-0.42,0.24-0.87,0.42-1.35,0.51c-2.35,0.46-4.24,0-5.6-1.37c-2.09-2.1-1.55-4.77-1.15-6.72
					c0.58-2.88,0.8-4.69-1.63-6.54c-3.04-0.32-5.28,1.32-6.52,2.6c-3.74,3.82-5.34,11.11-1.55,16.7c3.3,4.87,18.67,18.82,77.94-6
					c1.85-0.78,3.75-1.55,5.69-2.31c20.85-8.14,44.39-4.34,61.45,9.9c7.22,6.02,17.09,7.54,25.76,3.97
					c9.96-4.1,16.12-11.41,17.35-20.59c1.21-9.07-2.5-18.65-9.24-23.85c-3.43-2.65-9.07-5.16-16.38-2.16
					c-12.19,5.02-11.73,15.39-9.54,20.72c0.59,1.42,1.6,3.16,2.96,4.51c2.92,0.22,3.32-0.87,4.42-4.87c0.8-2.89,2.64-9.66,9.88-8.33
					c3.09,0.57,5.25,3.23,5.64,6.94c0.58,5.52-2.65,12.97-9.78,15.9c-8.23,3.39-17.09-1.19-21.08-10.88
					c-4.57-11.1-1.15-25.64,14.22-31.96c8.68-3.57,17.53-2.4,24.92,3.3c9.1,7.01,14.13,19.8,12.52,31.82
					c-1.65,12.36-9.68,22.1-22.6,27.41c-11.65,4.79-24.89,2.75-34.56-5.32c-14.65-12.23-34.88-15.48-52.8-8.48
					c-1.87,0.73-3.71,1.48-5.5,2.23C678.69,554.42,659.77,558.3,646.34,558.3z"/>
			</g>
			<g>
				<path class="st7" d="M200.23,558.3c-13.43,0-32.34-3.87-58.98-15.03c-1.79-0.75-3.63-1.5-5.5-2.23
					c-17.92-7-38.15-3.75-52.8,8.48c-9.67,8.07-22.91,10.12-34.56,5.32c-21.88-9.01-26.71-29.81-20.17-45.7
					c5.46-13.27,19.23-23.32,35.01-16.83c15.37,6.33,18.78,20.87,14.22,31.96c-3.99,9.69-12.85,14.26-21.08,10.88
					c-7.13-2.93-10.36-10.38-9.78-15.9c0.39-3.72,2.55-6.38,5.65-6.95c7.01-1.28,9.62,4.57,11.02,7.73c1.29,2.91,2.1,4.41,3.68,5.05
					c1.15-1.27,2.02-2.81,2.54-4.08c2.2-5.33,2.66-15.7-9.53-20.72c-11.02-4.54-20.04,3.11-23.76,12.14
					c-4.76,11.57-1.95,27.29,15.48,34.46c8.68,3.57,18.55,2.05,25.76-3.97c17.06-14.24,40.62-18.03,61.45-9.9
					c1.94,0.76,3.84,1.53,5.69,2.31c59.27,24.82,74.64,10.87,77.93,6c3.79-5.59,2.19-12.89-1.55-16.7c-1.25-1.27-3.46-2.9-6.52-2.6
					c-2.43,1.85-2.21,3.66-1.63,6.54c0.4,1.95,0.93,4.62-1.15,6.72c-1.37,1.37-3.25,1.84-5.6,1.37c-0.47-0.09-0.93-0.26-1.35-0.51
					c-3.04-1.78-4.84-5-4.93-8.83c-0.1-4.33,2.05-8.57,5.48-10.81c2.14-1.39,4.36-2.32,6.57-2.79c0.07-0.02,0.15-0.03,0.22-0.04
					c5.42-1.08,10.83,0.6,15.06,4.91c6.08,6.2,9.03,17.97,2.53,27.57C225.84,551.77,217.66,558.3,200.23,558.3z"/>
			</g>
		</g>
		<g>
			<g>
				<path class="st7" d="M754.2,327.24c-2.3,0-4.6-0.18-6.88-0.53c-1.55-0.24-2.85-1.31-3.39-2.78l-2.74-7.53
					c-0.52-0.2-1.04-0.42-1.56-0.65l-7.26,3.39c-1.42,0.66-3.09,0.5-4.36-0.42c-3.74-2.73-7.01-6.01-9.74-9.74
					c-0.93-1.27-1.09-2.94-0.42-4.36l3.39-7.26c-0.23-0.52-0.45-1.04-0.65-1.56l-7.53-2.74c-1.47-0.54-2.54-1.83-2.78-3.38
					c-0.71-4.57-0.71-9.2,0-13.77c0.24-1.55,1.31-2.85,2.78-3.38l7.53-2.74c0.2-0.52,0.42-1.04,0.65-1.56l-3.39-7.26
					c-0.66-1.42-0.5-3.09,0.42-4.36c2.73-3.73,6-7.01,9.74-9.74c1.27-0.93,2.94-1.09,4.36-0.42l7.26,3.39
					c0.52-0.23,1.04-0.45,1.56-0.65l2.74-7.53c0.54-1.48,1.84-2.54,3.39-2.79c4.56-0.71,9.2-0.71,13.76,0
					c1.55,0.24,2.85,1.31,3.39,2.79l2.74,7.53c0.52,0.2,1.04,0.42,1.56,0.65l7.26-3.39c1.42-0.66,3.09-0.5,4.36,0.42
					c3.74,2.73,7.01,6.01,9.74,9.74c0.93,1.27,1.09,2.94,0.42,4.36l-3.39,7.26c0.23,0.52,0.45,1.04,0.65,1.56l7.53,2.74
					c1.47,0.54,2.54,1.83,2.78,3.38c0.71,4.57,0.71,9.2,0,13.76c-0.24,1.55-1.31,2.85-2.78,3.38l-7.53,2.74
					c-0.2,0.52-0.42,1.04-0.65,1.56l3.39,7.26c0.66,1.42,0.5,3.09-0.42,4.36c-2.73,3.73-6,7.01-9.74,9.74
					c-1.27,0.93-2.94,1.09-4.36,0.42l-7.26-3.39c-0.52,0.23-1.04,0.45-1.56,0.65l-2.74,7.53c-0.54,1.48-1.83,2.54-3.39,2.78
					C758.8,327.07,756.5,327.24,754.2,327.24z M751.12,318.5c2.05,0.18,4.1,0.18,6.15,0l2.53-6.95c0.46-1.25,1.47-2.23,2.74-2.63
					c1.39-0.44,2.81-1.04,4.22-1.76c1.19-0.61,2.59-0.64,3.8-0.08l6.71,3.13c1.57-1.33,3.03-2.78,4.35-4.35l-3.13-6.71
					c-0.56-1.21-0.54-2.61,0.08-3.8c0.72-1.4,1.32-2.82,1.76-4.22c0.4-1.27,1.38-2.28,2.63-2.74l6.95-2.53
					c0.18-2.05,0.18-4.1,0-6.15l-6.95-2.53c-1.25-0.46-2.23-1.47-2.63-2.74c-0.45-1.4-1.04-2.81-1.76-4.21
					c-0.61-1.19-0.64-2.59-0.08-3.8l3.13-6.71c-1.33-1.57-2.78-3.03-4.35-4.35l-6.71,3.13c-1.21,0.56-2.61,0.54-3.8-0.08
					c-1.41-0.73-2.82-1.32-4.22-1.76c-1.27-0.41-2.28-1.38-2.74-2.63l-2.52-6.95c-2.05-0.17-4.1-0.17-6.15,0l-2.52,6.95
					c-0.46,1.25-1.47,2.23-2.74,2.63c-1.38,0.44-2.8,1.04-4.22,1.76c-1.19,0.61-2.59,0.64-3.8,0.08l-6.71-3.13
					c-1.57,1.33-3.03,2.78-4.35,4.35l3.13,6.71c0.56,1.21,0.54,2.61-0.08,3.8c-0.72,1.4-1.32,2.82-1.76,4.21
					c-0.4,1.27-1.38,2.28-2.63,2.74l-6.95,2.53c-0.18,2.05-0.18,4.1,0,6.15l6.95,2.53c1.25,0.46,2.23,1.47,2.63,2.74
					c0.45,1.39,1.04,2.81,1.76,4.22c0.61,1.19,0.64,2.59,0.08,3.8l-3.13,6.71c1.33,1.57,2.78,3.03,4.35,4.35l6.71-3.13
					c1.21-0.56,2.61-0.54,3.8,0.08c1.41,0.73,2.83,1.32,4.22,1.76c1.27,0.41,2.28,1.38,2.74,2.63L751.12,318.5z M754.2,302
					c-10.59,0-19.21-8.62-19.21-19.21c0-10.59,8.62-19.21,19.21-19.21c10.59,0,19.21,8.62,19.21,19.21
					C773.41,293.38,764.79,302,754.2,302z M754.2,272.19c-5.84,0-10.6,4.75-10.6,10.6c0,5.84,4.75,10.6,10.6,10.6
					c5.85,0,10.6-4.75,10.6-10.6C764.8,276.94,760.04,272.19,754.2,272.19z"/>
			</g>
			<g>
				<path class="st7" d="M92.38,327.24c-2.3,0-4.6-0.18-6.88-0.53c-1.55-0.24-2.85-1.31-3.39-2.78l-2.74-7.53
					c-0.52-0.2-1.04-0.42-1.56-0.65l-7.26,3.39c-1.42,0.66-3.09,0.5-4.36-0.42c-3.74-2.73-7.01-6.01-9.74-9.74
					c-0.93-1.27-1.09-2.94-0.42-4.36l3.39-7.26c-0.23-0.52-0.45-1.04-0.65-1.56l-7.53-2.74c-1.47-0.54-2.54-1.83-2.78-3.38
					c-0.71-4.56-0.71-9.19,0-13.76c0.24-1.55,1.31-2.85,2.78-3.39l7.53-2.74c0.2-0.52,0.42-1.04,0.65-1.56l-3.39-7.26
					c-0.66-1.42-0.5-3.09,0.42-4.36c2.73-3.73,6-7.01,9.74-9.74c1.27-0.93,2.94-1.09,4.36-0.42l7.26,3.39
					c0.52-0.23,1.04-0.45,1.56-0.65l2.74-7.53c0.54-1.48,1.84-2.54,3.39-2.79c4.56-0.71,9.2-0.71,13.76,0
					c1.55,0.24,2.85,1.31,3.39,2.79l2.74,7.53c0.52,0.2,1.04,0.42,1.56,0.65l7.26-3.39c1.42-0.66,3.09-0.5,4.36,0.42
					c3.73,2.73,7.01,6,9.74,9.74c0.93,1.27,1.09,2.94,0.43,4.36l-3.39,7.26c0.23,0.52,0.45,1.04,0.65,1.56l7.53,2.74
					c1.47,0.54,2.54,1.83,2.78,3.38c0.71,4.57,0.71,9.2,0,13.76c-0.24,1.55-1.31,2.85-2.78,3.38l-7.53,2.74
					c-0.2,0.52-0.42,1.04-0.65,1.56l3.39,7.26c0.66,1.42,0.5,3.09-0.43,4.36c-2.73,3.73-6.01,7.01-9.74,9.74
					c-1.27,0.93-2.94,1.09-4.36,0.42l-7.26-3.39c-0.52,0.23-1.04,0.45-1.56,0.65l-2.74,7.53c-0.54,1.48-1.83,2.54-3.39,2.78
					C96.98,327.07,94.68,327.24,92.38,327.24z M89.3,318.5c2.05,0.18,4.1,0.18,6.15,0l2.53-6.95c0.46-1.25,1.47-2.23,2.74-2.63
					c1.4-0.45,2.81-1.04,4.21-1.76c1.19-0.61,2.6-0.64,3.8-0.08l6.71,3.13c1.57-1.32,3.03-2.78,4.35-4.35l-3.13-6.71
					c-0.56-1.21-0.54-2.61,0.08-3.8c0.72-1.4,1.32-2.82,1.76-4.22c0.4-1.27,1.38-2.28,2.63-2.74l6.95-2.53
					c0.18-2.05,0.18-4.1,0-6.15l-6.95-2.53c-1.25-0.46-2.23-1.47-2.63-2.74c-0.45-1.4-1.04-2.81-1.76-4.21
					c-0.61-1.19-0.64-2.59-0.08-3.8l3.13-6.71c-1.32-1.57-2.78-3.03-4.35-4.35l-6.71,3.13c-1.21,0.56-2.61,0.54-3.8-0.08
					c-1.4-0.72-2.81-1.32-4.21-1.76c-1.27-0.41-2.28-1.38-2.74-2.63l-2.52-6.95c-2.05-0.17-4.1-0.17-6.15,0l-2.52,6.95
					c-0.46,1.25-1.47,2.23-2.74,2.63c-1.38,0.44-2.8,1.04-4.22,1.76c-1.19,0.61-2.59,0.64-3.8,0.08l-6.71-3.13
					c-1.57,1.33-3.03,2.78-4.35,4.35l3.13,6.71c0.56,1.21,0.54,2.61-0.08,3.79c-0.73,1.42-1.32,2.84-1.77,4.22
					c-0.4,1.27-1.38,2.28-2.63,2.74l-6.95,2.53c-0.17,2.05-0.17,4.11,0,6.15l6.95,2.53c1.25,0.46,2.23,1.47,2.63,2.74
					c0.44,1.38,1.04,2.8,1.77,4.22c0.61,1.18,0.64,2.59,0.08,3.79l-3.13,6.71c1.33,1.57,2.78,3.03,4.35,4.35l6.71-3.13
					c1.21-0.56,2.61-0.54,3.8,0.08c1.41,0.73,2.83,1.32,4.22,1.76c1.27,0.41,2.28,1.38,2.74,2.63L89.3,318.5z M92.38,302
					c-10.59,0-19.21-8.62-19.21-19.21c0-10.59,8.62-19.21,19.21-19.21c10.59,0,19.21,8.62,19.21,19.21
					C111.59,293.38,102.97,302,92.38,302z M92.38,272.19c-5.85,0-10.6,4.75-10.6,10.6c0,5.84,4.75,10.6,10.6,10.6
					c5.84,0,10.6-4.75,10.6-10.6C102.98,276.94,98.22,272.19,92.38,272.19z"/>
			</g>
		</g>
		<g>
			<g>
				<path class="st7" d="M423.29,238.81c-32.15,0-58.3-26.15-58.3-58.3s26.15-58.3,58.3-58.3s58.3,26.15,58.3,58.3
					S455.43,238.81,423.29,238.81z M423.29,130.82c-27.4,0-49.69,22.29-49.69,49.69s22.29,49.69,49.69,49.69
					c27.4,0,49.69-22.29,49.69-49.69S450.69,130.82,423.29,130.82z"/>
			</g>
			<g>
				<path class="st7" d="M423.29,238.81c-1.61,0-3.15-0.91-3.89-2.46c-1.02-2.15-0.11-4.72,2.04-5.74
					c17.54-8.34,28.88-28.01,28.88-50.1c0-22.09-11.33-41.76-28.88-50.1c-2.15-1.02-3.06-3.59-2.04-5.74
					c1.02-2.15,3.59-3.06,5.74-2.04c20.53,9.76,33.79,32.48,33.79,57.88c0,25.4-13.27,48.13-33.8,57.88
					C424.54,238.67,423.91,238.81,423.29,238.81z"/>
			</g>
			<g>
				<path class="st7" d="M423.29,238.81c-0.63,0-1.26-0.14-1.85-0.42c-20.53-9.76-33.8-32.48-33.8-57.88
					c0-25.4,13.26-48.12,33.79-57.88c1.33-0.64,2.9-0.54,4.15,0.25c1.25,0.79,2.01,2.16,2.01,3.64l0.01,107.98
					c0,1.48-0.76,2.85-2,3.64C424.89,238.58,424.09,238.81,423.29,238.81z M418.97,133.97c-13.99,9.64-22.72,27.15-22.72,46.54
					c0,19.39,8.73,36.91,22.73,46.55L418.97,133.97z"/>
			</g>
			<g>
				<path class="st7" d="M472.72,167h-99.83c-2.38,0-4.31-1.93-4.31-4.31c0-2.38,1.93-4.31,4.31-4.31h99.83
					c2.38,0,4.31,1.93,4.31,4.31C477.03,165.07,475.1,167,472.72,167z"/>
			</g>
			<g>
				<path class="st7" d="M472.72,203.17h-99.83c-2.38,0-4.31-1.93-4.31-4.31s1.93-4.31,4.31-4.31h99.83c2.38,0,4.31,1.93,4.31,4.31
					S475.1,203.17,472.72,203.17z"/>
			</g>
		</g>
		<g>
			<g>
				<path class="st7" d="M423.29,106.39L423.29,106.39c-1.29,0-2.51-0.57-3.33-1.57c-2.49-3.03-5.22-6.17-8.02-9.4
					c-14.21-16.39-30.31-34.96-30.31-53.76C381.63,18.69,400.32,0,423.29,0c22.97,0,41.66,18.69,41.66,41.66
					c0,18.8-16.11,37.38-30.32,53.78c-2.8,3.23-5.52,6.37-8.01,9.39C425.79,105.82,424.57,106.39,423.29,106.39z M423.29,8.61
					c-18.22,0-33.04,14.82-33.04,33.04c0,15.59,14.99,32.87,28.21,48.13c1.65,1.9,3.27,3.77,4.84,5.61c1.56-1.83,3.18-3.7,4.82-5.6
					c13.23-15.25,28.22-32.54,28.22-48.13C456.33,23.44,441.51,8.61,423.29,8.61z"/>
			</g>
			<g>
				<path class="st7" d="M423.29,61.83c-11.12,0-20.17-9.05-20.17-20.17s9.05-20.17,20.17-20.17c11.12,0,20.17,9.05,20.17,20.17
					S434.41,61.83,423.29,61.83z M423.29,30.1c-6.37,0-11.56,5.19-11.56,11.56s5.18,11.56,11.56,11.56s11.56-5.18,11.56-11.56
					S429.66,30.1,423.29,30.1z"/>
			</g>
		</g>
		<g>
			<g>
				<path class="st7" d="M423.29,587.23c-9.74,8.39-9.75,22.02,0,30.43C433.03,609.26,433.04,595.63,423.29,587.23z"/>
				<path class="st7" d="M423.29,621.97c-1,0-2-0.35-2.81-1.04c-5.68-4.89-8.81-11.46-8.81-18.48s3.13-13.58,8.81-18.47
					c1.61-1.39,4.01-1.39,5.62,0c5.68,4.89,8.8,11.45,8.8,18.48s-3.13,13.58-8.8,18.48C425.29,621.62,424.29,621.97,423.29,621.97z
					 M423.29,593.52c-1.96,2.67-3.01,5.74-3.01,8.93c0,3.19,1.05,6.26,3.01,8.93c1.96-2.67,3-5.74,3-8.93
					S425.25,596.19,423.29,593.52z"/>
			</g>
			<g>
				<path class="st7" d="M438.64,572.81c8.39,9.74,22.02,9.75,30.43,0C460.68,563.07,447.04,563.06,438.64,572.81z"/>
				<path class="st7" d="M453.86,584.43c-7.02,0-13.58-3.13-18.48-8.81c-1.39-1.61-1.39-4.01,0-5.62c4.9-5.68,11.46-8.81,18.48-8.81
					h0c7.02,0,13.58,3.13,18.48,8.81c1.39,1.61,1.39,4.01,0,5.62C467.44,581.3,460.88,584.43,453.86,584.43z M444.93,572.82
					c5.34,3.91,12.52,3.91,17.86,0C457.43,568.9,450.27,568.9,444.93,572.82z"/>
			</g>
			<g>
				<path class="st7" d="M377.51,572.81c8.39,9.74,22.02,9.75,30.43,0C399.54,563.07,385.91,563.06,377.51,572.81z"/>
				<path class="st7" d="M392.72,584.43c-7.02,0-13.58-3.13-18.48-8.81c-1.39-1.61-1.39-4.01,0-5.62
					c4.89-5.68,11.45-8.81,18.48-8.81c7.02,0,13.58,3.13,18.48,8.81c1.39,1.61,1.39,4.01,0,5.62
					C406.3,581.3,399.74,584.43,392.72,584.43z M383.79,572.82c5.34,3.91,12.52,3.91,17.86,0
					C396.3,568.9,389.13,568.9,383.79,572.82z"/>
			</g>
		</g>
		<g>
			<g>
				<circle class="st7" cx="568.61" cy="555.15" r="12.81"/>
			</g>
			<g>
				<circle class="st7" cx="277.96" cy="555.15" r="12.81"/>
			</g>
		</g>
		<g>
			<g>
				<circle class="st7" cx="515.96" cy="569.06" r="8.08"/>
			</g>
			<g>
				<circle class="st7" cx="330.61" cy="569.06" r="8.08"/>
			</g>
		</g>
	</g>
</g>
</svg>
