<svg xmlns="http://www.w3.org/2000/svg" viewBox="0 0 32 32" enable-background="new 0 0 32 32"><path d="M22,10.778V3.222C22,1.415,20.866,0,19.42,0H2.58C1.134,0,0,1.415,0,3.222v7.557C0,12.585,1.134,14,2.58,14
		h16.84C20.866,14,22,12.585,22,10.778z M2,10.778V3.222C2,2.476,2.381,2,2.58,2h16.84C19.619,2,20,2.476,20,3.222v7.557
		C20,11.524,19.619,12,19.42,12H2.58C2.381,12,2,11.524,2,10.778z"/><path d="m29.42 18h-16.84c-1.446 0-2.58 1.415-2.58 3.222v7.557c0 1.806 1.134 3.221 2.58 3.221h16.84c1.446 0 2.58-1.415 2.58-3.222v-7.557c0-1.806-1.134-3.221-2.58-3.221m.58 10.778c0 .746-.381 1.222-.58 1.222h-16.84c-.199 0-.58-.476-.58-1.222v-7.557c0-.745.381-1.221.58-1.221h16.84c.199 0 .58.476.58 1.222v7.556"/></svg>
